<?xml version="1.0" encoding="utf-8"?>
<!-- Generator: Adobe Illustrator 21.0.0, SVG Export Plug-In . SVG Version: 6.00 Build 0)  -->
<svg version="1.1" id="Layer_1" xmlns="http://www.w3.org/2000/svg" xmlns:xlink="http://www.w3.org/1999/xlink" x="0px" y="0px"
	 viewBox="0 0 360 332" style="enable-background:new 0 0 360 332;" xml:space="preserve">
<style type="text/css">
	.st0{fill:none;stroke:#1E1E38;stroke-width:2;stroke-miterlimit:10;}
	.st1{fill:#1E1E38;}
	.st2{fill:none;stroke:#FFFFFF;stroke-width:2;stroke-miterlimit:10;}
	.st3{fill:none;}
	.st4{fill:#F1F2F2;}
	.st5{fill:none;stroke:#FFFFFF;stroke-width:2;stroke-linejoin:round;stroke-miterlimit:10;}
	.st6{fill:#1E1E38;stroke:#FFFFFF;stroke-width:2;stroke-miterlimit:10;}
	.st7{fill:#FFFFFF;}
</style>
<g>
	<rect x="248.9" y="113.6" class="st0" width="47.8" height="24.2"/>
	<rect x="267.1" y="130.4" class="st1" width="26.2" height="3.4"/>
	<rect x="283.2" y="125.1" class="st1" width="10.1" height="3.4"/>
	<line class="st2" x1="253.6" y1="124.7" x2="257" y2="124.7"/>
	<line class="st2" x1="259" y1="124.7" x2="265.7" y2="124.7"/>
	<line class="st2" x1="253.6" y1="118.7" x2="261" y2="118.7"/>
	<rect x="170.9" y="113.6" class="st0" width="47.8" height="24.2"/>
	<rect x="189" y="130.4" class="st1" width="26.2" height="3.4"/>
	<rect x="205.2" y="125.1" class="st1" width="10.1" height="3.4"/>
	<line class="st2" x1="175.6" y1="124.7" x2="178.9" y2="124.7"/>
	<line class="st2" x1="181" y1="124.7" x2="187.7" y2="124.7"/>
	<line class="st2" x1="175.6" y1="118.7" x2="183" y2="118.7"/>
	<rect x="98.9" y="164.7" class="st2" width="47.1" height="24.2"/>
	<rect x="115" y="180.9" class="st1" width="26.2" height="3.4"/>
	<rect x="131.9" y="175.5" class="st1" width="9.4" height="3.4"/>
	<line class="st2" x1="101.6" y1="175.2" x2="105" y2="175.2"/>
	<line class="st2" x1="107.6" y1="175.2" x2="113.7" y2="175.2"/>
	<line class="st2" x1="101.6" y1="169.1" x2="109.7" y2="169.1"/>
	<rect x="98.9" y="113" class="st0" width="47.1" height="24.2"/>
	<rect x="116.4" y="129.1" class="st1" width="26.2" height="3.4"/>
	<rect x="132.5" y="123.7" class="st1" width="10.1" height="3.4"/>
	<line class="st2" x1="102.9" y1="123.4" x2="106.3" y2="123.4"/>
	<line class="st2" x1="108.3" y1="123.4" x2="115" y2="123.4"/>
	<line class="st2" x1="102.9" y1="118" x2="111" y2="118"/>
	<rect x="98.9" y="61.2" class="st0" width="47.1" height="24.2"/>
	<rect x="116.4" y="78" class="st1" width="26.2" height="2.7"/>
	<rect x="132.5" y="71.9" class="st1" width="10.1" height="3.4"/>
	<line class="st2" x1="102.9" y1="71.6" x2="106.3" y2="71.6"/>
	<line class="st2" x1="108.3" y1="71.6" x2="115" y2="71.6"/>
	<line class="st2" x1="102.9" y1="66.2" x2="111" y2="66.2"/>
	<line class="st2" x1="121.4" y1="137.2" x2="121.4" y2="164.7"/>
	<rect x="170.9" y="61.2" class="st0" width="47.8" height="24.2"/>
	<rect x="189" y="78" class="st1" width="26.2" height="2.7"/>
	<rect x="205.2" y="71.9" class="st1" width="10.1" height="3.4"/>
	<line class="st2" x1="175.6" y1="71.6" x2="178.9" y2="71.6"/>
	<line class="st2" x1="181" y1="71.6" x2="187.7" y2="71.6"/>
	<line class="st2" x1="175.6" y1="66.2" x2="183" y2="66.2"/>
	<line class="st2" x1="219.6" y1="126.7" x2="249.9" y2="126.7"/>
	<line class="st2" x1="121.4" y1="86.4" x2="121.4" y2="111.9"/>
	<line class="st2" x1="147" y1="73.6" x2="171.9" y2="73.6"/>
	<line class="st2" x1="147" y1="126.7" x2="171.9" y2="126.7"/>
	<rect x="238.1" y="76.6" class="st0" width="15.5" height="15.5"/>
	<line class="st2" x1="246.9" y1="80.3" x2="252.3" y2="80.3"/>
	<line class="st2" x1="255.6" y1="80.3" x2="267.7" y2="80.3"/>
	<line class="st2" x1="246.9" y1="88.4" x2="252.3" y2="88.4"/>
	<line class="st2" x1="255.6" y1="88.4" x2="263.7" y2="88.4"/>
	<line class="st2" x1="288.6" y1="74.9" x2="293.3" y2="74.9"/>
	<line class="st2" x1="297.3" y1="74.9" x2="302" y2="74.9"/>
	<polygon class="st3" points="314,238.1 295,257.1 275.5,276 275.5,238.1 	"/>
	<polyline class="st2" points="314.5,237.6 314,238.1 275.5,238.1 275.5,276 56.3,276 56.3,102.4 314.5,102.4 	"/>
	<polyline class="st2" points="314,238.1 295,257.1 276.1,276 275.5,276 56.3,276 56.3,102.4 314.5,102.4 314.5,184.2 	"/>
	<polygon class="st2" points="324.9,238.1 324.9,248.2 347.3,232.7 324.9,217.2 324.9,225.3 186.3,225.3 186.3,238.1 	"/>
	<rect x="164" y="184.8" class="st2" width="171.4" height="26.4"/>
	<line class="st2" x1="249.9" y1="185.6" x2="249.9" y2="193"/>
	<line class="st2" x1="238.5" y1="185.6" x2="238.5" y2="197.7"/>
	<line class="st2" x1="227.7" y1="185.6" x2="227.7" y2="193"/>
	<line class="st2" x1="216.9" y1="185.6" x2="216.9" y2="197.7"/>
	<line class="st2" x1="205.5" y1="185.6" x2="205.5" y2="193"/>
	<line class="st2" x1="194.7" y1="185.6" x2="194.7" y2="197.7"/>
	<line class="st2" x1="184" y1="185.6" x2="184" y2="193"/>
	<line class="st2" x1="172.5" y1="185.6" x2="172.5" y2="197.7"/>
	<line class="st2" x1="260.7" y1="185.6" x2="260.7" y2="197.7"/>
	<line class="st2" x1="271.4" y1="185.6" x2="271.4" y2="193"/>
	<line class="st2" x1="282.9" y1="185.6" x2="282.9" y2="197.7"/>
	<line class="st2" x1="293.6" y1="185.6" x2="293.6" y2="193"/>
	<line class="st2" x1="304.4" y1="185.6" x2="304.4" y2="197.7"/>
	<line class="st2" x1="315.8" y1="185.6" x2="315.8" y2="193"/>
	<line class="st2" x1="326.6" y1="185.6" x2="326.6" y2="197.7"/>
	<path class="st4" d="M56,198.9c3.8,0,6.9,3.1,6.9,6.9s-3.1,6.9-6.9,6.9c-3.8,0-6.9-3.1-6.9-6.9C49.1,202,52.2,198.9,56,198.9z"/>
	<path class="st5" d="M77.4,213.2h5.9v-12.9h-5.9c-0.1-1.8-1.3-4-1.4-4.1l5.2-5.5l-8.9-9.1l-5.4,5.1c-0.2-0.1-1.9-1.4-3.7-1.5v-6
		h-13v6c0,0.1-2.8,1.3-3,1.4l-4.9-5.1l-8.8,8.9l5.2,5.9c-0.1,0.2-1.3,2.3-1.4,4.1H29v12.9h8.3c0.1,0,1.3,2.4,1.4,2.5l-5.1,4.7
		l8.9,8.7l4.7-5.3c0.2,0.1,3,1.2,3,1.3v8.3h12.9v-8.3c1.8-0.1,3.5-1.3,3.7-1.4l5.3,5.1l9-8.9l-5.1-4.3
		C76.1,215.5,77.4,213.2,77.4,213.2z"/>
	<polygon class="st6" points="45.8,94.1 45.8,84 23.4,99.5 45.8,115 45.8,107.6 184.3,107.6 184.3,94.1 	"/>
	<path class="st2" d="M83.4,200.3v12.9h-5.9c-0.1,0-1.4,2.4-1.5,2.5l5.1,4.3l-9,8.9l-5.3-5.1c-0.2,0.1-1.9,1.4-3.7,1.4v8.3H50.2
		v-8.3c0-0.1-2.8-1.2-3-1.3l-4.7,5.3l-8.9-8.7l5.1-4.7c-0.1-0.2-1.4-2.5-1.4-2.5H29v-12.9h8.3c0.1-1.8,1.3-4,1.4-4.1l-5.2-5.9
		l8.8-8.9l4.9,5.1c0.2-0.1,3-1.4,3-1.4v-6h12.9v6c1.8,0.1,3.5,1.4,3.7,1.5l5.4-5.1l8.9,9.1l-5.2,5.5c0.1,0.2,1.4,2.3,1.4,4.1
		L83.4,200.3L83.4,200.3z M62.9,205.9c0-3.8-3.1-6.9-6.9-6.9c-3.8,0-6.9,3.1-6.9,6.9c0,3.8,3.1,6.9,6.9,6.9S62.9,209.7,62.9,205.9z"
		/>
	<rect x="43.6" y="251.5" class="st5" width="20" height="13.1"/>
	<polygon class="st5" points="69.9,258.5 69.9,264.6 63.6,264.6 63.6,251.5 69.9,251.5 	"/>
	<polygon class="st1" points="233.8,258.1 213.9,264.6 213.9,258.5 213.9,251.5 	"/>
	<polygon class="st5" points="213.9,258.5 213.9,264.6 69.9,264.6 69.9,258.5 213.3,258.5 	"/>
	<polygon class="st5" points="213.9,251.5 213.9,258.5 213.3,258.5 69.9,258.5 69.9,251.5 	"/>
	<line class="st5" x1="69.9" y1="251.5" x2="213.9" y2="251.5"/>
	<line class="st5" x1="213.9" y1="264.6" x2="69.9" y2="264.6"/>
	<polyline class="st5" points="69.4,258.5 69.9,258.5 213.3,258.5 	"/>
	<polyline class="st5" points="63.6,264.6 69.9,264.6 69.9,258.5 69.9,251.5 63.6,251.5 	"/>
	<rect x="43.6" y="251.5" class="st5" width="20" height="13.1"/>
	<polygon class="st5" points="213.9,251.5 233.8,258.1 213.9,264.6 213.9,258.5 	"/>
	<rect x="156.1" y="158" class="st0" width="14.1" height="15.5"/>
	<polyline class="st2" points="159.8,158.7 159.8,169.1 172.2,169.1 	"/>
	<polyline class="st2" points="164.9,160.1 168.3,163.5 179.4,152.4 	"/>
	<line class="st2" x1="183" y1="161.7" x2="195.1" y2="161.7"/>
	<line class="st2" x1="183" y1="168.4" x2="211.9" y2="168.4"/>
	<rect x="230.7" y="158" class="st0" width="14.1" height="15.5"/>
	<polyline class="st2" points="234.4,158.7 234.4,169.1 246.9,169.1 	"/>
	<polyline class="st2" points="239.6,160.1 243,163.5 254.1,152.4 	"/>
	<line class="st2" x1="257.6" y1="161.7" x2="269.7" y2="161.7"/>
	<line class="st2" x1="257.6" y1="168.4" x2="286.6" y2="168.4"/>
	<polyline class="st5" points="122.1,217.2 122.1,238.4 110,238.4 110,217.2 	"/>
	<polyline class="st5" points="110,222.6 110,238.4 99.2,238.4 99.2,222.6 	"/>
	<polyline class="st5" points="133.5,209.8 133.5,238.4 122.1,238.4 122.1,209.8 	"/>
	<rect x="98.2" y="217.2" class="st1" width="10.8" height="6.7"/>
	<rect x="108.9" y="209.8" class="st7" width="12.3" height="7.4"/>
	<rect x="121" y="201.7" class="st1" width="13.5" height="8.1"/>
	<line class="st2" x1="145.6" y1="219.7" x2="149.2" y2="219.7"/>
	<line class="st2" x1="152" y1="219.7" x2="155.6" y2="219.7"/>
	<line class="st2" x1="145.6" y1="227.4" x2="165.5" y2="227.4"/>
	<line class="st2" x1="145.6" y1="236.2" x2="174.7" y2="236.2"/>
	<rect x="73.3" y="67.9" class="st0" width="15.5" height="15.5"/>
	<line class="st2" x1="78.7" y1="79.7" x2="73.3" y2="79.7"/>
	<line class="st2" x1="70" y1="79.7" x2="57.9" y2="79.7"/>
	<line class="st2" x1="78.7" y1="71.6" x2="73.3" y2="71.6"/>
	<line class="st2" x1="70" y1="71.6" x2="62.6" y2="71.6"/>
	<rect x="320.9" y="152.6" class="st0" width="14.8" height="15.5"/>
	<line class="st2" x1="324.9" y1="163.7" x2="330.3" y2="163.7"/>
	<line class="st2" x1="333.6" y1="163.7" x2="345.8" y2="163.7"/>
	<line class="st2" x1="324.9" y1="156.3" x2="330.3" y2="156.3"/>
	<line class="st2" x1="333.6" y1="156.3" x2="341.7" y2="156.3"/>
	<line class="st2" x1="326.9" y1="124.7" x2="331.6" y2="124.7"/>
	<line class="st2" x1="335.7" y1="124.7" x2="340.4" y2="124.7"/>
	<rect x="28.3" y="151.3" class="st0" width="15.5" height="15.5"/>
	<line class="st2" x1="40.4" y1="163.1" x2="35" y2="163.1"/>
	<line class="st2" x1="31.6" y1="163.1" x2="19.5" y2="163.1"/>
	<line class="st2" x1="40.4" y1="155" x2="35" y2="155"/>
	<line class="st2" x1="31.6" y1="155" x2="23.6" y2="155"/>
	<line class="st2" x1="12.8" y1="127.4" x2="17.5" y2="127.4"/>
	<line class="st2" x1="21.5" y1="127.4" x2="26.3" y2="127.4"/>
	<line class="st2" x1="21.5" y1="247.1" x2="26.3" y2="247.1"/>
	<line class="st2" x1="30.3" y1="247.1" x2="35" y2="247.1"/>
</g>
</svg>
