<?xml version="1.0" encoding="utf-8"?>
<!-- Generator: Adobe Illustrator 21.0.0, SVG Export Plug-In . SVG Version: 6.00 Build 0)  -->
<svg version="1.1" id="Layer_1" xmlns="http://www.w3.org/2000/svg" xmlns:xlink="http://www.w3.org/1999/xlink" x="0px" y="0px"
	 viewBox="0 0 360 332" style="enable-background:new 0 0 360 332;" xml:space="preserve">
<style type="text/css">
	.st0{fill:none;stroke:#FFFFFF;stroke-width:2;stroke-miterlimit:10;}
	.st1{fill:none;stroke:#FFFFFF;stroke-miterlimit:10;}
	.st2{fill:#FFFFFF;}
	.st3{fill:none;stroke:#1E1E38;stroke-width:2;stroke-miterlimit:10;}
	.st4{fill:#1E1E38;}
</style>
<g>
	<g>
		<path class="st0" d="M190.5,226.8c0,0,3.9-2.2,3.9-12.7s0-28.6,0-28.6s-1.3-15.3,16.7-15.3s40.5,0,40.5,0s16.8,0.2,16.8,16.5
			s0,20.7,0,20.7s1.4,15.4-15.3,15.4s-41.1,0-41.1,0s-6.4,0.6-8.5-1.6C201.5,224.1,197,226.2,190.5,226.8z"/>
		<line class="st0" x1="203" y1="185.6" x2="235.3" y2="185.6"/>
		<line class="st0" x1="203" y1="191.2" x2="232.9" y2="191.2"/>
		<line class="st0" x1="203" y1="196.8" x2="216.4" y2="196.8"/>
		<line class="st0" x1="221.1" y1="196.8" x2="243.9" y2="196.8"/>
	</g>
	<circle class="st0" cx="154.3" cy="222.1" r="24.5"/>
	<path class="st1" d="M170,221.7c0-4.3-1.7-8.3-4.7-11.3s-7-4.7-11.3-4.7s-8.3,1.7-11.3,4.7s-4.7,7-4.7,11.3v7.6
		c0,4.3,3.5,7.8,7.8,7.8c0.5,0,0.9-0.4,0.9-0.9v-13.7c0-0.5-0.4-0.9-0.9-0.9c-2.4,0-4.5,1.1-5.9,2.7v-2.6c0-7.8,6.4-14.2,14.2-14.2
		s14.2,6.4,14.2,14.2c0,0.1,0,0.1,0,0.2c0,0.1,0,0.1,0,0.2v2.6c-1.4-1.7-3.5-2.7-5.9-2.7c-0.5,0-0.9,0.4-0.9,0.9v13.7
		c0,0.5,0.4,0.9,0.9,0.9c4.3,0,7.8-3.5,7.8-7.8v-7.6c0-0.1,0-0.1,0-0.2C170,221.9,170,221.8,170,221.7L170,221.7z"/>
	<path class="st2" d="M144,225.4v7.8c-1.9-0.3-3.4-1.9-3.4-3.9C140.6,227.3,142.1,225.7,144,225.4L144,225.4z"/>
	<path class="st2" d="M163.6,225.4v7.8c1.9-0.3,3.4-1.9,3.4-3.9C167,227.3,165.5,225.7,163.6,225.4L163.6,225.4z"/>
	<path class="st0" d="M163.3,234.6"/>
	<path class="st0" d="M130.2,222.1H85c-23.8,0-43.3-19.5-43.3-43.3l0,0c0-23.8,19.5-43.3,43.3-43.3h16.5"/>
	<path class="st0" d="M130.9,144.5c-0.5-1-1.3-1.7-2.2-2c-1-0.3-2-0.3-3,0.2l-3.2,1.4c-0.2-0.2-0.3-0.3-0.5-0.5s-0.5-0.4-0.6-0.7
		c-1.8-2.2-3.3-4.7-4.5-7.7c-0.6-1.5-0.9-2.7-1-3.8c0.8-0.3,1.6-0.7,2.4-1c0.3-0.1,0.6-0.3,0.9-0.4c2.2-1,2.8-2.9,1.7-5l-1.4-2.7
		c-0.2-0.3-0.3-0.6-0.5-0.9c-0.3-0.6-0.6-1.2-1-1.9c-0.5-1-1.3-1.6-2.2-2c-0.9-0.3-2-0.3-3,0.2l0,0l-3.5,1.6
		c-1.3,0.6-2.3,1.5-2.9,2.8c-0.9,2.1-0.9,4.3-0.9,5.7c0.2,3.6,1,7.2,2.7,11.3c2.1,5,5.1,9.4,9.1,13.1c1.5,1.4,3.6,3.2,6.2,4.3
		c0.2,0.1,0.3,0.1,0.5,0.2c1.8,0.6,3.5,0.5,5.1-0.2l0,0c0.6-0.3,1.2-0.6,1.8-0.8c0.4-0.2,0.9-0.4,1.3-0.6c1-0.5,1.7-1.2,2-2.1
		c0.3-0.9,0.2-1.9-0.3-2.9L130.9,144.5z"/>
	<ellipse transform="matrix(0.7812 -0.6243 0.6243 0.7812 -55.8534 111.4395)" class="st2" cx="131" cy="135.4" rx="2.2" ry="2.2"/>
	<circle class="st2" cx="143.3" cy="135.4" r="2.2"/>
	<circle class="st2" cx="155.8" cy="135.4" r="2.2"/>
	<circle class="st2" cx="168.3" cy="135.4" r="2.2"/>
	<line class="st0" x1="224.2" y1="135.6" x2="178.6" y2="135.6"/>
	<g>
		<circle class="st0" cx="277" cy="148.1" r="68.8"/>
		<path class="st0" d="M333.4,197.4c11.6-13,18.7-30.2,18.7-49c0-40.7-33-73.6-73.6-73.6c-10.6,0-20.7,2.2-29.8,6.3"/>
		<path class="st0" d="M330,200.9c-6.7,6.6-14.7,11.9-23.5,15.6"/>
	</g>
	<g>
		<path class="st0" d="M299.3,165.3c-2.7,1.4-3.7,1.5-14.1,4.2c-3.1,3.1-8.3,2.3-10.2-1.7c-4-0.6-7.6-2.3-10.8-5
			c-9.6,1.3-17.8,7.9-21,17.3c-1.5,4.4-3.2,7.1-1.2,10c2.5,3.5,2.3,2.1,67.2,2.1c3.5,0,5.9-3.4,4.8-6.7
			C312.1,179.9,310,170.7,299.3,165.3L299.3,165.3z"/>
		<path class="st0" d="M275.3,161.5c1.5-2.3,4.2-3.5,7.2-2.7l5.6-1.5c8.4-7.9,7.2-17.7,7.2-25.1c-4.2-24-30.7-24.6-35,0
			c0,39.3,0-28.4,0,10.9C261.9,152.8,267.9,160.2,275.3,161.5L275.3,161.5z"/>
		<path class="st0" d="M250.1,147.3c0.3,1.4,1.5,2.4,3,2.4c1.7,0,3.1-1.4,3.1-3.1v-14.2c0-1-0.5-1.8-1.2-2.4c0.8-4.9,3.4-9.8,6.7-13
			c4.8-5.1,12.8-8.1,22-5.8c3.5,1.1,7,2.8,9.9,5.8c3.2,3.2,5.8,7.9,6.7,13c-1.9,1.5-1.2,2.8-1.2,16.6c0,1.1,0.6,2,1.4,2.6v2.4
			c0,8.2-8.1,8.8-17.5,11.2c-2-2.2-5.7-0.8-5.7,2.2c0,3.7,5.3,4.6,6.4,0.9c9.7-2.6,19.9-3.5,19.9-14.3v-2.2c0.8-0.4,1.3-1.1,1.6-2
			c4.3-0.1,7.7-3.6,7.7-7.9c0-4.3-3.4-7.8-7.7-7.9c-0.2-0.8-0.7-1.5-1.5-1.9c0.2-1.9-0.1-4.2-0.5-6.1c-0.3-1.6-0.9-3.3-1.7-5.1
			c-0.9-1.8-1.9-3.7-3.5-5.5c-1.4-1.8-3.3-3.5-5.4-5c-18.1-12.6-43.2,2.3-41.2,21.7c-0.7,0.4-1.2,1.1-1.5,1.9
			c-4.3,0.1-7.7,3.6-7.7,7.9C242.4,143.8,245.8,147.3,250.1,147.3L250.1,147.3z"/>
	</g>
	<path class="st3" d="M251.8,130.4c0,0-3.7-2.1-3.7-11.8s0-26.6,0-26.6s1.2-14.2-15.5-14.2s-37.7,0-37.7,0s-15.6,0.1-15.6,15.3
		s0,19.3,0,19.3s-1.3,14.3,14.2,14.3s38.2,0,38.2,0s5.9,0.5,7.9-1.5C241.6,127.9,245.8,129.9,251.8,130.4z"/>
	<line class="st3" x1="201.1" y1="93.2" x2="186.6" y2="93.2"/>
	<line class="st3" x1="215.3" y1="99" x2="186.6" y2="99"/>
	<line class="st3" x1="201.5" y1="104.6" x2="186.6" y2="104.6"/>
	<line class="st3" x1="231" y1="104.6" x2="206.8" y2="104.6"/>
	<line class="st3" x1="236.2" y1="99" x2="221.6" y2="99"/>
	<line class="st3" x1="240.8" y1="93.2" x2="209.6" y2="93.2"/>
	<path class="st0" d="M62.8,98.4c-2.3-13-13.6-22.9-27.3-22.9c-15.2,0-27.6,12.4-27.6,27.7s12.4,27.7,27.6,27.7
		c13.7,0,25-9.9,27.3-22.9"/>
	<polyline class="st0" points="58.3,95.2 62.7,99 66.6,95.2 	"/>
	<path class="st4" d="M15.5,111.7v-1.2L17,109c3.7-3.5,5.3-5.4,5.4-7.5c0-1.5-0.7-2.8-2.9-2.8c-1.3,0-2.4,0.7-3.1,1.2l-0.5-1.4
		c1-0.8,2.4-1.5,4.1-1.5c3.1,0,4.4,2.1,4.4,4.2c0,2.7-1.9,4.8-5,7.7l-1.2,1.1l0,0h6.5v1.6L15.5,111.7
		C15.5,111.6,15.5,111.7,15.5,111.7z"/>
	<path class="st4" d="M32.9,111.7v-3.9h-6.7v-1.3l6.4-9.2h2.1v9h2v1.5h-2v3.9H32.9z M32.9,106.3v-4.8c0-0.8,0-1.5,0.1-2.3h-0.1
		c-0.4,0.8-0.8,1.5-1.2,2.1l-3.5,4.9l0,0h4.7V106.3z"/>
	<path class="st4" d="M36.9,116.6l8.2-24.3l1.4,0.1l-8.2,24.3L36.9,116.6z"/>
	<path class="st4" d="M55.7,97.9v1.3l-6.3,13.1h-2l6.3-12.7l0,0h-7v-1.7C46.7,97.9,55.7,97.9,55.7,97.9z"/>
	<path class="st0" d="M84.7,92c0,0,8.2-0.2,8.2-8.2c0.6,3.7,0.8,6.6,8,8c-5.4-0.2-8.1,5-8.5,8.5C92.1,96.5,91.4,92.8,84.7,92z"/>
	<line class="st0" x1="148.7" y1="104.6" x2="148.7" y2="109.9"/>
	<line class="st0" x1="151.4" y1="107.2" x2="146" y2="107.2"/>
	<rect x="18.7" y="202.6" class="st3" width="14.4" height="14.4"/>
	<rect x="18.7" y="225.9" class="st3" width="14.4" height="14.4"/>
	<rect x="18.7" y="248.8" class="st3" width="14.4" height="14.4"/>
	<polyline class="st0" points="20.8,207.9 26.2,213.3 37.6,201.7 	"/>
	<polyline class="st0" points="20.8,231.1 26.2,236.6 37.6,224.9 	"/>
	<path class="st0" d="M324.5,244.3c0,0,8.2-0.2,8.2-8.2c0.6,3.7,0.8,6.6,8,8c-5.4-0.2-8.1,5-8.5,8.5
		C332,248.8,331.3,245.1,324.5,244.3z"/>
</g>
</svg>
