<?xml version="1.0" encoding="utf-8"?>
<!-- Generator: Adobe Illustrator 21.0.0, SVG Export Plug-In . SVG Version: 6.00 Build 0)  -->
<svg version="1.1" id="Layer_1" xmlns="http://www.w3.org/2000/svg" xmlns:xlink="http://www.w3.org/1999/xlink" x="0px" y="0px"
	 viewBox="0 0 360 332" style="enable-background:new 0 0 360 332;" xml:space="preserve">
<style type="text/css">
	.st0{fill:#1E1E38;stroke:#FFFFFF;stroke-width:2;stroke-miterlimit:10;}
	.st1{fill:none;stroke:#FFFFFF;stroke-width:2;stroke-miterlimit:10;}
	.st2{fill:none;}
</style>
<g>
	<rect x="139.6" y="252.9" class="st0" width="31.7" height="20"/>
	<path class="st0" d="M228.5,161.3c0-4.4-3.3-8.4-7.9-8.4H89.8c-4.6,0-8.5,4-8.5,8.4v65.6h147.3L228.5,161.3L228.5,161.3z"/>
	<path class="st1" d="M219.9,252.7H90.5c-5.2,0-9.3-3.7-9.3-8.4v-17.5c0-0.5,0.4-0.9,0.9-0.9h145.5c0.5,0,0.9,0.4,0.9,0.9v17.5
		C228.5,249.2,224.9,252.7,219.9,252.7z"/>
	<path class="st1" d="M219.6,226.7H90.7c-0.5,0-0.9-0.4-0.9-0.9v-65c0-0.5,0.4-0.9,0.9-0.9h129c0.5,0,0.9,0.4,0.9,0.9v65
		C220.5,226.3,220.1,226.7,219.6,226.7z"/>
	<circle class="st0" cx="155.2" cy="239.4" r="5.1"/>
	<path class="st1" d="M176.3,280.4h-42.8c-0.5,0-0.9-0.4-0.9-0.9V274c0-0.5,0.4-0.9,0.9-0.9h42.8c0.5,0,0.9,0.4,0.9,0.9v5.6
		C177.2,280,176.8,280.4,176.3,280.4z"/>
	<line class="st1" x1="119.6" y1="280.4" x2="187.4" y2="280.4"/>
	<line class="st1" x1="193.6" y1="280.4" x2="201.6" y2="280.4"/>
	<path class="st0" d="M114.1,156.3h0.3v-3.5c0-2.6,2-4.9,4.6-4.9h23.1c2.6,0,4.5,2.3,4.5,4.9v7.2c0,2.2-1.7,4-3.3,4.5v18.1
		c0,3.6-3,6.5-6.5,6.5h-2.9v6.1h-10.6V189h-2.8c-3.6,0-6.7-3-6.7-6.5v-12.2c-1.1,0-2.2-1-2.2-2.3v-9.2
		C111.7,157.5,112.7,156.3,114.1,156.3z"/>
	<path class="st1" d="M108.9,225.7v-25c0-2.9,2.6-5.5,5.6-5.5H144c2.9,0,5.5,2.6,5.5,5.5v25"/>
	<path class="st1" d="M129.6,207.4l3.8-10.9c0.2-0.6-0.2-1.3-0.9-1.3h-7.7c-0.7,0-1.2,0.7-0.9,1.3l3.9,10.9
		C128.1,208.2,129.3,208.2,129.6,207.4z"/>
	<path class="st0" d="M135.6,170.6v6.1c0,0.5-0.4,0.9-0.9,0.9h-2.2"/>
	<path class="st0" d="M137.8,186h-4.4c-1.1,0-2-0.9-2-2v-0.6c0-1.1,0.9-2,2-2h4.4c1.1,0,2,0.9,2,2v0.6
		C139.8,185.2,138.9,186,137.8,186z"/>
	<circle class="st1" cx="119.4" cy="172.8" r="3"/>
	<line class="st1" x1="117.8" y1="210.9" x2="117.8" y2="225.7"/>
	<line class="st1" x1="142.7" y1="164.6" x2="120.6" y2="164.6"/>
	<line class="st1" x1="133.8" y1="189" x2="129.4" y2="189"/>
	<line class="st1" x1="128.6" y1="220.1" x2="128.6" y2="221.6"/>
	<line class="st1" x1="128.6" y1="214.6" x2="128.6" y2="216.1"/>
	<line class="st1" x1="141.1" y1="210.9" x2="141.1" y2="225.7"/>
	<path class="st1" d="M119.4,175.2v4.9c0,0-0.1,3.7,3.8,3.7s9,0,9,0"/>
	<polygon class="st1" points="86.8,100.4 130.1,100.4 130.1,128.2 109,128.2 109,137.5 95.7,128.2 86.8,128.2 	"/>
	<line class="st1" x1="90.1" y1="108.7" x2="107.1" y2="108.7"/>
	<line class="st1" x1="90.1" y1="115.1" x2="126.8" y2="115.1"/>
	<line class="st1" x1="90.1" y1="120.4" x2="126.8" y2="120.4"/>
	<line class="st1" x1="114.1" y1="108.7" x2="127" y2="108.7"/>
	<path class="st0" d="M207.8,105.4c-0.4-0.1-0.7-0.3-1.1-0.3h-44.5c-2.5,0-4.4,2-4.4,4.2v3.3v79.2h46.7v-79.2v-3.3
		C204.5,107.5,205.9,105.9,207.8,105.4z"/>
	<path class="st1" d="M207.9,177.1c0.4,0.1,0.8,0.3,1.2,0.3h44.5c2.5,0,4.3-2,4.3-4.1V170V99h-46.7v70.9v3.3
		C211.2,175.1,209.8,176.7,207.9,177.1z"/>
	<path class="st0" d="M207.8,105.5c-1.9,0.5-3.3,2-3.3,3.8v3.3v57.3v3.3c0,1.8,1.4,3.3,3.3,3.8c1.9-0.5,3.3-2,3.3-3.8v-3.3v-57.3
		v-3.3C211.2,107.5,209.7,106,207.8,105.5z"/>
	<line class="st2" x1="204.5" y1="111.3" x2="207.8" y2="111.3"/>
	<line class="st1" x1="164.5" y1="114" x2="171.7" y2="114"/>
	<line class="st1" x1="164.5" y1="119" x2="197.8" y2="119"/>
	<line class="st1" x1="164.5" y1="125.1" x2="178.4" y2="125.1"/>
	<line class="st1" x1="164.5" y1="130.7" x2="197.8" y2="130.7"/>
	<line class="st1" x1="182.8" y1="125.1" x2="186.2" y2="125.1"/>
	<line class="st1" x1="217.8" y1="155.7" x2="231.7" y2="155.7"/>
	<line class="st1" x1="235.6" y1="155.7" x2="239" y2="155.7"/>
	<line class="st1" x1="251.2" y1="167.9" x2="237.8" y2="167.9"/>
	<line class="st1" x1="251.2" y1="161.8" x2="217.8" y2="161.8"/>
	<line class="st1" x1="232.8" y1="167.9" x2="230.1" y2="167.9"/>
	<rect x="164.5" y="136.8" class="st0" width="33.3" height="10.6"/>
	<line class="st1" x1="164.5" y1="151.8" x2="173.9" y2="151.8"/>
	<line class="st1" x1="177.8" y1="151.8" x2="197.3" y2="151.8"/>
	<line class="st1" x1="164.5" y1="157.4" x2="188.4" y2="157.4"/>
	<rect x="165.1" y="163.5" class="st0" width="32.1" height="10.6"/>
	<line class="st1" x1="164.5" y1="178.5" x2="173.9" y2="178.5"/>
	<line class="st1" x1="177.8" y1="178.5" x2="197.3" y2="178.5"/>
	<line class="st1" x1="164.5" y1="184.1" x2="188.4" y2="184.1"/>
	<rect x="219" y="104.6" class="st0" width="31" height="10.6"/>
	<line class="st1" x1="217.8" y1="119.6" x2="227.3" y2="119.6"/>
	<line class="st1" x1="231.2" y1="119.6" x2="250.6" y2="119.6"/>
	<line class="st1" x1="217.8" y1="125.1" x2="241.7" y2="125.1"/>
	<rect x="219" y="130.7" class="st0" width="31" height="18.3"/>
	<path class="st0" d="M166.9,110.7L166.9,110.7C166.9,110.7,167,110.7,166.9,110.7c1.5-1,2.5-2.7,2.5-4v-6.1c0,0,0.1-5.1-5-5.1
		s-5,5.1-5,5.1v6.1c0,1.3,1.2,3,2.6,4h0.1l0,0c-0.1,0.6-0.5,1.6-1.7,2.1c-1.3,0.6-4,1.8-5.7,3.5c2.5,2.2,5.9,3.6,9.5,3.6
		c3.8,0,7.2-1.4,9.8-3.8c-1.7-1.6-4.2-2.7-5.5-3.3C167.4,112.3,167,111.4,166.9,110.7z"/>
	<path class="st0" d="M164.3,91c-8,0-14.5,6.5-14.5,14.5c0,4.4,1.9,8.3,5,10.9c1.7-1.7,4.4-2.9,5.7-3.5c1.2-0.5,1.4-1.5,1.6-2.1
		c-1.4-1-2.6-2.7-2.6-4v-6.1c0,0-0.1-5.1,5-5.1s5,5.1,5,5.1v6.1c0,1.3-1.1,3-2.5,4c0.1,0.6,0.5,1.6,1.7,2.1s3.8,1.7,5.4,3.3
		c2.9-2.6,4.7-6.5,4.7-10.7C178.8,97.5,172.3,91,164.3,91z"/>
	<circle class="st1" cx="263.5" cy="61.4" r="19.7"/>
	<path class="st1" d="M260.3,92.1c-0.3-0.1-0.5-0.5-0.5-0.8v-5.2c-12.3-2-21.2-12.3-21.2-24.8c0-13.9,11.2-25.2,25-25.2
		c13.9,0,25.2,11.3,25.2,25.2c0,12-8,22-19.6,24.6l-8,6.1c-0.2,0.1-0.3,0.2-0.5,0.2C260.5,92.2,260.4,92.1,260.3,92.1z"/>
	<path class="st1" d="M261,73V58.9c0-0.4,0.3-0.7,0.7-0.7h3.5c0.4,0,0.7,0.3,0.7,0.7V73c0,0.4-0.3,0.7-0.7,0.7h-3.5
		C261.3,73.7,261,73.4,261,73z"/>
	<circle class="st1" cx="263.5" cy="52.4" r="3.1"/>
	<path class="st1" d="M28.8,138.6c0-1.3,0.6-2.6,1.9-3.8l5.7-5.7c0.2-0.2,0.5-0.3,0.7-0.3c0.3,0,8.1,1,20.6,13.6
		c12.6,12.6,13,19.8,13.1,20.1c0,0.2-0.1,0.5-0.3,0.7l-5.8,5.8c-0.7,0.7-1.5,1.5-2.5,1.9c-0.9,0.4-2.3,0.5-3.8-1l-4.7-4.7
		c-0.9-0.9-1.4-2-1.4-3.1c0-1.9,1.2-3.3,1.8-3.8l1.4-1.4c0.1-0.4,0.2-2.4-4.9-7.5s-7.5-5.4-8.1-5.3l-1.4,1.4
		c-1.2,1.2-2.5,1.9-3.8,1.9c-1.1,0-2.1-0.4-2.8-1.2l-4.7-4.7C29.2,140.6,28.8,139.6,28.8,138.6z"/>
	<line class="st1" x1="68.9" y1="142.5" x2="72.6" y2="142.5"/>
	<line class="st1" x1="75.5" y1="142.5" x2="79.3" y2="142.5"/>
	<line class="st1" x1="81.1" y1="142.5" x2="84.9" y2="142.5"/>
	<polygon class="st0" points="223.7,204.2 180.4,204.2 180.4,231.9 201.5,231.9 214,240.2 214.7,231.9 223.7,231.9 	"/>
	<line class="st1" x1="220.4" y1="212.5" x2="203.4" y2="212.5"/>
	<line class="st1" x1="220.4" y1="218.9" x2="183.7" y2="218.9"/>
	<line class="st1" x1="220.4" y1="224.2" x2="183.7" y2="224.2"/>
	<line class="st1" x1="196.3" y1="212.5" x2="183.5" y2="212.5"/>
	<path class="st0" d="M218.7,254.5c0.5,0.3,2,1.4,4.4,3.1c2.5,1.7,4.4,3,5.7,3.9c0.1,0.1,0.5,0.3,0.9,0.7c0.5,0.3,0.9,0.6,1.2,0.8
		c0.3,0.2,0.7,0.4,1.1,0.7c0.4,0.3,0.9,0.5,1.2,0.6c0.4,0.1,0.8,0.2,1.1,0.2l0,0c0.3,0,0.7-0.1,1.1-0.2c0.4-0.1,0.8-0.3,1.2-0.6
		c0.4-0.3,0.8-0.5,1.1-0.7s0.7-0.5,1.2-0.8s0.8-0.6,0.9-0.7c1.3-0.9,4.7-3.3,10.1-7c1.1-0.7,1.9-1.6,2.6-2.7c0.7-1,1.1-2.1,1.1-3.3
		c0-1-0.3-1.8-1-2.4c-0.7-0.7-1.5-1-2.4-1h-31.9c-1.1,0-2,0.4-2.6,1.1c-0.6,0.7-0.9,1.7-0.9,2.8c0,0.9,0.4,1.9,1.2,3
		C216.9,253,217.8,253.8,218.7,254.5L218.7,254.5z"/>
	<path class="st0" d="M251.6,257.8c-4.7,3.2-8.3,5.7-10.8,7.5c-0.8,0.6-1.5,1.1-2,1.4s-1.2,0.7-2,1c-0.9,0.4-1.6,0.5-2.4,0.5l0,0
		c-0.7,0-1.5-0.2-2.4-0.5c-0.9-0.4-1.5-0.7-2-1s-1.2-0.8-2-1.4c-1.9-1.4-5.5-3.9-10.8-7.5c-0.8-0.5-1.6-1.2-2.2-1.9v17.2
		c0,1,0.3,1.8,1,2.4c0.7,0.7,1.5,1,2.4,1h31.9c1,0,1.8-0.3,2.4-1c0.7-0.7,1-1.5,1-2.4v-17.2C253.1,256.6,252.4,257.2,251.6,257.8
		L251.6,257.8z"/>
	<path class="st0" d="M255.5,287.9L255.5,287.9C255.5,287.9,255.6,287.9,255.5,287.9c1.5-1,2.5-2.7,2.5-4v-6.1c0,0,0.1-5.1-5-5.1
		s-5,5.1-5,5.1v6.1c0,1.3,1.2,3,2.6,4h0.1l0,0c-0.1,0.6-0.5,1.6-1.7,2.1c-1.3,0.6-4,1.8-5.7,3.5c2.5,2.2,5.9,3.6,9.5,3.6
		c3.8,0,7.2-1.4,9.8-3.8c-1.7-1.6-4.2-2.7-5.5-3.3C256,289.5,255.6,288.6,255.5,287.9z"/>
	<path class="st0" d="M252.9,268.2c-8,0-14.5,6.5-14.5,14.5c0,4.4,1.9,8.3,5,10.9c1.7-1.7,4.4-2.9,5.7-3.5c1.2-0.5,1.4-1.5,1.6-2.1
		c-1.4-1-2.6-2.7-2.6-4v-6.1c0,0-0.1-5.1,5-5.1s5,5.1,5,5.1v6.1c0,1.3-1.1,3-2.5,4c0.1,0.6,0.5,1.6,1.7,2.1s3.8,1.7,5.4,3.3
		c2.9-2.6,4.7-6.5,4.7-10.7C267.4,274.7,260.9,268.2,252.9,268.2z"/>
	<polygon class="st0" points="248.7,197.7 280.4,197.7 280.4,219.4 264.9,219.4 264.9,226.9 256.1,219.4 248.7,219.4 	"/>
	<line class="st1" x1="253.2" y1="205.5" x2="264.6" y2="205.5"/>
	<line class="st1" x1="268.1" y1="205.5" x2="275.8" y2="205.5"/>
	<line class="st1" x1="253.2" y1="212.7" x2="275.8" y2="212.7"/>
	<line class="st1" x1="313.9" y1="200.9" x2="292.2" y2="200.9"/>
	<line class="st1" x1="323.9" y1="200.9" x2="317.2" y2="200.9"/>
	<polyline class="st1" points="296.3,197 292.2,201.2 296.2,205.2 	"/>
	<line class="st1" x1="307.2" y1="213" x2="328.9" y2="213"/>
	<line class="st1" x1="297.2" y1="213" x2="303.9" y2="213"/>
	<polyline class="st1" points="324.8,209.1 328.9,213.3 324.9,217.3 	"/>
	<path class="st0" d="M116.9,257.7L116.9,257.7C116.9,257.7,117,257.7,116.9,257.7c1.5-1,2.5-2.7,2.5-4v-6.1c0,0,0.1-5.1-5-5.1
		s-5,5.1-5,5.1v6.1c0,1.3,1.2,3,2.6,4h0.1l0,0c-0.1,0.6-0.5,1.6-1.7,2.1c-1.3,0.6-4,1.8-5.7,3.5c2.5,2.2,5.9,3.6,9.5,3.6
		c3.8,0,7.2-1.4,9.8-3.8c-1.7-1.6-4.2-2.7-5.5-3.3C117.4,259.3,117,258.3,116.9,257.7z"/>
	<path class="st0" d="M114.3,237.9c-8,0-14.5,6.5-14.5,14.5c0,4.4,1.9,8.3,5,10.9c1.7-1.7,4.4-2.9,5.7-3.5c1.2-0.5,1.4-1.5,1.6-2.1
		c-1.4-1-2.6-2.7-2.6-4v-6.1c0,0-0.1-5.1,5-5.1s5,5.1,5,5.1v6.1c0,1.3-1.1,3-2.5,4c0.1,0.6,0.5,1.6,1.7,2.1s3.8,1.7,5.4,3.3
		c2.9-2.6,4.7-6.5,4.7-10.7C128.8,244.4,122.3,237.9,114.3,237.9z"/>
	<line class="st1" x1="71.9" y1="260.2" x2="50.2" y2="260.2"/>
	<line class="st1" x1="81.9" y1="260.2" x2="75.2" y2="260.2"/>
	<polyline class="st1" points="54.3,256.3 50.2,260.5 54.2,264.5 	"/>
	<line class="st1" x1="65.2" y1="272.3" x2="86.9" y2="272.3"/>
	<line class="st1" x1="55.2" y1="272.3" x2="61.9" y2="272.3"/>
	<polyline class="st1" points="82.8,268.4 86.9,272.6 82.9,276.6 	"/>
	<path class="st1" d="M296.7,272c-1.3,0-2.6-0.6-3.8-1.9l-5.7-5.7c-0.2-0.2-0.3-0.5-0.3-0.7c0-0.3,1-8.1,13.6-20.6
		c12.6-12.6,19.8-13,20.1-13.1c0.2,0,0.5,0.1,0.7,0.3l5.8,5.8c0.7,0.7,1.5,1.5,1.9,2.5c0.4,0.9,0.5,2.3-1,3.8l-4.7,4.7
		c-0.9,0.9-2,1.4-3.1,1.4c-1.9,0-3.3-1.2-3.8-1.8l-1.4-1.4c-0.4-0.1-2.4-0.2-7.5,4.9c-5.1,5.1-5.4,7.5-5.3,8.1l1.4,1.4
		c1.2,1.2,1.9,2.5,1.9,3.8c0,1.1-0.4,2.1-1.2,2.8l-4.7,4.7C298.7,271.5,297.7,272,296.7,272z"/>
	<line class="st1" x1="276" y1="242.2" x2="279.7" y2="242.2"/>
	<line class="st1" x1="282.6" y1="242.2" x2="286.4" y2="242.2"/>
	<line class="st1" x1="288.2" y1="242.2" x2="292" y2="242.2"/>
</g>
</svg>
