<svg version="1.1" id="web-app-hosting-svg" xmlns="http://www.w3.org/2000/svg" xmlns:xlink="http://www.w3.org/1999/xlink" x="0px" y="0px" viewBox="0 0 360 332" style="opacity: 1;" xml:space="preserve" class="reveal-text">
<style type="text/css">
	.host0{fill:#CECECE;}
	.host1{fill:#1E1E38;stroke:#FFFFFF;stroke-width:2;stroke-linecap:round;stroke-linejoin:round;stroke-miterlimit:10;}
	.host2{fill:#1E1E38;stroke:#FFFFFF;stroke-width:1.5;stroke-linecap:round;stroke-linejoin:round;stroke-miterlimit:10;}
	.host3{fill:none;stroke:#FFFFFF;stroke-width:1.5;stroke-linecap:round;stroke-linejoin:round;stroke-miterlimit:10;}
	.host4{fill:#1A1A1A;}
	.host5{fill:none;stroke:#FFFFFF;stroke-width:2;stroke-linecap:round;stroke-linejoin:round;stroke-miterlimit:10;}
	.host6{fill:#1E1E38;stroke:#67B8D3;stroke-width:2;stroke-linecap:round;stroke-linejoin:round;stroke-miterlimit:10;}
	.host7{fill:none;stroke:#67B8D3;stroke-width:2;stroke-linecap:round;stroke-linejoin:round;stroke-miterlimit:10;}
	.host8{fill:none;stroke:#67B8D3;stroke-width:1.5;stroke-linecap:round;stroke-linejoin:round;stroke-miterlimit:10;}
	.host9{fill:#FFFFFF;}
	.host10{fill:#67B8D3;}
</style>
<g>
	<path class="host0" d="M171.2,153.7L171.2,152.7L171.2,153.7Z" style="stroke-dasharray: 2, 4; stroke-dashoffset: 0;"></path>
	<path class="host0" d="M171.2,176.3L171.2,175.3L171.2,176.3Z" style="stroke-dasharray: 2, 4; stroke-dashoffset: 0;"></path>
	<path class="host0" d="M171.2,199L171.2,198L171.2,199Z" style="stroke-dasharray: 2, 4; stroke-dashoffset: 0;"></path>
	<g>
		<path class="host1" d="M196.1,154.7c-0.3,0-0.5-0.1-0.7-0.3l0,0c-0.2-0.2-0.3-0.4-0.3-0.7l0,0v-22.6c0-0.3,0.1-0.5,0.3-0.7l0,0
			c0.2-0.2,0.4-0.3,0.7-0.3l0,0H260c0.3,0,0.5,0.1,0.7,0.3l0,0c0.2,0.2,0.3,0.4,0.3,0.7l0,0v22.6c0,0.3-0.1,0.5-0.3,0.7l0,0
			c-0.2,0.2-0.4,0.3-0.7,0.3l0,0H196.1L196.1,154.7z" style="stroke-dasharray: 180, 182; stroke-dashoffset: 0;"></path>
		<path class="host1" d="M196.1,177.3c-0.3,0-0.5-0.1-0.7-0.3l0,0c-0.2-0.2-0.3-0.4-0.3-0.7l0,0v-22.6c0-0.3,0.1-0.5,0.3-0.7l0,0
			c0.2-0.2,0.4-0.3,0.7-0.3l0,0H260c0.3,0,0.5,0.1,0.7,0.3l0,0c0.2,0.2,0.3,0.4,0.3,0.7l0,0v22.6c0,0.3-0.1,0.5-0.3,0.7l0,0
			c-0.2,0.2-0.4,0.3-0.7,0.3l0,0H196.1L196.1,177.3z" style="stroke-dasharray: 180, 182; stroke-dashoffset: 0;"></path>
		<path class="host1" d="M196.1,200c-0.3,0-0.5-0.1-0.7-0.3l0,0c-0.2-0.2-0.3-0.4-0.3-0.7l0,0v-22.6c0-0.3,0.1-0.5,0.3-0.7l0,0
			c0.2-0.2,0.4-0.3,0.7-0.3l0,0H260c0.3,0,0.5,0.1,0.7,0.3l0,0c0.2,0.2,0.3,0.4,0.3,0.7l0,0V199c0,0.3-0.1,0.5-0.3,0.7l0,0
			c-0.2,0.2-0.4,0.3-0.7,0.3l0,0H196.1L196.1,200z" style="stroke-dasharray: 180, 182; stroke-dashoffset: 0;"></path>
		<path class="host0" d="M260,199L260,198L260,199Z" style="stroke-dasharray: 2, 4; stroke-dashoffset: 0;"></path>
		<g>
			<path class="host2" d="M245.9,139.4c0-2.6,2.1-4.8,4.8-4.8l0,0c2.6,0,4.8,2.1,4.8,4.8l0,0c0,2.6-2.1,4.8-4.8,4.8l0,0
				C248.1,144.2,245.9,142,245.9,139.4L245.9,139.4z" style="stroke-dasharray: 31, 33; stroke-dashoffset: 0;"></path>
			<path class="host3" d="M233.8,135.8L234.8,135.8" style="stroke-dasharray: 1, 3; stroke-dashoffset: 0;"></path>
			<path class="host3" d="M238.1,148.5L239.1,148.5" style="stroke-dasharray: 1, 3; stroke-dashoffset: 0;"></path>
			<path class="host3" d="M243.2,148.5L244.2,148.5" style="stroke-dasharray: 1, 3; stroke-dashoffset: 0;"></path>
			<path class="host3" d="M238.6,135.8L239.5,135.8" style="stroke-dasharray: 1, 3; stroke-dashoffset: 0;"></path>
			<path class="host3" d="M250.7,134.6L250.7,139.5" style="stroke-dasharray: 5, 7; stroke-dashoffset: 0;"></path>
		</g>
		<g>
			<path class="host2" d="M245.9,161.2c0-2.6,2.1-4.8,4.8-4.8l0,0c2.6,0,4.8,2.1,4.8,4.8l0,0c0,2.6-2.1,4.8-4.8,4.8l0,0
				C248.1,166,245.9,163.8,245.9,161.2L245.9,161.2z" style="stroke-dasharray: 31, 33; stroke-dashoffset: 0;"></path>
			<path class="host3" d="M233.8,157.6L234.8,157.6" style="stroke-dasharray: 1, 3; stroke-dashoffset: 0;"></path>
			<path class="host3" d="M238.1,170.3L239.1,170.3" style="stroke-dasharray: 1, 3; stroke-dashoffset: 0;"></path>
			<path class="host3" d="M243.2,170.3L244.2,170.3" style="stroke-dasharray: 1, 3; stroke-dashoffset: 0;"></path>
			<path class="host3" d="M238.6,157.6L239.5,157.6" style="stroke-dasharray: 1, 3; stroke-dashoffset: 0;"></path>
			<path class="host3" d="M250.7,156.4L250.7,161.2" style="stroke-dasharray: 5, 7; stroke-dashoffset: 0;"></path>
		</g>
		<g>
			<path class="host2" d="M245.9,185.5c0-2.6,2.1-4.8,4.8-4.8l0,0c2.6,0,4.8,2.1,4.8,4.8l0,0c0,2.6-2.1,4.8-4.8,4.8l0,0
				C248.1,190.3,245.9,188.1,245.9,185.5L245.9,185.5z" style="stroke-dasharray: 31, 33; stroke-dashoffset: 0;"></path>
			<path class="host3" d="M233.8,181.9L234.8,181.9" style="stroke-dasharray: 1, 3; stroke-dashoffset: 0;"></path>
			<path class="host3" d="M238.1,194.6L239.1,194.6" style="stroke-dasharray: 1, 3; stroke-dashoffset: 0;"></path>
			<path class="host3" d="M243.2,194.6L244.2,194.6" style="stroke-dasharray: 1, 3; stroke-dashoffset: 0;"></path>
			<path class="host3" d="M238.6,181.9L239.5,181.9" style="stroke-dasharray: 1, 3; stroke-dashoffset: 0;"></path>
			<path class="host3" d="M250.7,180.7L250.7,185.6" style="stroke-dasharray: 5, 7; stroke-dashoffset: 0;"></path>
		</g>
	</g>
	<g>
		<path class="host1" d="M107.3,154.7c-0.3,0-0.5-0.1-0.7-0.3l0,0c-0.2-0.2-0.3-0.4-0.3-0.7l0,0v-22.6c0-0.3,0.1-0.5,0.3-0.7l0,0
			c0.2-0.2,0.4-0.3,0.7-0.3l0,0h63.9c0.3,0,0.5,0.1,0.7,0.3l0,0c0.2,0.2,0.3,0.4,0.3,0.7l0,0v22.6c0,0.3-0.1,0.5-0.3,0.7l0,0
			c-0.2,0.2-0.4,0.3-0.7,0.3l0,0H107.3L107.3,154.7z" style="stroke-dasharray: 180, 182; stroke-dashoffset: 0;"></path>
		<path class="host1" d="M107.3,177.3c-0.3,0-0.5-0.1-0.7-0.3l0,0c-0.2-0.2-0.3-0.4-0.3-0.7l0,0v-22.6c0-0.3,0.1-0.5,0.3-0.7l0,0
			c0.2-0.2,0.4-0.3,0.7-0.3l0,0h63.9c0.3,0,0.5,0.1,0.7,0.3l0,0c0.2,0.2,0.3,0.4,0.3,0.7l0,0v22.6c0,0.3-0.1,0.5-0.3,0.7l0,0
			c-0.2,0.2-0.4,0.3-0.7,0.3l0,0H107.3L107.3,177.3z" style="stroke-dasharray: 180, 182; stroke-dashoffset: 0;"></path>
		<path class="host1" d="M107.3,200c-0.3,0-0.5-0.1-0.7-0.3l0,0c-0.2-0.2-0.3-0.4-0.3-0.7l0,0v-22.6c0-0.3,0.1-0.5,0.3-0.7l0,0
			c0.2-0.2,0.4-0.3,0.7-0.3l0,0h63.9c0.3,0,0.5,0.1,0.7,0.3l0,0c0.2,0.2,0.3,0.4,0.3,0.7l0,0V199c0,0.3-0.1,0.5-0.3,0.7l0,0
			c-0.2,0.2-0.4,0.3-0.7,0.3l0,0H107.3L107.3,200z" style="stroke-dasharray: 180, 182; stroke-dashoffset: 0;"></path>
		<g>
			<path class="host3" d="M112.2,134.9L126.1,134.9" style="stroke-dasharray: 14, 16; stroke-dashoffset: 0;"></path>
			<path class="host3" d="M112.2,143.6L120.7,143.6" style="stroke-dasharray: 9, 11; stroke-dashoffset: 0;"></path>
			<path class="host3" d="M112.2,139.2L135,139.2" style="stroke-dasharray: 23, 25; stroke-dashoffset: 0;"></path>
			<path class="host3" d="M112.2,147.9L130.6,147.9" style="stroke-dasharray: 19, 21; stroke-dashoffset: 0;"></path>
		</g>
		<g>
			<path class="host3" d="M112.2,157.4L126.1,157.4" style="stroke-dasharray: 14, 16; stroke-dashoffset: 0;"></path>
			<path class="host3" d="M112.2,166.1L120.7,166.1" style="stroke-dasharray: 9, 11; stroke-dashoffset: 0;"></path>
			<path class="host3" d="M112.2,161.7L135,161.7" style="stroke-dasharray: 23, 25; stroke-dashoffset: 0;"></path>
			<path class="host3" d="M112.2,170.4L130.6,170.4" style="stroke-dasharray: 19, 21; stroke-dashoffset: 0;"></path>
		</g>
		<g>
			<path class="host3" d="M112.2,181.1L126.1,181.1" style="stroke-dasharray: 14, 16; stroke-dashoffset: 0;"></path>
			<path class="host3" d="M112.2,189.8L120.7,189.8" style="stroke-dasharray: 9, 11; stroke-dashoffset: 0;"></path>
			<path class="host3" d="M112.2,185.5L135,185.5" style="stroke-dasharray: 23, 25; stroke-dashoffset: 0;"></path>
			<path class="host3" d="M112.2,194.2L130.6,194.2" style="stroke-dasharray: 19, 21; stroke-dashoffset: 0;"></path>
		</g>
	</g>
	<g>
		<path class="host0" d="M154.8,194.6c-0.6,0-1-0.4-1-1l0,0c0-0.6,0.4-1,1-1l0,0h0.9c0.6,0,1,0.4,1,1l0,0c0,0.6-0.4,1-1,1l0,0H154.8
			L154.8,194.6z" style="stroke-dasharray: 9, 11; stroke-dashoffset: 0;"></path>
		<path class="host0" d="M150.1,194.6c-0.6,0-1-0.4-1-1l0,0c0-0.6,0.4-1,1-1l0,0h0.9c0.6,0,1,0.4,1,1l0,0c0,0.6-0.4,1-1,1l0,0H150.1
			L150.1,194.6z" style="stroke-dasharray: 9, 11; stroke-dashoffset: 0;"></path>
		<path class="host1" d="M139.8,150.6c-0.3,0-0.7-0.1-0.9-0.4l0,0c-0.2-0.2-0.4-0.6-0.4-0.9l0,0v-31c0-0.3,0.1-0.7,0.4-0.9l0,0
			c0.2-0.2,0.6-0.4,0.9-0.4l0,0h87.6c0.3,0,0.7,0.1,0.9,0.4l0,0c0.2,0.2,0.4,0.6,0.4,0.9l0,0v31c0,0.3-0.1,0.7-0.4,0.9l0,0
			c-0.2,0.2-0.6,0.4-0.9,0.4l0,0H139.8L139.8,150.6z" style="stroke-dasharray: 246, 248; stroke-dashoffset: 0;"></path>
		<path class="host0" d="M159.5,194.6c-0.6,0-1-0.4-1-1l0,0c0-0.6,0.4-1,1-1l0,0h0.9c0.6,0,1,0.4,1,1l0,0c0,0.6-0.4,1-1,1l0,0H159.5
			L159.5,194.6z" style="stroke-dasharray: 9, 11; stroke-dashoffset: 0;"></path>
		<path class="host0" d="M164.3,194.6c-0.6,0-1-0.4-1-1l0,0c0-0.6,0.4-1,1-1l0,0h0.9c0.6,0,1,0.4,1,1l0,0c0,0.6-0.4,1-1,1l0,0H164.3
			L164.3,194.6z" style="stroke-dasharray: 9, 11; stroke-dashoffset: 0;"></path>
		<path class="host4" d="M227.5,149.5L227.5,148.3L227.5,149.5Z" style="stroke-dasharray: 3, 5; stroke-dashoffset: 0;"></path>
		<path class="host1" d="M139.8,181.8c-0.3,0-0.7-0.1-0.9-0.4l0,0c-0.2-0.2-0.4-0.6-0.4-0.9l0,0v-31c0-0.3,0.1-0.7,0.4-0.9l0,0
			c0.2-0.2,0.6-0.4,0.9-0.4l0,0h87.6c0.3,0,0.7,0.1,0.9,0.4l0,0c0.2,0.2,0.4,0.6,0.4,0.9l0,0v31c0,0.3-0.1,0.7-0.4,0.9l0,0
			c-0.2,0.2-0.6,0.4-0.9,0.4l0,0H139.8L139.8,181.8z" style="stroke-dasharray: 246, 248; stroke-dashoffset: 0;"></path>
		<path class="host4" d="M227.5,180.5L227.5,179.3L227.5,180.5Z" style="stroke-dasharray: 3, 5; stroke-dashoffset: 0;"></path>
		<path class="host1" d="M139.8,212.8c-0.3,0-0.7-0.1-0.9-0.4l0,0c-0.2-0.2-0.4-0.6-0.4-0.9l0,0v-31c0-0.3,0.1-0.7,0.4-0.9l0,0
			c0.2-0.2,0.6-0.4,0.9-0.4l0,0h87.6c0.3,0,0.7,0.1,0.9,0.4l0,0c0.2,0.2,0.4,0.6,0.4,0.9l0,0v31c0,0.3-0.1,0.7-0.4,0.9l0,0
			c-0.2,0.2-0.6,0.4-0.9,0.4l0,0H139.8L139.8,212.8z" style="stroke-dasharray: 246, 248; stroke-dashoffset: 0;"></path>
		<path class="host4" d="M227.5,211.6L227.5,210.3L227.5,211.6Z" style="stroke-dasharray: 3, 5; stroke-dashoffset: 0;"></path>
		<g>
			<path class="host1" d="M208.4,129.7c0-3.3,2.7-6,6-6l0,0c3.3,0,6,2.7,6,6l0,0c0,3.3-2.7,6-6,6l0,0
				C211.1,135.7,208.4,133,208.4,129.7L208.4,129.7z" style="stroke-dasharray: 38, 40; stroke-dashoffset: 0;"></path>
			<path class="host5" d="M148.2,125.1L165.2,125.1" style="stroke-dasharray: 17, 19; stroke-dashoffset: 0;"></path>
			<path class="host5" d="M193.3,125.1L194.5,125.1" style="stroke-dasharray: 2, 4; stroke-dashoffset: 0;"></path>
			<path class="host5" d="M198.6,141.1L199.8,141.1" style="stroke-dasharray: 2, 4; stroke-dashoffset: 0;"></path>
			<path class="host5" d="M205,141.1L206.3,141.1" style="stroke-dasharray: 2, 4; stroke-dashoffset: 0;"></path>
			<path class="host5" d="M211.5,141.1L212.7,141.1" style="stroke-dasharray: 2, 4; stroke-dashoffset: 0;"></path>
			<path class="host5" d="M218.1,141.1L219.3,141.1" style="stroke-dasharray: 2, 4; stroke-dashoffset: 0;"></path>
			<path class="host5" d="M199.2,125.1L200.4,125.1" style="stroke-dasharray: 2, 4; stroke-dashoffset: 0;"></path>
			<path class="host5" d="M148.2,135.8L158.5,135.8" style="stroke-dasharray: 11, 13; stroke-dashoffset: 0;"></path>
			<path class="host5" d="M148.2,130.5L176,130.5" style="stroke-dasharray: 28, 30; stroke-dashoffset: 0;"></path>
			<path class="host5" d="M148.2,141.1L170.7,141.1" style="stroke-dasharray: 23, 25; stroke-dashoffset: 0;"></path>
			<path class="host5" d="M214.4,123.7L214.4,129.8" style="stroke-dasharray: 7, 9; stroke-dashoffset: 0;"></path>
		</g>
		<g>
			<path class="host1" d="M208.4,160.9c0-3.3,2.7-6,6-6l0,0c3.3,0,6,2.7,6,6l0,0c0,3.3-2.7,6-6,6l0,0
				C211.1,166.9,208.4,164.2,208.4,160.9L208.4,160.9z" style="stroke-dasharray: 38, 40; stroke-dashoffset: 0;"></path>
			<path class="host5" d="M148.2,156.4L165.2,156.4" style="stroke-dasharray: 17, 19; stroke-dashoffset: 0;"></path>
			<path class="host5" d="M193.3,156.4L194.5,156.4" style="stroke-dasharray: 2, 4; stroke-dashoffset: 0;"></path>
			<path class="host5" d="M198.6,172.3L199.8,172.3" style="stroke-dasharray: 2, 4; stroke-dashoffset: 0;"></path>
			<path class="host5" d="M205,172.3L206.3,172.3" style="stroke-dasharray: 2, 4; stroke-dashoffset: 0;"></path>
			<path class="host5" d="M211.5,172.3L212.7,172.3" style="stroke-dasharray: 2, 4; stroke-dashoffset: 0;"></path>
			<path class="host5" d="M218.1,172.3L219.3,172.3" style="stroke-dasharray: 2, 4; stroke-dashoffset: 0;"></path>
			<path class="host5" d="M199.2,156.4L200.4,156.4" style="stroke-dasharray: 2, 4; stroke-dashoffset: 0;"></path>
			<path class="host5" d="M148.2,167L158.5,167" style="stroke-dasharray: 11, 13; stroke-dashoffset: 0;"></path>
			<path class="host5" d="M148.2,161.7L176,161.7" style="stroke-dasharray: 28, 30; stroke-dashoffset: 0;"></path>
			<path class="host5" d="M148.2,172.3L170.7,172.3" style="stroke-dasharray: 23, 25; stroke-dashoffset: 0;"></path>
			<path class="host5" d="M214.4,154.9L214.4,161" style="stroke-dasharray: 7, 9; stroke-dashoffset: 0;"></path>
		</g>
		<g>
			<path class="host1" d="M208.4,193.1c0-3.3,2.7-6,6-6l0,0c3.3,0,6,2.7,6,6l0,0c0,3.3-2.7,6-6,6l0,0
				C211.1,199.1,208.4,196.4,208.4,193.1L208.4,193.1z" style="stroke-dasharray: 38, 40; stroke-dashoffset: 0;"></path>
			<path class="host5" d="M148.2,188.6L165.2,188.6" style="stroke-dasharray: 17, 19; stroke-dashoffset: 0;"></path>
			<path class="host5" d="M193.3,188.6L194.5,188.6" style="stroke-dasharray: 2, 4; stroke-dashoffset: 0;"></path>
			<path class="host5" d="M198.6,204.5L199.8,204.5" style="stroke-dasharray: 2, 4; stroke-dashoffset: 0;"></path>
			<path class="host5" d="M205,204.5L206.3,204.5" style="stroke-dasharray: 2, 4; stroke-dashoffset: 0;"></path>
			<path class="host5" d="M211.5,204.5L212.7,204.5" style="stroke-dasharray: 2, 4; stroke-dashoffset: 0;"></path>
			<path class="host5" d="M218.1,204.5L219.3,204.5" style="stroke-dasharray: 2, 4; stroke-dashoffset: 0;"></path>
			<path class="host5" d="M199.2,188.6L200.4,188.6" style="stroke-dasharray: 2, 4; stroke-dashoffset: 0;"></path>
			<path class="host5" d="M148.2,199.2L158.5,199.2" style="stroke-dasharray: 11, 13; stroke-dashoffset: 0;"></path>
			<path class="host5" d="M148.2,193.9L176,193.9" style="stroke-dasharray: 28, 30; stroke-dashoffset: 0;"></path>
			<path class="host5" d="M148.2,204.5L170.7,204.5" style="stroke-dasharray: 23, 25; stroke-dashoffset: 0;"></path>
			<path class="host5" d="M214.4,187.1L214.4,193.2" style="stroke-dasharray: 7, 9; stroke-dashoffset: 0;"></path>
		</g>
	</g>
</g>
<g>
	<path class="host6" d="M32.7,169.9c0-1.9,1.5-3.5,3.5-3.5l0,0c1.9,0,3.5,1.6,3.5,3.5l0,0c0,1.9-1.5,3.5-3.5,3.5l0,0
		C34.3,173.3,32.7,171.8,32.7,169.9L32.7,169.9z" style="stroke-dasharray: 22, 24; stroke-dashoffset: 0;"></path>
	<path class="host6" d="M93.8,152.9c0-1.9,1.5-3.5,3.5-3.5l0,0c1.9,0,3.5,1.5,3.5,3.5l0,0c0,1.9-1.5,3.5-3.5,3.5l0,0
		C95.3,156.4,93.8,154.9,93.8,152.9L93.8,152.9z" style="stroke-dasharray: 23, 25; stroke-dashoffset: 0;"></path>
	<path class="host7" d="M39.6,169.9L66.3,169.9L66.3,153.3L93.8,153.3" style="stroke-dasharray: 71, 73; stroke-dashoffset: 0;"></path>
</g>
<g>
	<path class="host7" d="M89.5,78.2L119.7,78.2L119.7,106.1L148.4,106.1" style="stroke-dasharray: 87, 89; stroke-dashoffset: 0;"></path>
	<path class="host6" d="M145.6,106.3c0-1.9,1.5-3.5,3.5-3.5l0,0c1.9,0,3.5,1.5,3.5,3.5l0,0c0,1.9-1.5,3.5-3.5,3.5l0,0
		C147.2,109.8,145.6,108.2,145.6,106.3L145.6,106.3z" style="stroke-dasharray: 23, 25; stroke-dashoffset: 0;"></path>
	<path class="host6" d="M86.1,78.2c0-1.9,1.5-3.5,3.5-3.5l0,0c1.9,0,3.5,1.5,3.5,3.5l0,0c0,1.9-1.5,3.5-3.5,3.5l0,0
		C87.6,81.7,86.1,80.1,86.1,78.2L86.1,78.2z" style="stroke-dasharray: 23, 25; stroke-dashoffset: 0;"></path>
</g>
<g>
	<path class="host6" d="M213.7,48.2c0-1.9,1.5-3.5,3.5-3.5l0,0c1.9,0,3.5,1.5,3.5,3.5l0,0c0,1.9-1.5,3.5-3.5,3.5l0,0
		C215.2,51.6,213.7,50.1,213.7,48.2L213.7,48.2z" style="stroke-dasharray: 22, 24; stroke-dashoffset: 0;"></path>
	<path class="host6" d="M157.9,78.8c0-1.9,1.5-3.5,3.5-3.5l0,0c1.9,0,3.5,1.5,3.5,3.5l0,0c0,1.9-1.5,3.5-3.5,3.5l0,0
		C159.4,82.3,157.9,80.7,157.9,78.8L157.9,78.8z" style="stroke-dasharray: 23, 25; stroke-dashoffset: 0;"></path>
	<path class="host7" d="M161.1,75.3L161.1,61.4L187.1,61.4L187.1,48.2L213.7,48.2" style="stroke-dasharray: 80, 82; stroke-dashoffset: 0;"></path>
</g>
<g>
	<path class="host6" d="M250.7,95.1c0-1.9,1.5-3.5,3.5-3.5l0,0c1.9,0,3.5,1.5,3.5,3.5l0,0c0,1.9-1.5,3.5-3.5,3.5l0,0
		C252.2,98.5,250.7,97,250.7,95.1L250.7,95.1z" style="stroke-dasharray: 22, 24; stroke-dashoffset: 0;"></path>
	<path class="host6" d="M296.2,118.2c0-1.9,1.5-3.5,3.5-3.5l0,0c1.9,0,3.5,1.5,3.5,3.5l0,0c0,1.9-1.5,3.5-3.5,3.5l0,0
		C297.7,121.7,296.2,120.2,296.2,118.2L296.2,118.2z" style="stroke-dasharray: 23, 25; stroke-dashoffset: 0;"></path>
	<path class="host7" d="M254.1,98.5L254.1,107.4L273.9,107.4L273.9,118.2L296,118.2" style="stroke-dasharray: 62, 64; stroke-dashoffset: 0;"></path>
</g>
<g>
	<path class="host6" d="M268.6,165.1c0-1.9,1.5-3.5,3.5-3.5l0,0c1.9,0,3.5,1.5,3.5,3.5l0,0c0,1.9-1.5,3.5-3.5,3.5l0,0
		C270.1,168.5,268.6,167,268.6,165.1L268.6,165.1z" style="stroke-dasharray: 22, 24; stroke-dashoffset: 0;"></path>
	<path class="host6" d="M313,195.8c0-1.9,1.5-3.5,3.5-3.5l0,0c1.9,0,3.5,1.5,3.5,3.5l0,0h0c0,1.9-1.5,3.5-3.5,3.5l0,0
		C314.6,199.3,313,197.7,313,195.8L313,195.8z" style="stroke-dasharray: 23, 25; stroke-dashoffset: 0;"></path>
	<path class="host7" d="M275.5,165.1L306.2,165.1L306.2,177.6L316.5,177.6L316.5,191.9" style="stroke-dasharray: 68, 70; stroke-dashoffset: 0;"></path>
</g>
<g>
	<path class="host6" d="M189.6,220.4c0-1.9,1.5-3.5,3.5-3.5l0,0c1.9,0,3.5,1.5,3.5,3.5l0,0c0,1.9-1.5,3.5-3.5,3.5l0,0
		C191.2,223.9,189.6,222.3,189.6,220.4L189.6,220.4z" style="stroke-dasharray: 23, 25; stroke-dashoffset: 0;"></path>
	<path class="host6" d="M230.7,250.9c0-1.9,1.5-3.5,3.5-3.5l0,0c1.9,0,3.5,1.5,3.5,3.5l0,0c0,1.9-1.5,3.5-3.5,3.5l0,0
		C232.2,254.3,230.7,252.8,230.7,250.9L230.7,250.9z" style="stroke-dasharray: 22, 24; stroke-dashoffset: 0;"></path>
	<path class="host7" d="M193.1,223.9L193.1,230.7L234.1,230.7L234.1,247.4" style="stroke-dasharray: 65, 67; stroke-dashoffset: 0;"></path>
</g>
<g>
	<path class="host6" d="M146.7,220.7c0-1.9,1.5-3.5,3.5-3.5l0,0c1.9,0,3.5,1.5,3.5,3.5l0,0c0,1.9-1.5,3.5-3.5,3.5l0,0
		C148.2,224.2,146.7,222.6,146.7,220.7L146.7,220.7z" style="stroke-dasharray: 23, 25; stroke-dashoffset: 0;"></path>
	<path class="host6" d="M119.6,259.6c0-1.9,1.5-3.5,3.5-3.5l0,0c1.9,0,3.5,1.5,3.5,3.5l0,0c0,1.9-1.5,3.5-3.5,3.5l0,0
		C121.1,263.1,119.6,261.6,119.6,259.6L119.6,259.6z" style="stroke-dasharray: 23, 25; stroke-dashoffset: 0;"></path>
	<path class="host7" d="M150.1,224.2L150.1,242L137.1,242L137.1,259.7L126.9,259.7" style="stroke-dasharray: 59, 61; stroke-dashoffset: 0;"></path>
</g>
<path class="host5" d="M24.9,157.4c0,0-0.5,0-0.8,0l0,0c-0.1,0-0.1,0-0.2,0l0,0c-2.6-0.3-4.5-2.5-4.5-5.1l0,0c0-2.9,2.3-5.2,5.2-5.2
	l0,0c0.1,0,0.2,0,0.3,0l0,0c1.1-2.2,3.4-3.7,6-3.7l0,0c0.4,0,0.8,0,1.1,0.1l0,0c1.5-3.6,5-6.2,9.1-6.2l0,0c3.9,0,7.3,2.3,8.9,5.7
	l0,0c3.9,0.1,7.1,3.3,7.1,7.2l0,0c0,4-3.2,7.2-7.2,7.2l0,0H24.9L24.9,157.4z" style="stroke-dasharray: 96, 98; stroke-dashoffset: 0;"></path>
<g>
	<path class="host5" d="M43.2,208c-0.2,0-0.4-0.1-0.5-0.2l0,0c-0.1-0.1-0.2-0.3-0.2-0.5l0,0v-20.7c0-0.2,0.1-0.4,0.2-0.5l0,0
		c0.1-0.1,0.3-0.2,0.5-0.2l0,0h27.5c0.2,0,0.4,0.1,0.5,0.2l0,0c0.1,0.1,0.2,0.3,0.2,0.5l0,0v20.7c0,0.2-0.1,0.4-0.2,0.5l0,0
		c-0.1,0.1-0.3,0.2-0.5,0.2l0,0H43.2L43.2,208z" style="stroke-dasharray: 101, 103; stroke-dashoffset: 0;"></path>
	<path class="host0" d="M70.7,207.2L70.7,206.5L70.7,207.2Z" style="stroke-dasharray: 2, 4; stroke-dashoffset: 0;"></path>
	<path class="host5" d="M52.2,204.3L57.2,204.3" style="stroke-dasharray: 5, 7; stroke-dashoffset: 0;"></path>
	<path class="host5" d="M60.8,204.3L62.3,204.3" style="stroke-dasharray: 2, 4; stroke-dashoffset: 0;"></path>
	<path class="host5" d="M56.8,189.5L57.1,189.5" style="stroke-dasharray: 1, 3; stroke-dashoffset: 0;"></path>
</g>
<path class="host7" d="M100.2,93.9l-5.7,8.3c0,0,0,0,0,0c-0.8,1.1-1.2,2.4-1.2,3.7c0,1.6,0.7,3.1,2.2,4.1c0.9,0.6,1.9,0.9,2.9,0.9
	c1.9,0,3.6-1.1,4.8-2.8l7.6-11c0,0,0,0,0,0c0.5-0.7,0.8-1.6,0.8-2.4c0-1.1-0.5-2.2-1.5-2.9c-0.6-0.4-1.3-0.6-2-0.6
	c-1.3,0-2.4,0.7-3.2,1.8c0,0,0,0,0,0l-7.6,11c0,0,0,0,0,0c-0.3,0.5-0.5,1-0.5,1.6c0,0-0.1,2.6,2.4,1.9c1.2-0.4,8-11,8-11" style="stroke-dasharray: 86, 88; stroke-dashoffset: 0;"></path>
<g>
	<path class="host5" d="M52.2,100.1c-0.2,0-0.4-0.1-0.5-0.2l0,0c-0.1-0.1-0.2-0.3-0.2-0.5l0,0v-7.8c0-0.2,0.1-0.3,0.2-0.5l0,0
		C51.8,91,52,91,52.2,91l0,0h27.7c0.2,0,0.4,0.1,0.5,0.2l0,0c0.1,0.1,0.2,0.3,0.2,0.5l0,0v7.8c0,0.2-0.1,0.3-0.2,0.5l0,0
		c-0.1,0.1-0.3,0.2-0.5,0.2l0,0H52.2L52.2,100.1z" style="stroke-dasharray: 76, 78; stroke-dashoffset: 0;"></path>
	<path class="host4" d="M79.9,99.3L79.9,98.6L79.9,99.3Z" style="stroke-dasharray: 2, 4; stroke-dashoffset: 0;"></path>
	<path class="host5" d="M52.2,109.2c-0.2,0-0.4-0.1-0.5-0.2l0,0c-0.1-0.1-0.2-0.3-0.2-0.5l0,0v-8.3c0-0.2,0.1-0.4,0.2-0.5l0,0
		c0.1-0.1,0.3-0.2,0.5-0.2l0,0h27.7c0.2,0,0.4,0.1,0.5,0.2l0,0c0.1,0.1,0.2,0.3,0.2,0.5l0,0v8.3c0,0.2-0.1,0.4-0.2,0.5l0,0
		c-0.1,0.1-0.3,0.2-0.5,0.2l0,0H52.2L52.2,109.2z" style="stroke-dasharray: 77, 79; stroke-dashoffset: 0;"></path>
	<path class="host4" d="M79.9,108.5L79.9,107.7L79.9,108.5Z" style="stroke-dasharray: 2, 4; stroke-dashoffset: 0;"></path>
	<path class="host5" d="M52.2,118.3c-0.2,0-0.4-0.1-0.5-0.2l0,0c-0.1-0.1-0.2-0.3-0.2-0.5l0,0v-8.1c0-0.2,0.1-0.3,0.2-0.5l0,0
		c0.1-0.1,0.3-0.2,0.5-0.2l0,0h27.7c0.2,0,0.4,0.1,0.5,0.2l0,0c0.1,0.1,0.2,0.3,0.2,0.5l0,0v8.1c0,0.2-0.1,0.3-0.2,0.5l0,0
		c-0.1,0.1-0.3,0.2-0.5,0.2l0,0H52.2L52.2,118.3z" style="stroke-dasharray: 76, 78; stroke-dashoffset: 0;"></path>
	<path class="host4" d="M79.9,117.6L79.9,116.8L79.9,117.6Z" style="stroke-dasharray: 2, 4; stroke-dashoffset: 0;"></path>
	<path class="host5" d="M52.2,80.3c-0.2,0-0.4-0.1-0.5-0.2l0,0c-0.1-0.1-0.2-0.3-0.2-0.5l0,0v-7.8c0-0.2,0.1-0.3,0.2-0.5l0,0
		c0.1-0.1,0.3-0.2,0.5-0.2l0,0h27.7c0.2,0,0.4,0.1,0.5,0.2l0,0c0.1,0.1,0.2,0.3,0.2,0.5l0,0v7.8c0,0.2-0.1,0.3-0.2,0.5l0,0
		c-0.1,0.1-0.3,0.2-0.5,0.2l0,0H52.2L52.2,80.3z" style="stroke-dasharray: 76, 78; stroke-dashoffset: 0;"></path>
	<path class="host4" d="M79.9,81.1L79.9,80.3L79.9,81.1Z" style="stroke-dasharray: 2, 4; stroke-dashoffset: 0;"></path>
	<path class="host5" d="M52.2,91c-0.2,0-0.4-0.1-0.5-0.2l0,0c-0.1-0.1-0.2-0.3-0.2-0.5l0,0v-9.3c0-0.2,0.1-0.4,0.2-0.5l0,0
		c0.1-0.1,0.3-0.2,0.5-0.2l0,0h27.7c0.2,0,0.4,0.1,0.5,0.2l0,0c0.1,0.1,0.2,0.3,0.2,0.5l0,0v9.3c0,0.2-0.1,0.4-0.2,0.5l0,0
		c-0.1,0.1-0.3,0.2-0.5,0.2l0,0H52.2L52.2,91z" style="stroke-dasharray: 79, 81; stroke-dashoffset: 0;"></path>
	<path class="host4" d="M79.9,90.2L79.9,89.5L79.9,90.2Z" style="stroke-dasharray: 2, 4; stroke-dashoffset: 0;"></path>
	<path class="host3" d="M54.7,74.4L61.5,74.4" style="stroke-dasharray: 7, 9; stroke-dashoffset: 0;"></path>
	<path class="host3" d="M54.7,77.1L58.3,77.1" style="stroke-dasharray: 4, 6; stroke-dashoffset: 0;"></path>
	<path class="host8" d="M67.7,75.7L68.6,75.7" style="stroke-dasharray: 1, 3; stroke-dashoffset: 0;"></path>
	<path class="host8" d="M70.9,75.7L71.8,75.7" style="stroke-dasharray: 1, 3; stroke-dashoffset: 0;"></path>
	<path class="host8" d="M74.2,75.7L75,75.7" style="stroke-dasharray: 1, 3; stroke-dashoffset: 0;"></path>
	<path class="host3" d="M54.7,84.2L61.5,84.2" style="stroke-dasharray: 7, 9; stroke-dashoffset: 0;"></path>
	<path class="host3" d="M54.7,86.9L58.3,86.9" style="stroke-dasharray: 4, 6; stroke-dashoffset: 0;"></path>
	<path class="host8" d="M67.7,85.5L68.6,85.5" style="stroke-dasharray: 1, 3; stroke-dashoffset: 0;"></path>
	<path class="host8" d="M70.9,85.5L71.8,85.5" style="stroke-dasharray: 1, 3; stroke-dashoffset: 0;"></path>
	<path class="host8" d="M74.2,85.5L75,85.5" style="stroke-dasharray: 1, 3; stroke-dashoffset: 0;"></path>
	<path class="host3" d="M54.7,94L61.5,94" style="stroke-dasharray: 7, 9; stroke-dashoffset: 0;"></path>
	<path class="host3" d="M54.7,96.7L58.3,96.7" style="stroke-dasharray: 4, 6; stroke-dashoffset: 0;"></path>
	<path class="host8" d="M67.7,95.3L68.6,95.3" style="stroke-dasharray: 1, 3; stroke-dashoffset: 0;"></path>
	<path class="host8" d="M70.9,95.3L71.8,95.3" style="stroke-dasharray: 1, 3; stroke-dashoffset: 0;"></path>
	<path class="host8" d="M74.2,95.3L75,95.3" style="stroke-dasharray: 1, 3; stroke-dashoffset: 0;"></path>
	<path class="host3" d="M54.5,102.9L61.4,102.9" style="stroke-dasharray: 7, 9; stroke-dashoffset: 0;"></path>
	<path class="host3" d="M54.5,105.6L58.2,105.6" style="stroke-dasharray: 4, 6; stroke-dashoffset: 0;"></path>
	<path class="host8" d="M67.6,104.2L68.4,104.2" style="stroke-dasharray: 1, 3; stroke-dashoffset: 0;"></path>
	<path class="host8" d="M70.8,104.2L71.7,104.2" style="stroke-dasharray: 1, 3; stroke-dashoffset: 0;"></path>
	<path class="host8" d="M74.1,104.2L74.9,104.2" style="stroke-dasharray: 1, 3; stroke-dashoffset: 0;"></path>
	<path class="host3" d="M54.7,112.6L61.5,112.6" style="stroke-dasharray: 7, 9; stroke-dashoffset: 0;"></path>
	<path class="host3" d="M54.7,115.3L58.3,115.3" style="stroke-dasharray: 4, 6; stroke-dashoffset: 0;"></path>
	<path class="host8" d="M67.7,113.9L68.6,113.9" style="stroke-dasharray: 1, 3; stroke-dashoffset: 0;"></path>
	<path class="host8" d="M70.9,113.9L71.8,113.9" style="stroke-dasharray: 1, 3; stroke-dashoffset: 0;"></path>
	<path class="host8" d="M74.2,113.9L75,113.9" style="stroke-dasharray: 1, 3; stroke-dashoffset: 0;"></path>
</g>
<g>
	<path class="host7" d="M123,69.9c-0.2,0-0.4-0.1-0.5-0.2l0,0c-0.1-0.1-0.2-0.3-0.2-0.5l0,0V50.6c0-0.2,0.1-0.4,0.2-0.5l0,0
		c0.1-0.1,0.3-0.2,0.5-0.2l0,0h16.9c0.2,0,0.4,0.1,0.5,0.2l0,0c0.1,0.1,0.2,0.3,0.2,0.5l0,0v18.6c0,0.2-0.1,0.4-0.2,0.5l0,0
		c-0.1,0.1-0.3,0.2-0.5,0.2l0,0H123L123,69.9z" style="stroke-dasharray: 76, 78; stroke-dashoffset: 0;"></path>
	<path class="host4" d="M139.9,69.2L139.9,68.4L139.9,69.2Z" style="stroke-dasharray: 2, 4; stroke-dashoffset: 0;"></path>
	<path class="host3" d="M128.4,51.4L128.4,42.2" style="stroke-dasharray: 10, 12; stroke-dashoffset: 0;"></path>
	<path class="host3" d="M134.9,51.4L134.9,38.7" style="stroke-dasharray: 13, 15; stroke-dashoffset: 0;"></path>
	<path class="host3" d="M131.5,51.4L131.5,44.6" style="stroke-dasharray: 7, 9; stroke-dashoffset: 0;"></path>
	<path class="host3" d="M123.5,59.9L114.3,59.9" style="stroke-dasharray: 10, 12; stroke-dashoffset: 0;"></path>
	<path class="host3" d="M123.5,53.4L110.7,53.4" style="stroke-dasharray: 13, 15; stroke-dashoffset: 0;"></path>
	<path class="host3" d="M123.5,56.8L116.7,56.8" style="stroke-dasharray: 7, 9; stroke-dashoffset: 0;"></path>
	<path class="host3" d="M139.9,59.4L149.1,59.4" style="stroke-dasharray: 10, 12; stroke-dashoffset: 0;"></path>
	<path class="host3" d="M139.9,65.9L152.6,65.9" style="stroke-dasharray: 13, 15; stroke-dashoffset: 0;"></path>
	<path class="host3" d="M139.9,62.5L146.7,62.5" style="stroke-dasharray: 7, 9; stroke-dashoffset: 0;"></path>
	<path class="host3" d="M134.8,69L134.8,78.1" style="stroke-dasharray: 10, 12; stroke-dashoffset: 0;"></path>
	<path class="host3" d="M128.3,69L128.3,81.7" style="stroke-dasharray: 13, 15; stroke-dashoffset: 0;"></path>
	<path class="host3" d="M131.7,69L131.7,75.7" style="stroke-dasharray: 7, 9; stroke-dashoffset: 0;"></path>
	<path class="host3" d="M126.8,54.7c0.4,0,6.9,0,6.9,0" style="stroke-dasharray: 7, 9; stroke-dashoffset: 0;"></path>
	<path class="host3" d="M126.8,57.1c0.2,0,3.5,0,3.5,0" style="stroke-dasharray: 4, 6; stroke-dashoffset: 0;"></path>
	<path class="host3" d="M130.7,66.4c0,0,0.7,0,0.7,0" style="stroke-dasharray: 1, 3; stroke-dashoffset: 0;"></path>
	<path class="host3" d="M133.4,66.4c0,0,0.7,0,0.7,0" style="stroke-dasharray: 1, 3; stroke-dashoffset: 0;"></path>
	<path class="host3" d="M136.1,66.4c0,0,0.7,0,0.7,0" style="stroke-dasharray: 1, 3; stroke-dashoffset: 0;"></path>
</g>
<g>
	<path class="host5" d="M197.5,72.1h-7.1l0-2.1c0-1-0.8-1.8-1.8-1.8H177c-1,0-1.8,0.8-1.8,1.8v4.7v0.9v11.9c0,1.4,1.2,2.6,2.6,2.6
		h19.8c1.4,0,2.6-1.2,2.6-2.6l0-12.8C200.1,73.2,199,72.1,197.5,72.1z" style="stroke-dasharray: 89, 91; stroke-dashoffset: 0;"></path>
	<path class="host1" d="M185,96.4c0-1.4,1.2-2.6,2.6-2.6l0,0c1.4,0,2.6,1.2,2.6,2.6l0,0c0,1.4-1.2,2.6-2.6,2.6l0,0
		C186.2,99,185,97.8,185,96.4L185,96.4z" style="stroke-dasharray: 17, 19; stroke-dashoffset: 0;"></path>
	<path class="host5" d="M187.6,90.3L187.6,93" style="stroke-dasharray: 3, 5; stroke-dashoffset: 0;"></path>
	<path class="host5" d="M190.3,96.4L202.1,96.4" style="stroke-dasharray: 12, 14; stroke-dashoffset: 0;"></path>
	<path class="host5" d="M173.2,96.4L185,96.4" style="stroke-dasharray: 12, 14; stroke-dashoffset: 0;"></path>
</g>
<g>
	<path class="host5" d="M240.7,79.7c-0.2,0-0.4-0.1-0.5-0.2l0,0c-0.1-0.1-0.2-0.3-0.2-0.5l0,0V58.3c0-0.2,0.1-0.4,0.2-0.5l0,0
		c0.1-0.1,0.3-0.2,0.5-0.2l0,0h27.5c0.2,0,0.4,0.1,0.5,0.2l0,0c0.1,0.1,0.2,0.3,0.2,0.5l0,0v20.7c0,0.2-0.1,0.4-0.2,0.5l0,0
		c-0.1,0.1-0.3,0.2-0.5,0.2l0,0H240.7L240.7,79.7z" style="stroke-dasharray: 101, 103; stroke-dashoffset: 0;"></path>
	<path class="host0" d="M268.3,78.9L268.3,78.2L268.3,78.9Z" style="stroke-dasharray: 2, 4; stroke-dashoffset: 0;"></path>
	<path class="host5" d="M252.3,87.2c-0.2,0-0.4-0.1-0.5-0.2l0,0c-0.1-0.1-0.2-0.3-0.2-0.5l0,0v-6c0-0.2,0.1-0.4,0.2-0.5l0,0
		c0.1-0.1,0.3-0.2,0.5-0.2l0,0h4.4c0.2,0,0.4,0.1,0.5,0.2l0,0c0.1,0.1,0.2,0.3,0.2,0.5l0,0v6c0,0.2-0.1,0.4-0.2,0.5l0,0
		c-0.1,0.1-0.3,0.2-0.5,0.2l0,0H252.3L252.3,87.2z" style="stroke-dasharray: 26, 28; stroke-dashoffset: 0;"></path>
	<path class="host0" d="M256.7,85L256.7,84.2L256.7,85Z" style="stroke-dasharray: 2, 4; stroke-dashoffset: 0;"></path>
	<path class="host9" d="M254.2,61.9c-0.4,0-0.8-0.3-0.8-0.8l0,0c0-0.4,0.3-0.8,0.8-0.8l0,0h0.5c0.4,0,0.8,0.3,0.8,0.8l0,0
		c0,0.4-0.3,0.8-0.8,0.8l0,0H254.2L254.2,61.9z" style="stroke-dasharray: 7, 9; stroke-dashoffset: 0;"></path>
	<path class="host5" d="M242.7,87.2L266.3,87.2" style="stroke-dasharray: 24, 26; stroke-dashoffset: 0;"></path>
	<path class="host3" d="M244.2,75.9L252.5,75.9" style="stroke-dasharray: 9, 11; stroke-dashoffset: 0;"></path>
	<path class="host3" d="M255.2,75.9L256.5,75.9" style="stroke-dasharray: 2, 4; stroke-dashoffset: 0;"></path>
	<path class="host3" d="M259.3,75.9L263.5,75.9" style="stroke-dasharray: 5, 7; stroke-dashoffset: 0;"></path>
</g>
<g>
	<path class="host3" d="M274.9,65.2L276.2,65.2" style="stroke-dasharray: 2, 4; stroke-dashoffset: 0;"></path>
	<path class="host3" d="M279.5,65.2L280.7,65.2" style="stroke-dasharray: 2, 4; stroke-dashoffset: 0;"></path>
	<path class="host3" d="M283.9,65.2L285.2,65.2" style="stroke-dasharray: 2, 4; stroke-dashoffset: 0;"></path>
</g>
<g>
	<path class="host5" d="M285.3,98.1c-0.2,0-0.4-0.1-0.5-0.2l0,0c-0.1-0.1-0.2-0.3-0.2-0.5l0,0V73.8c0-0.2,0.1-0.4,0.2-0.5l0,0
		c0.1-0.1,0.3-0.2,0.5-0.2l0,0h20.4c0.2,0,0.4,0.1,0.5,0.2l0,0c0.1,0.1,0.2,0.3,0.2,0.5l0,0v23.6c0,0.2-0.1,0.4-0.2,0.5l0,0
		c-0.1,0.1-0.3,0.2-0.5,0.2l0,0H285.3L285.3,98.1z" style="stroke-dasharray: 93, 95; stroke-dashoffset: 0;"></path>
	<path class="host0" d="M305.7,97.4L305.7,96.6L305.7,97.4Z" style="stroke-dasharray: 2, 4; stroke-dashoffset: 0;"></path>
	<path class="host3" d="M289.1,77.6L302.2,77.6" style="stroke-dasharray: 14, 16; stroke-dashoffset: 0;"></path>
	<path class="host3" d="M289.1,87.4L302.2,87.4" style="stroke-dasharray: 14, 16; stroke-dashoffset: 0;"></path>
	<path class="host3" d="M289.1,80.9L296,80.9" style="stroke-dasharray: 7, 9; stroke-dashoffset: 0;"></path>
	<path class="host3" d="M289.1,84.1L292.9,84.1" style="stroke-dasharray: 4, 6; stroke-dashoffset: 0;"></path>
	<path class="host3" d="M295.5,84.1L302.5,84.1" style="stroke-dasharray: 7, 9; stroke-dashoffset: 0;"></path>
	<path class="host3" d="M289.1,90.6L292.9,90.6" style="stroke-dasharray: 4, 6; stroke-dashoffset: 0;"></path>
	<path class="host3" d="M295.5,90.6L302.5,90.6" style="stroke-dasharray: 7, 9; stroke-dashoffset: 0;"></path>
</g>
<g>
	<path class="host5" d="M308.8,126.7c-0.2,0-0.4-0.1-0.5-0.2l0,0c-0.1-0.1-0.2-0.3-0.2-0.5l0,0v-20.7c0-0.2,0.1-0.4,0.2-0.5l0,0
		c0.1-0.1,0.3-0.2,0.5-0.2l0,0h27.5c0.2,0,0.4,0.1,0.5,0.2l0,0c0.1,0.1,0.2,0.3,0.2,0.5l0,0V126c0,0.2-0.1,0.4-0.2,0.5l0,0
		c-0.1,0.1-0.3,0.2-0.5,0.2l0,0H308.8L308.8,126.7z" style="stroke-dasharray: 101, 103; stroke-dashoffset: 0;"></path>
	<path class="host5" d="M306.5,132c-0.2,0-0.4-0.1-0.5-0.2l0,0c-0.1-0.1-0.2-0.3-0.2-0.5l0,0v-3.9c0-0.2,0.1-0.3,0.2-0.5l0,0
		c0.1-0.1,0.3-0.2,0.5-0.2l0,0h32c0.2,0,0.4,0.1,0.5,0.2l0,0c0.1,0.1,0.2,0.3,0.2,0.5l0,0v3.9c0,0.2-0.1,0.3-0.2,0.5l0,0
		c-0.1,0.1-0.3,0.2-0.5,0.2l0,0H306.5L306.5,132z" style="stroke-dasharray: 77, 79; stroke-dashoffset: 0;"></path>
	<path class="host0" d="M338.5,130.5L338.5,129.8L338.5,130.5Z" style="stroke-dasharray: 2, 4; stroke-dashoffset: 0;"></path>
	<path class="host3" d="M313.1,122.6L320.6,122.6" style="stroke-dasharray: 8, 10; stroke-dashoffset: 0;"></path>
	<path class="host3" d="M323.3,122.6L324.6,122.6" style="stroke-dasharray: 2, 4; stroke-dashoffset: 0;"></path>
	<path class="host3" d="M322.2,107.9L322.9,107.9" style="stroke-dasharray: 1, 3; stroke-dashoffset: 0;"></path>
	<path class="host3" d="M327.1,122.6L332.1,122.6" style="stroke-dasharray: 5, 7; stroke-dashoffset: 0;"></path>
</g>
<g>
	<path class="host5" d="M302.6,234.8c-0.2,0-0.4-0.1-0.5-0.2l0,0c-0.1-0.1-0.2-0.3-0.2-0.5l0,0v-7.8c0-0.2,0.1-0.3,0.2-0.5l0,0
		c0.1-0.1,0.3-0.2,0.5-0.2l0,0h27.7c0.2,0,0.4,0.1,0.5,0.2l0,0c0.1,0.1,0.2,0.3,0.2,0.5l0,0v7.8c0,0.2-0.1,0.3-0.2,0.5l0,0
		c-0.1,0.1-0.3,0.2-0.5,0.2l0,0H302.6L302.6,234.8z" style="stroke-dasharray: 76, 78; stroke-dashoffset: 0;"></path>
	<path class="host4" d="M330.4,234L330.4,233.3L330.4,234Z" style="stroke-dasharray: 2, 4; stroke-dashoffset: 0;"></path>
	<path class="host5" d="M302.6,243.9c-0.2,0-0.4-0.1-0.5-0.2l0,0c-0.1-0.1-0.2-0.3-0.2-0.5l0,0V235c0-0.2,0.1-0.4,0.2-0.5l0,0
		c0.1-0.1,0.3-0.2,0.5-0.2l0,0h27.7c0.2,0,0.4,0.1,0.5,0.2l0,0c0.1,0.1,0.2,0.3,0.2,0.5l0,0v8.3c0,0.2-0.1,0.4-0.2,0.5l0,0
		c-0.1,0.1-0.3,0.2-0.5,0.2l0,0H302.6L302.6,243.9z" style="stroke-dasharray: 77, 79; stroke-dashoffset: 0;"></path>
	<path class="host4" d="M330.4,243.2L330.4,242.4L330.4,243.2Z" style="stroke-dasharray: 2, 4; stroke-dashoffset: 0;"></path>
	<path class="host5" d="M302.6,215c-0.2,0-0.4-0.1-0.5-0.2l0,0c-0.1-0.1-0.2-0.3-0.2-0.5l0,0v-7.8c0-0.2,0.1-0.3,0.2-0.5l0,0
		c0.1-0.1,0.3-0.2,0.5-0.2l0,0h27.7c0.2,0,0.4,0.1,0.5,0.2l0,0c0.1,0.1,0.2,0.3,0.2,0.5l0,0v7.8c0,0.2-0.1,0.3-0.2,0.5l0,0
		c-0.1,0.1-0.3,0.2-0.5,0.2l0,0H302.6L302.6,215z" style="stroke-dasharray: 76, 78; stroke-dashoffset: 0;"></path>
	<path class="host4" d="M330.4,215.8L330.4,215L330.4,215.8Z" style="stroke-dasharray: 2, 4; stroke-dashoffset: 0;"></path>
	<path class="host5" d="M302.6,225.7c-0.2,0-0.4-0.1-0.5-0.2l0,0c-0.1-0.1-0.2-0.3-0.2-0.5l0,0v-9.3c0-0.2,0.1-0.4,0.2-0.5l0,0
		c0.1-0.1,0.3-0.2,0.5-0.2l0,0h27.7c0.2,0,0.4,0.1,0.5,0.2l0,0c0.1,0.1,0.2,0.3,0.2,0.5l0,0v9.3c0,0.2-0.1,0.4-0.2,0.5l0,0
		c-0.1,0.1-0.3,0.2-0.5,0.2l0,0H302.6L302.6,225.7z" style="stroke-dasharray: 79, 81; stroke-dashoffset: 0;"></path>
	<path class="host4" d="M330.4,224.9L330.4,224.2L330.4,224.9Z" style="stroke-dasharray: 2, 4; stroke-dashoffset: 0;"></path>
	<path class="host3" d="M305.1,209.1L312,209.1" style="stroke-dasharray: 7, 9; stroke-dashoffset: 0;"></path>
	<path class="host3" d="M305.1,211.8L308.7,211.8" style="stroke-dasharray: 4, 6; stroke-dashoffset: 0;"></path>
	<path class="host8" d="M318.1,210.4L319,210.4" style="stroke-dasharray: 1, 3; stroke-dashoffset: 0;"></path>
	<path class="host8" d="M321.4,210.4L322.2,210.4" style="stroke-dasharray: 1, 3; stroke-dashoffset: 0;"></path>
	<path class="host8" d="M324.6,210.4L325.4,210.4" style="stroke-dasharray: 1, 3; stroke-dashoffset: 0;"></path>
	<path class="host3" d="M305.1,218.9L312,218.9" style="stroke-dasharray: 7, 9; stroke-dashoffset: 0;"></path>
	<path class="host3" d="M305.1,221.6L308.7,221.6" style="stroke-dasharray: 4, 6; stroke-dashoffset: 0;"></path>
	<path class="host8" d="M318.1,220.2L319,220.2" style="stroke-dasharray: 1, 3; stroke-dashoffset: 0;"></path>
	<path class="host8" d="M321.4,220.2L322.2,220.2" style="stroke-dasharray: 1, 3; stroke-dashoffset: 0;"></path>
	<path class="host8" d="M324.6,220.2L325.4,220.2" style="stroke-dasharray: 1, 3; stroke-dashoffset: 0;"></path>
	<path class="host3" d="M305.1,228.7L312,228.7" style="stroke-dasharray: 7, 9; stroke-dashoffset: 0;"></path>
	<path class="host3" d="M305.1,231.4L308.7,231.4" style="stroke-dasharray: 4, 6; stroke-dashoffset: 0;"></path>
	<path class="host8" d="M318.1,230L319,230" style="stroke-dasharray: 1, 3; stroke-dashoffset: 0;"></path>
	<path class="host8" d="M321.4,230L322.2,230" style="stroke-dasharray: 1, 3; stroke-dashoffset: 0;"></path>
	<path class="host8" d="M324.6,230L325.4,230" style="stroke-dasharray: 1, 3; stroke-dashoffset: 0;"></path>
	<path class="host3" d="M305,237.6L311.9,237.6" style="stroke-dasharray: 7, 9; stroke-dashoffset: 0;"></path>
	<path class="host3" d="M305,240.3L308.6,240.3" style="stroke-dasharray: 4, 6; stroke-dashoffset: 0;"></path>
	<path class="host8" d="M318,238.9L318.9,238.9" style="stroke-dasharray: 1, 3; stroke-dashoffset: 0;"></path>
	<path class="host8" d="M321.3,238.9L322.1,238.9" style="stroke-dasharray: 1, 3; stroke-dashoffset: 0;"></path>
	<path class="host8" d="M324.5,238.9L325.3,238.9" style="stroke-dasharray: 1, 3; stroke-dashoffset: 0;"></path>
</g>
<g>
	<path class="host5" d="M279.7,222.9l-7.1,0l0-2.1c0-1-0.8-1.8-1.8-1.8h-11.6c-1,0-1.8,0.8-1.8,1.8v4.7v0.9v11.9
		c0,1.4,1.2,2.6,2.6,2.6h19.8c1.4,0,2.6-1.2,2.6-2.6l0-12.8C282.3,224,281.1,222.9,279.7,222.9z" style="stroke-dasharray: 89, 91; stroke-dashoffset: 0;"></path>
	<path class="host3" d="M261.6,229L273.6,229" style="stroke-dasharray: 12, 14; stroke-dashoffset: 0;"></path>
	<path class="host3" d="M261.6,233.3L268.6,233.3" style="stroke-dasharray: 7, 9; stroke-dashoffset: 0;"></path>
</g>
<g>
	<path class="host5" d="M227,280c-0.2,0-0.4-0.1-0.5-0.2l0,0c-0.1-0.1-0.2-0.3-0.2-0.5l0,0v-19.6c0-0.2,0.1-0.4,0.2-0.5l0,0
		c0.1-0.1,0.3-0.2,0.5-0.2l0,0h15.2c0.2,0,0.4,0.1,0.5,0.2l0,0c0.1,0.1,0.2,0.3,0.2,0.5l0,0v19.6c0,0.2-0.1,0.4-0.2,0.5l0,0
		c-0.1,0.1-0.3,0.2-0.5,0.2l0,0H227L227,280z" style="stroke-dasharray: 75, 77; stroke-dashoffset: 0;"></path>
	<path class="host0" d="M242.2,279.2L242.2,278.5L242.2,279.2Z" style="stroke-dasharray: 2, 4; stroke-dashoffset: 0;"></path>
	<path class="host5" d="M232.2,276.3L237,276.3" style="stroke-dasharray: 5, 7; stroke-dashoffset: 0;"></path>
	<path class="host5" d="M234.4,262.6L234.8,262.6" style="stroke-dasharray: 1, 3; stroke-dashoffset: 0;"></path>
</g>
<g>
	<path class="host3" d="M189.4,252.6c0-1.5,1.2-2.7,2.7-2.7l0,0c1.5,0,2.7,1.2,2.7,2.7l0,0c0,1.5-1.2,2.7-2.7,2.7l0,0
		C190.6,255.3,189.4,254.1,189.4,252.6L189.4,252.6z" style="stroke-dasharray: 17, 19; stroke-dashoffset: 0;"></path>
	<path class="host3" d="M185.5,250.2c0,0,6.1-8.7,13.2,0" style="stroke-dasharray: 16, 18; stroke-dashoffset: 0;"></path>
	<path class="host3" d="M182,246.6c0,0,9.6-12.8,20.3,0" style="stroke-dasharray: 25, 27; stroke-dashoffset: 0;"></path>
	<path class="host3" d="M178.4,243.1c0,0,12.7-16,27.4,0" style="stroke-dasharray: 32, 34; stroke-dashoffset: 0;"></path>
</g>
<g>
	<path class="host5" d="M160.9,289.2l-7.3-6.3h-12.5c-0.2,0-0.4-0.1-0.5-0.2l0,0c-0.1-0.1-0.2-0.3-0.2-0.5l0,0V268
		c0-0.2,0.1-0.4,0.2-0.5l0,0c0.1-0.1,0.3-0.2,0.5-0.2l0,0h24c0.2,0,0.4,0.1,0.5,0.2l0,0c0.1,0.1,0.2,0.3,0.2,0.5l0,0v14.1
		c0,0.2-0.1,0.4-0.2,0.5l0,0c-0.1,0.1-0.3,0.2-0.5,0.2l0,0h-4.4l1.4,5.6c0.1,0.3-0.1,0.7-0.3,0.8l0,0c-0.1,0.1-0.3,0.1-0.4,0.1l0,0
		C161.2,289.4,161,289.4,160.9,289.2L160.9,289.2z" style="stroke-dasharray: 91, 93; stroke-dashoffset: 0;"></path>
	<path class="host0" d="M165.1,282.1L165.1,281.4L165.1,282.1Z" style="stroke-dasharray: 2, 4; stroke-dashoffset: 0;"></path>
	<path class="host5" d="M145.5,272.5L160.8,272.5" style="stroke-dasharray: 16, 18; stroke-dashoffset: 0;"></path>
	<path class="host5" d="M145.5,276.1L157.8,276.1" style="stroke-dasharray: 13, 15; stroke-dashoffset: 0;"></path>
</g>
<g>
	<path class="host3" d="M114.9,265C114.9,265,114.9,264.9,114.9,265C114.9,264.9,114.9,264.9,114.9,265c0-0.1,0-0.2,0-0.2
		c0,0,0-0.1,0-0.1c0,0,0-0.1,0-0.1c0,0,0-0.1-0.1-0.1c0,0,0,0,0,0l-2.6-3.1v-14.2c0-0.4-0.3-0.8-0.8-0.8c-0.4,0-0.8,0.3-0.8,0.8
		v12.5l-1.1-1.4c0,0,0,0,0,0c0,0-0.1-0.1-0.1-0.1c0,0-0.1-0.1-0.1-0.1c0,0-0.1,0-0.1,0c-0.1,0-0.1,0-0.2,0c0,0,0,0,0,0H90.7
		c0,0,0,0,0,0c-0.1,0-0.1,0-0.2,0c0,0-0.1,0-0.1,0c0,0-0.1,0.1-0.1,0.1c0,0-0.1,0.1-0.1,0.1c0,0,0,0,0,0l-5.3,6.3c0,0,0,0,0,0
		c0,0,0,0.1-0.1,0.1c0,0,0,0.1,0,0.1c0,0,0,0.1,0,0.1c0,0,0,0.1,0,0.1c0,0,0,0,0,0.1c0,0,0,0,0,0c0,0,0,0.1,0,0.1c0,0,0,0,0,0.1
		l1.3,5.4c0,0,0,0,0,0.1c0,0,0,0.1,0,0.1c0,0,0.1,0.1,0.1,0.1c0,0,0,0.1,0.1,0.1c0,0,0.1,0.1,0.1,0.1c0,0,0.1,0,0.1,0
		c0.1,0,0.2,0.1,0.3,0.1c0,0,0,0,0,0c0,0,0,0,0,0h26.2c0.1,0,0.2,0,0.3-0.1c0,0,0.1,0,0.1,0c0.1,0,0.1-0.1,0.1-0.1
		c0,0,0-0.1,0.1-0.1c0,0,0.1-0.1,0.1-0.1c0,0,0-0.1,0-0.1c0,0,0,0,0-0.1l1.3-5.4C114.9,265.1,114.9,265.1,114.9,265
		C114.9,265,114.9,265,114.9,265z" style="stroke-dasharray: 105, 107; stroke-dashoffset: 0;"></path>
	<path class="host10" d="M91.7,259.8L107.8,259.8L111.5,264.2L88.1,264.2Z" style="stroke-dasharray: 51, 53; stroke-dashoffset: 0;"></path>
	<path class="host10" d="M87.4,265.6l0.8,3.6h23l0.8-3.6H87.4z M96.5,268h-6c-0.4,0-0.7-0.3-0.7-0.7c0-0.4,0.3-0.7,0.7-0.7h6
		c0.4,0,0.7,0.3,0.7,0.7C97.2,267.7,96.8,268,96.5,268z" style="stroke-dasharray: 72, 74; stroke-dashoffset: 0;"></path>
</g>
</svg>