<!--?xml version="1.0" encoding="utf-8"?-->
<!-- Generator: Adobe Illustrator 21.1.0, SVG Export Plug-In . SVG Version: 6.00 Build 0)  -->
<svg version="1.1" id="Layer_1" xmlns="http://www.w3.org/2000/svg" xmlns:xlink="http://www.w3.org/1999/xlink" x="0px" y="0px" viewBox="0 0 360 332" style="" xml:space="preserve" class="app-development-svg">
<style type="text/css">
	.st0{fill:none;stroke:#FFFFFF;stroke-width:2;stroke-miterlimit:10;}
	.st1{fill:none;stroke:#69B7D3;stroke-width:2;stroke-miterlimit:10;}
</style>
<g>
	<path class="st0 oyBMncNa_0" d="M142.4,293.2v-32.6c0-10.6-7.4-17.4-18-17.4H92.6c-10.6,0-19.9,6.9-19.9,17.4v32.7"></path>
	<path class="st0 oyBMncNa_1" d="M98.6,243.1L108.2,266.9L117.1,243.1"></path>
	<path class="st0 oyBMncNa_2" d="M107,273.6L107,281.3"></path>
	<path class="st0 oyBMncNa_3" d="M107,286.7L107,293.2"></path>
	<path class="st0 oyBMncNa_4" d="M123.3,211.8c0-7-5.7-12.7-12.7-12.7h-7.2c-7,0-12.7,5.7-12.7,12.7v9.4c0,7,5.7,12.7,12.7,12.7h7.2
		c7,0,12.7-5.7,12.7-12.7V211.8z"></path>
	<path class="st0 oyBMncNa_5" d="M126.6,293.2L126.6,270.4"></path>
</g>
<g>
	<path class="st0 oyBMncNa_6" d="M218.4,293.2v-32.6c0-10.6-7.4-17.4-18-17.4h-31.9c-10.6,0-19.9,6.9-19.9,17.4v32.7"></path>
	<path class="st0 oyBMncNa_7" d="M174.7,243.1L184.2,266.9L193.2,243.1"></path>
	<path class="st0 oyBMncNa_8" d="M183,273.6L183,281.3"></path>
	<path class="st0 oyBMncNa_9" d="M183,286.7L183,293.2"></path>
	<path class="st0 oyBMncNa_10" d="M199.4,211.8c0-7-5.7-12.7-12.7-12.7h-7.3c-7,0-12.7,5.7-12.7,12.7v9.4c0,7,5.7,12.7,12.7,12.7h7.2
		c7,0,12.7-5.7,12.7-12.7v-9.4H199.4z"></path>
	<path class="st0 oyBMncNa_11" d="M202.6,293.2L202.6,270.4"></path>
</g>
<g>
	<path class="st0 oyBMncNa_12" d="M294,293.2v-32.6c0-10.6-7.4-17.4-18-17.4h-31.9c-10.6,0-19.9,6.9-19.9,17.4v32.7"></path>
	<path class="st0 oyBMncNa_13" d="M250.2,243.1L259.7,266.9L268.7,243.1"></path>
	<path class="st0 oyBMncNa_14" d="M258.6,273.6L258.6,281.3"></path>
	<path class="st0 oyBMncNa_15" d="M258.6,286.7L258.6,293.2"></path>
	<path class="st0 oyBMncNa_16" d="M274.9,211.8c0-7-5.7-12.7-12.7-12.7H255c-7,0-12.7,5.7-12.7,12.7v9.4c0,7,5.7,12.7,12.7,12.7h7.2
		c7,0,12.7-5.7,12.7-12.7V211.8z"></path>
	<path class="st0 oyBMncNa_17" d="M278.2,293.2L278.2,270.4"></path>
</g>
<g>
	<path class="st1 oyBMncNa_18" d="M82.1,208.6L74.5,208.6"></path>
	<path class="st0 oyBMncNa_19" d="M70.1,208.6L21.1,208.6"></path>
	<path class="st1 oyBMncNa_20" d="M82.1,199.9L74.5,199.9"></path>
	<path class="st0 oyBMncNa_21" d="M70.1,199.9L21.1,199.9"></path>
	<path class="st1 oyBMncNa_22" d="M82.1,191.2L74.5,191.2"></path>
	<path class="st0 oyBMncNa_23" d="M70.1,191.2L21.1,191.2"></path>
	<path class="st1 oyBMncNa_24" d="M82.1,182.5L74.5,182.5"></path>
	<path class="st0 oyBMncNa_25" d="M70.1,182.5L41.8,182.5"></path>
</g>
<g>
	<path class="st0 oyBMncNa_26" d="M291.4,97.2L77.9,97.2L77.9,172.3L127,172.3L127,188.4L142.6,172.3L180.3,172.3L180.3,188.4L
		196.9,172.3L218.9,172.3L228.2,172.3L228.2,188.4L244.4,172.3L291.4,172.3Z"></path>
	<path class="st1 oyBMncNa_27" d="M172.3,134A11.6,11.6 0,1,1 195.5,134A11.6,11.6 0,1,1 172.3,134"></path>
	<path class="st1 oyBMncNa_28" d="M121.4,153.1A2.5,2.5 0,1,1 126.4,153.1A2.5,2.5 0,1,1 121.4,153.1"></path>
	<path class="st1 oyBMncNa_29" d="M232,133.5A11.6,11.6 0,1,1 255.2,133.5A11.6,11.6 0,1,1 232,133.5"></path>
	<path class="st1 oyBMncNa_30" d="M134.9,160.6h-22c-3.3,0-5.9-2.7-5.9-5.9v-40.5c0-3.3,2.7-5.9,5.9-5.9h22c3.3,0,5.9,2.7,5.9,5.9v40.5
		C140.8,157.9,138.2,160.6,134.9,160.6z"></path>
	<path class="st1 oyBMncNa_31" d="M114,118.5L123.9,118.5"></path>
	<path class="st1 oyBMncNa_32" d="M114,123.6L128.2,123.6"></path>
	<path class="st1 oyBMncNa_33" d="M114,128.7L132.5,128.7"></path>
</g>
<g>
	<path class="st0 oyBMncNa_34" d="M198.9,194.5A7.6,7.6 0,1,1 214.1,194.5A7.6,7.6 0,1,1 198.9,194.5"></path>
	<path class="st1 oyBMncNa_35" d="M217.3,187.2L217.3,201.3"></path>
	<path class="st1 oyBMncNa_36" d="M210.2,194.3L224.4,194.3"></path>
</g>
<g>
	<path class="st1 oyBMncNa_37" d="M36,42.7L36,88.4L67.6,88.4L87.1,102.8L85.4,88.4L100.3,88.4L100.3,42.7Z"></path>
	<path class="st1 oyBMncNa_38" width="52.3" height="33.8" d="M42 47.6 L94.3 47.6 L94.3 81.4 L42 81.4 Z"></path>
	<path class="st0 oyBMncNa_39" d="M49.6,53.6L54,53.6"></path>
	<path class="st0 oyBMncNa_40" d="M57.3,53.6L61.6,53.6"></path>
	<path class="st0 oyBMncNa_41" d="M49.6,61.2L84.5,61.2"></path>
	<path class="st0 oyBMncNa_42" d="M49.6,69.9L84.5,69.9"></path>
</g>
<g>
	<path class="st1 oyBMncNa_43" d="M263.6,133.7L263.6,179.4L296.3,179.4L296.3,194.1L314.9,179.4L329,179.4L329,133.7Z"></path>
	<path class="st1 oyBMncNa_44" width="53.4" height="32.7" d="M269.6 139.7 L323 139.7 L323 172.39999999999998 L269.6 172.39999999999998 Z"></path>
	<path class="st0 oyBMncNa_45" d="M279.4,146.8L283.8,146.8"></path>
	<path class="st0 oyBMncNa_46" d="M287.1,146.8L291.4,146.8"></path>
	<path class="st0 oyBMncNa_47" d="M279.4,154.4L314.3,154.4"></path>
	<path class="st0 oyBMncNa_48" d="M279.4,163.1L314.3,163.1"></path>
</g>
<g>
	<path class="st1 oyBMncNa_49" d="M177.1,51.4A7.6,7.6 0,1,1 192.29999999999998,51.4A7.6,7.6 0,1,1 177.1,51.4"></path>
	<path class="st0 oyBMncNa_50" d="M145.7,75.1A6.8,6.8 0,1,1 159.3,75.1A6.8,6.8 0,1,1 145.7,75.1"></path>
	<path class="st0 oyBMncNa_51" d="M171.1,75.1A6.8,6.8 0,1,1 184.70000000000002,75.1A6.8,6.8 0,1,1 171.1,75.1"></path>
	<path class="st0 oyBMncNa_52" d="M196.6,75.1A6.8,6.8 0,1,1 210.20000000000002,75.1A6.8,6.8 0,1,1 196.6,75.1"></path>
	<path class="st0 oyBMncNa_53" d="M171.4,44L171.4,58.1"></path>
	<path class="st0 oyBMncNa_54" d="M164.4,51.2L178.5,51.2"></path>
	<path class="st0 oyBMncNa_55" d="M199.9,52.7L209.7,52.7"></path>
	<path class="st0 oyBMncNa_56" d="M214.1,52.7L225,52.7"></path>
</g>
<g>
	<path class="st1 oyBMncNa_57" d="M270.9,54.8L279.6,54.8"></path>
	<path class="st0 oyBMncNa_58" d="M284,54.8L331.9,54.8"></path>
	<path class="st1 oyBMncNa_59" d="M270.9,63.5L279.6,63.5"></path>
	<path class="st0 oyBMncNa_60" d="M284,63.5L331.9,63.5"></path>
	<path class="st1 oyBMncNa_61" d="M270.9,72.2L279.6,72.2"></path>
	<path class="st0 oyBMncNa_62" d="M284,72.2L331.9,72.2"></path>
	<path class="st1 oyBMncNa_63" d="M270.9,80.9L279.6,80.9"></path>
	<path class="st0 oyBMncNa_64" d="M284,80.9L312.3,80.9"></path>
</g>
<g>
	<path class="st0 oyBMncNa_65" d="M332.1,99.1L332.1,113.2"></path>
	<path class="st0 oyBMncNa_66" d="M325,106.3L339.1,106.3"></path>
</g>
<style>.oyBMncNa_0{stroke-dasharray:155 157;stroke-dashoffset:156;animation:oyBMncNa_draw_0 10400ms linear 0ms infinite,oyBMncNa_fade 10400ms linear 0ms infinite;}.oyBMncNa_1{stroke-dasharray:52 54;stroke-dashoffset:53;animation:oyBMncNa_draw_1 10400ms linear 0ms infinite,oyBMncNa_fade 10400ms linear 0ms infinite;}.oyBMncNa_2{stroke-dasharray:8 10;stroke-dashoffset:9;animation:oyBMncNa_draw_2 10400ms linear 0ms infinite,oyBMncNa_fade 10400ms linear 0ms infinite;}.oyBMncNa_3{stroke-dasharray:7 9;stroke-dashoffset:8;animation:oyBMncNa_draw_3 10400ms linear 0ms infinite,oyBMncNa_fade 10400ms linear 0ms infinite;}.oyBMncNa_4{stroke-dasharray:113 115;stroke-dashoffset:114;animation:oyBMncNa_draw_4 10400ms linear 0ms infinite,oyBMncNa_fade 10400ms linear 0ms infinite;}.oyBMncNa_5{stroke-dasharray:23 25;stroke-dashoffset:24;animation:oyBMncNa_draw_5 10400ms linear 0ms infinite,oyBMncNa_fade 10400ms linear 0ms infinite;}.oyBMncNa_6{stroke-dasharray:155 157;stroke-dashoffset:156;animation:oyBMncNa_draw_6 10400ms linear 0ms infinite,oyBMncNa_fade 10400ms linear 0ms infinite;}.oyBMncNa_7{stroke-dasharray:52 54;stroke-dashoffset:53;animation:oyBMncNa_draw_7 10400ms linear 0ms infinite,oyBMncNa_fade 10400ms linear 0ms infinite;}.oyBMncNa_8{stroke-dasharray:8 10;stroke-dashoffset:9;animation:oyBMncNa_draw_8 10400ms linear 0ms infinite,oyBMncNa_fade 10400ms linear 0ms infinite;}.oyBMncNa_9{stroke-dasharray:7 9;stroke-dashoffset:8;animation:oyBMncNa_draw_9 10400ms linear 0ms infinite,oyBMncNa_fade 10400ms linear 0ms infinite;}.oyBMncNa_10{stroke-dasharray:114 116;stroke-dashoffset:115;animation:oyBMncNa_draw_10 10400ms linear 0ms infinite,oyBMncNa_fade 10400ms linear 0ms infinite;}.oyBMncNa_11{stroke-dasharray:23 25;stroke-dashoffset:24;animation:oyBMncNa_draw_11 10400ms linear 0ms infinite,oyBMncNa_fade 10400ms linear 0ms infinite;}.oyBMncNa_12{stroke-dasharray:155 157;stroke-dashoffset:156;animation:oyBMncNa_draw_12 10400ms linear 0ms infinite,oyBMncNa_fade 10400ms linear 0ms infinite;}.oyBMncNa_13{stroke-dasharray:52 54;stroke-dashoffset:53;animation:oyBMncNa_draw_13 10400ms linear 0ms infinite,oyBMncNa_fade 10400ms linear 0ms infinite;}.oyBMncNa_14{stroke-dasharray:8 10;stroke-dashoffset:9;animation:oyBMncNa_draw_14 10400ms linear 0ms infinite,oyBMncNa_fade 10400ms linear 0ms infinite;}.oyBMncNa_15{stroke-dasharray:7 9;stroke-dashoffset:8;animation:oyBMncNa_draw_15 10400ms linear 0ms infinite,oyBMncNa_fade 10400ms linear 0ms infinite;}.oyBMncNa_16{stroke-dasharray:113 115;stroke-dashoffset:114;animation:oyBMncNa_draw_16 10400ms linear 0ms infinite,oyBMncNa_fade 10400ms linear 0ms infinite;}.oyBMncNa_17{stroke-dasharray:23 25;stroke-dashoffset:24;animation:oyBMncNa_draw_17 10400ms linear 0ms infinite,oyBMncNa_fade 10400ms linear 0ms infinite;}.oyBMncNa_18{stroke-dasharray:8 10;stroke-dashoffset:9;animation:oyBMncNa_draw_18 10400ms linear 0ms infinite,oyBMncNa_fade 10400ms linear 0ms infinite;}.oyBMncNa_19{stroke-dasharray:49 51;stroke-dashoffset:50;animation:oyBMncNa_draw_19 10400ms linear 0ms infinite,oyBMncNa_fade 10400ms linear 0ms infinite;}.oyBMncNa_20{stroke-dasharray:8 10;stroke-dashoffset:9;animation:oyBMncNa_draw_20 10400ms linear 0ms infinite,oyBMncNa_fade 10400ms linear 0ms infinite;}.oyBMncNa_21{stroke-dasharray:49 51;stroke-dashoffset:50;animation:oyBMncNa_draw_21 10400ms linear 0ms infinite,oyBMncNa_fade 10400ms linear 0ms infinite;}.oyBMncNa_22{stroke-dasharray:8 10;stroke-dashoffset:9;animation:oyBMncNa_draw_22 10400ms linear 0ms infinite,oyBMncNa_fade 10400ms linear 0ms infinite;}.oyBMncNa_23{stroke-dasharray:49 51;stroke-dashoffset:50;animation:oyBMncNa_draw_23 10400ms linear 0ms infinite,oyBMncNa_fade 10400ms linear 0ms infinite;}.oyBMncNa_24{stroke-dasharray:8 10;stroke-dashoffset:9;animation:oyBMncNa_draw_24 10400ms linear 0ms infinite,oyBMncNa_fade 10400ms linear 0ms infinite;}.oyBMncNa_25{stroke-dasharray:29 31;stroke-dashoffset:30;animation:oyBMncNa_draw_25 10400ms linear 0ms infinite,oyBMncNa_fade 10400ms linear 0ms infinite;}.oyBMncNa_26{stroke-dasharray:646 648;stroke-dashoffset:647;animation:oyBMncNa_draw_26 10400ms linear 0ms infinite,oyBMncNa_fade 10400ms linear 0ms infinite;}.oyBMncNa_27{stroke-dasharray:73 75;stroke-dashoffset:74;animation:oyBMncNa_draw_27 10400ms linear 0ms infinite,oyBMncNa_fade 10400ms linear 0ms infinite;}.oyBMncNa_28{stroke-dasharray:16 18;stroke-dashoffset:17;animation:oyBMncNa_draw_28 10400ms linear 0ms infinite,oyBMncNa_fade 10400ms linear 0ms infinite;}.oyBMncNa_29{stroke-dasharray:73 75;stroke-dashoffset:74;animation:oyBMncNa_draw_29 10400ms linear 0ms infinite,oyBMncNa_fade 10400ms linear 0ms infinite;}.oyBMncNa_30{stroke-dasharray:163 165;stroke-dashoffset:164;animation:oyBMncNa_draw_30 10400ms linear 0ms infinite,oyBMncNa_fade 10400ms linear 0ms infinite;}.oyBMncNa_31{stroke-dasharray:10 12;stroke-dashoffset:11;animation:oyBMncNa_draw_31 10400ms linear 0ms infinite,oyBMncNa_fade 10400ms linear 0ms infinite;}.oyBMncNa_32{stroke-dasharray:15 17;stroke-dashoffset:16;animation:oyBMncNa_draw_32 10400ms linear 0ms infinite,oyBMncNa_fade 10400ms linear 0ms infinite;}.oyBMncNa_33{stroke-dasharray:19 21;stroke-dashoffset:20;animation:oyBMncNa_draw_33 10400ms linear 0ms infinite,oyBMncNa_fade 10400ms linear 0ms infinite;}.oyBMncNa_34{stroke-dasharray:48 50;stroke-dashoffset:49;animation:oyBMncNa_draw_34 10400ms linear 0ms infinite,oyBMncNa_fade 10400ms linear 0ms infinite;}.oyBMncNa_35{stroke-dasharray:15 17;stroke-dashoffset:16;animation:oyBMncNa_draw_35 10400ms linear 0ms infinite,oyBMncNa_fade 10400ms linear 0ms infinite;}.oyBMncNa_36{stroke-dasharray:15 17;stroke-dashoffset:16;animation:oyBMncNa_draw_36 10400ms linear 0ms infinite,oyBMncNa_fade 10400ms linear 0ms infinite;}.oyBMncNa_37{stroke-dasharray:241 243;stroke-dashoffset:242;animation:oyBMncNa_draw_37 10400ms linear 0ms infinite,oyBMncNa_fade 10400ms linear 0ms infinite;}.oyBMncNa_38{stroke-dasharray:173 175;stroke-dashoffset:174;animation:oyBMncNa_draw_38 10400ms linear 0ms infinite,oyBMncNa_fade 10400ms linear 0ms infinite;}.oyBMncNa_39{stroke-dasharray:5 7;stroke-dashoffset:6;animation:oyBMncNa_draw_39 10400ms linear 0ms infinite,oyBMncNa_fade 10400ms linear 0ms infinite;}.oyBMncNa_40{stroke-dasharray:5 7;stroke-dashoffset:6;animation:oyBMncNa_draw_40 10400ms linear 0ms infinite,oyBMncNa_fade 10400ms linear 0ms infinite;}.oyBMncNa_41{stroke-dasharray:35 37;stroke-dashoffset:36;animation:oyBMncNa_draw_41 10400ms linear 0ms infinite,oyBMncNa_fade 10400ms linear 0ms infinite;}.oyBMncNa_42{stroke-dasharray:35 37;stroke-dashoffset:36;animation:oyBMncNa_draw_42 10400ms linear 0ms infinite,oyBMncNa_fade 10400ms linear 0ms infinite;}.oyBMncNa_43{stroke-dasharray:243 245;stroke-dashoffset:244;animation:oyBMncNa_draw_43 10400ms linear 0ms infinite,oyBMncNa_fade 10400ms linear 0ms infinite;}.oyBMncNa_44{stroke-dasharray:173 175;stroke-dashoffset:174;animation:oyBMncNa_draw_44 10400ms linear 0ms infinite,oyBMncNa_fade 10400ms linear 0ms infinite;}.oyBMncNa_45{stroke-dasharray:5 7;stroke-dashoffset:6;animation:oyBMncNa_draw_45 10400ms linear 0ms infinite,oyBMncNa_fade 10400ms linear 0ms infinite;}.oyBMncNa_46{stroke-dasharray:5 7;stroke-dashoffset:6;animation:oyBMncNa_draw_46 10400ms linear 0ms infinite,oyBMncNa_fade 10400ms linear 0ms infinite;}.oyBMncNa_47{stroke-dasharray:35 37;stroke-dashoffset:36;animation:oyBMncNa_draw_47 10400ms linear 0ms infinite,oyBMncNa_fade 10400ms linear 0ms infinite;}.oyBMncNa_48{stroke-dasharray:35 37;stroke-dashoffset:36;animation:oyBMncNa_draw_48 10400ms linear 0ms infinite,oyBMncNa_fade 10400ms linear 0ms infinite;}.oyBMncNa_49{stroke-dasharray:48 50;stroke-dashoffset:49;animation:oyBMncNa_draw_49 10400ms linear 0ms infinite,oyBMncNa_fade 10400ms linear 0ms infinite;}.oyBMncNa_50{stroke-dasharray:43 45;stroke-dashoffset:44;animation:oyBMncNa_draw_50 10400ms linear 0ms infinite,oyBMncNa_fade 10400ms linear 0ms infinite;}.oyBMncNa_51{stroke-dasharray:43 45;stroke-dashoffset:44;animation:oyBMncNa_draw_51 10400ms linear 0ms infinite,oyBMncNa_fade 10400ms linear 0ms infinite;}.oyBMncNa_52{stroke-dasharray:43 45;stroke-dashoffset:44;animation:oyBMncNa_draw_52 10400ms linear 0ms infinite,oyBMncNa_fade 10400ms linear 0ms infinite;}.oyBMncNa_53{stroke-dasharray:15 17;stroke-dashoffset:16;animation:oyBMncNa_draw_53 10400ms linear 0ms infinite,oyBMncNa_fade 10400ms linear 0ms infinite;}.oyBMncNa_54{stroke-dasharray:15 17;stroke-dashoffset:16;animation:oyBMncNa_draw_54 10400ms linear 0ms infinite,oyBMncNa_fade 10400ms linear 0ms infinite;}.oyBMncNa_55{stroke-dasharray:10 12;stroke-dashoffset:11;animation:oyBMncNa_draw_55 10400ms linear 0ms infinite,oyBMncNa_fade 10400ms linear 0ms infinite;}.oyBMncNa_56{stroke-dasharray:11 13;stroke-dashoffset:12;animation:oyBMncNa_draw_56 10400ms linear 0ms infinite,oyBMncNa_fade 10400ms linear 0ms infinite;}.oyBMncNa_57{stroke-dasharray:9 11;stroke-dashoffset:10;animation:oyBMncNa_draw_57 10400ms linear 0ms infinite,oyBMncNa_fade 10400ms linear 0ms infinite;}.oyBMncNa_58{stroke-dasharray:48 50;stroke-dashoffset:49;animation:oyBMncNa_draw_58 10400ms linear 0ms infinite,oyBMncNa_fade 10400ms linear 0ms infinite;}.oyBMncNa_59{stroke-dasharray:9 11;stroke-dashoffset:10;animation:oyBMncNa_draw_59 10400ms linear 0ms infinite,oyBMncNa_fade 10400ms linear 0ms infinite;}.oyBMncNa_60{stroke-dasharray:48 50;stroke-dashoffset:49;animation:oyBMncNa_draw_60 10400ms linear 0ms infinite,oyBMncNa_fade 10400ms linear 0ms infinite;}.oyBMncNa_61{stroke-dasharray:9 11;stroke-dashoffset:10;animation:oyBMncNa_draw_61 10400ms linear 0ms infinite,oyBMncNa_fade 10400ms linear 0ms infinite;}.oyBMncNa_62{stroke-dasharray:48 50;stroke-dashoffset:49;animation:oyBMncNa_draw_62 10400ms linear 0ms infinite,oyBMncNa_fade 10400ms linear 0ms infinite;}.oyBMncNa_63{stroke-dasharray:9 11;stroke-dashoffset:10;animation:oyBMncNa_draw_63 10400ms linear 0ms infinite,oyBMncNa_fade 10400ms linear 0ms infinite;}.oyBMncNa_64{stroke-dasharray:29 31;stroke-dashoffset:30;animation:oyBMncNa_draw_64 10400ms linear 0ms infinite,oyBMncNa_fade 10400ms linear 0ms infinite;}.oyBMncNa_65{stroke-dasharray:15 17;stroke-dashoffset:16;animation:oyBMncNa_draw_65 10400ms linear 0ms infinite,oyBMncNa_fade 10400ms linear 0ms infinite;}.oyBMncNa_66{stroke-dasharray:15 17;stroke-dashoffset:16;animation:oyBMncNa_draw_66 10400ms linear 0ms infinite,oyBMncNa_fade 10400ms linear 0ms infinite;}@keyframes oyBMncNa_draw{100%{stroke-dashoffset:0;}}@keyframes oyBMncNa_fade{0%{stroke-opacity:1;}98.07692307692308%{stroke-opacity:1;}100%{stroke-opacity:0;}}@keyframes oyBMncNa_draw_0{0%{stroke-dashoffset: 156}3.8461538461538463%{ stroke-dashoffset: 0;}100%{ stroke-dashoffset: 0;}}@keyframes oyBMncNa_draw_1{3.8461538461538463%{stroke-dashoffset: 53}5.152859960552268%{ stroke-dashoffset: 0;}100%{ stroke-dashoffset: 0;}}@keyframes oyBMncNa_draw_2{5.152859960552268%{stroke-dashoffset: 9}5.374753451676529%{ stroke-dashoffset: 0;}100%{ stroke-dashoffset: 0;}}@keyframes oyBMncNa_draw_3{5.374753451676529%{stroke-dashoffset: 8}5.57199211045365%{ stroke-dashoffset: 0;}100%{ stroke-dashoffset: 0;}}@keyframes oyBMncNa_draw_4{5.571992110453648%{stroke-dashoffset: 114}8.382642998027613%{ stroke-dashoffset: 0;}100%{ stroke-dashoffset: 0;}}@keyframes oyBMncNa_draw_5{8.382642998027613%{stroke-dashoffset: 24}8.974358974358973%{ stroke-dashoffset: 0;}100%{ stroke-dashoffset: 0;}}@keyframes oyBMncNa_draw_6{8.974358974358974%{stroke-dashoffset: 156}12.820512820512823%{ stroke-dashoffset: 0;}100%{ stroke-dashoffset: 0;}}@keyframes oyBMncNa_draw_7{12.82051282051282%{stroke-dashoffset: 53}14.12721893491124%{ stroke-dashoffset: 0;}100%{ stroke-dashoffset: 0;}}@keyframes oyBMncNa_draw_8{14.127218934911243%{stroke-dashoffset: 9}14.349112426035504%{ stroke-dashoffset: 0;}100%{ stroke-dashoffset: 0;}}@keyframes oyBMncNa_draw_9{14.349112426035502%{stroke-dashoffset: 8}14.546351084812622%{ stroke-dashoffset: 0;}100%{ stroke-dashoffset: 0;}}@keyframes oyBMncNa_draw_10{14.546351084812622%{stroke-dashoffset: 115}17.381656804733726%{ stroke-dashoffset: 0;}100%{ stroke-dashoffset: 0;}}@keyframes oyBMncNa_draw_11{17.381656804733726%{stroke-dashoffset: 24}17.973372781065088%{ stroke-dashoffset: 0;}100%{ stroke-dashoffset: 0;}}@keyframes oyBMncNa_draw_12{17.973372781065088%{stroke-dashoffset: 156}21.819526627218934%{ stroke-dashoffset: 0;}100%{ stroke-dashoffset: 0;}}@keyframes oyBMncNa_draw_13{21.819526627218934%{stroke-dashoffset: 53}23.126232741617354%{ stroke-dashoffset: 0;}100%{ stroke-dashoffset: 0;}}@keyframes oyBMncNa_draw_14{23.126232741617354%{stroke-dashoffset: 9}23.348126232741613%{ stroke-dashoffset: 0;}100%{ stroke-dashoffset: 0;}}@keyframes oyBMncNa_draw_15{23.348126232741613%{stroke-dashoffset: 8}23.545364891518734%{ stroke-dashoffset: 0;}100%{ stroke-dashoffset: 0;}}@keyframes oyBMncNa_draw_16{23.545364891518737%{stroke-dashoffset: 114}26.3560157790927%{ stroke-dashoffset: 0;}100%{ stroke-dashoffset: 0;}}@keyframes oyBMncNa_draw_17{26.3560157790927%{stroke-dashoffset: 24}26.947731755424066%{ stroke-dashoffset: 0;}100%{ stroke-dashoffset: 0;}}@keyframes oyBMncNa_draw_18{26.947731755424066%{stroke-dashoffset: 9}27.169625246548325%{ stroke-dashoffset: 0;}100%{ stroke-dashoffset: 0;}}@keyframes oyBMncNa_draw_19{27.169625246548325%{stroke-dashoffset: 50}28.402366863905332%{ stroke-dashoffset: 0;}100%{ stroke-dashoffset: 0;}}@keyframes oyBMncNa_draw_20{28.402366863905332%{stroke-dashoffset: 9}28.62426035502959%{ stroke-dashoffset: 0;}100%{ stroke-dashoffset: 0;}}@keyframes oyBMncNa_draw_21{28.62426035502959%{stroke-dashoffset: 50}29.857001972386595%{ stroke-dashoffset: 0;}100%{ stroke-dashoffset: 0;}}@keyframes oyBMncNa_draw_22{29.857001972386595%{stroke-dashoffset: 9}30.07889546351085%{ stroke-dashoffset: 0;}100%{ stroke-dashoffset: 0;}}@keyframes oyBMncNa_draw_23{30.07889546351085%{stroke-dashoffset: 50}31.311637080867854%{ stroke-dashoffset: 0;}100%{ stroke-dashoffset: 0;}}@keyframes oyBMncNa_draw_24{31.31163708086785%{stroke-dashoffset: 9}31.53353057199211%{ stroke-dashoffset: 0;}100%{ stroke-dashoffset: 0;}}@keyframes oyBMncNa_draw_25{31.53353057199211%{stroke-dashoffset: 30}32.273175542406314%{ stroke-dashoffset: 0;}100%{ stroke-dashoffset: 0;}}@keyframes oyBMncNa_draw_26{32.273175542406314%{stroke-dashoffset: 647}48.22485207100591%{ stroke-dashoffset: 0;}100%{ stroke-dashoffset: 0;}}@keyframes oyBMncNa_draw_27{48.22485207100591%{stroke-dashoffset: 74}50.04930966469428%{ stroke-dashoffset: 0;}100%{ stroke-dashoffset: 0;}}@keyframes oyBMncNa_draw_28{50.04930966469428%{stroke-dashoffset: 17}50.46844181459566%{ stroke-dashoffset: 0;}100%{ stroke-dashoffset: 0;}}@keyframes oyBMncNa_draw_29{50.468441814595664%{stroke-dashoffset: 74}52.29289940828403%{ stroke-dashoffset: 0;}100%{ stroke-dashoffset: 0;}}@keyframes oyBMncNa_draw_30{52.29289940828403%{stroke-dashoffset: 164}56.336291913215%{ stroke-dashoffset: 0;}100%{ stroke-dashoffset: 0;}}@keyframes oyBMncNa_draw_31{56.336291913215%{stroke-dashoffset: 11}56.60749506903353%{ stroke-dashoffset: 0;}100%{ stroke-dashoffset: 0;}}@keyframes oyBMncNa_draw_32{56.60749506903353%{stroke-dashoffset: 16}57.001972386587774%{ stroke-dashoffset: 0;}100%{ stroke-dashoffset: 0;}}@keyframes oyBMncNa_draw_33{57.001972386587774%{stroke-dashoffset: 20}57.49506903353059%{ stroke-dashoffset: 0;}100%{ stroke-dashoffset: 0;}}@keyframes oyBMncNa_draw_34{57.49506903353058%{stroke-dashoffset: 49}58.70315581854043%{ stroke-dashoffset: 0;}100%{ stroke-dashoffset: 0;}}@keyframes oyBMncNa_draw_35{58.70315581854043%{stroke-dashoffset: 16}59.09763313609467%{ stroke-dashoffset: 0;}100%{ stroke-dashoffset: 0;}}@keyframes oyBMncNa_draw_36{59.09763313609467%{stroke-dashoffset: 16}59.492110453648905%{ stroke-dashoffset: 0;}100%{ stroke-dashoffset: 0;}}@keyframes oyBMncNa_draw_37{59.49211045364892%{stroke-dashoffset: 242}65.4585798816568%{ stroke-dashoffset: 0;}100%{ stroke-dashoffset: 0;}}@keyframes oyBMncNa_draw_38{65.4585798816568%{stroke-dashoffset: 174}69.74852071005917%{ stroke-dashoffset: 0;}100%{ stroke-dashoffset: 0;}}@keyframes oyBMncNa_draw_39{69.74852071005918%{stroke-dashoffset: 6}69.89644970414201%{ stroke-dashoffset: 0;}100%{ stroke-dashoffset: 0;}}@keyframes oyBMncNa_draw_40{69.896449704142%{stroke-dashoffset: 6}70.04437869822485%{ stroke-dashoffset: 0;}100%{ stroke-dashoffset: 0;}}@keyframes oyBMncNa_draw_41{70.04437869822485%{stroke-dashoffset: 36}70.9319526627219%{ stroke-dashoffset: 0;}100%{ stroke-dashoffset: 0;}}@keyframes oyBMncNa_draw_42{70.93195266272188%{stroke-dashoffset: 36}71.81952662721893%{ stroke-dashoffset: 0;}100%{ stroke-dashoffset: 0;}}@keyframes oyBMncNa_draw_43{71.81952662721893%{stroke-dashoffset: 244}77.8353057199211%{ stroke-dashoffset: 0;}100%{ stroke-dashoffset: 0;}}@keyframes oyBMncNa_draw_44{77.8353057199211%{stroke-dashoffset: 174}82.12524654832347%{ stroke-dashoffset: 0;}100%{ stroke-dashoffset: 0;}}@keyframes oyBMncNa_draw_45{82.12524654832347%{stroke-dashoffset: 6}82.2731755424063%{ stroke-dashoffset: 0;}100%{ stroke-dashoffset: 0;}}@keyframes oyBMncNa_draw_46{82.2731755424063%{stroke-dashoffset: 6}82.42110453648914%{ stroke-dashoffset: 0;}100%{ stroke-dashoffset: 0;}}@keyframes oyBMncNa_draw_47{82.42110453648917%{stroke-dashoffset: 36}83.3086785009862%{ stroke-dashoffset: 0;}100%{ stroke-dashoffset: 0;}}@keyframes oyBMncNa_draw_48{83.3086785009862%{stroke-dashoffset: 36}84.19625246548324%{ stroke-dashoffset: 0;}100%{ stroke-dashoffset: 0;}}@keyframes oyBMncNa_draw_49{84.19625246548324%{stroke-dashoffset: 49}85.4043392504931%{ stroke-dashoffset: 0;}100%{ stroke-dashoffset: 0;}}@keyframes oyBMncNa_draw_50{85.4043392504931%{stroke-dashoffset: 44}86.48915187376726%{ stroke-dashoffset: 0;}100%{ stroke-dashoffset: 0;}}@keyframes oyBMncNa_draw_51{86.48915187376726%{stroke-dashoffset: 44}87.57396449704143%{ stroke-dashoffset: 0;}100%{ stroke-dashoffset: 0;}}@keyframes oyBMncNa_draw_52{87.57396449704143%{stroke-dashoffset: 44}88.6587771203156%{ stroke-dashoffset: 0;}100%{ stroke-dashoffset: 0;}}@keyframes oyBMncNa_draw_53{88.65877712031558%{stroke-dashoffset: 16}89.05325443786982%{ stroke-dashoffset: 0;}100%{ stroke-dashoffset: 0;}}@keyframes oyBMncNa_draw_54{89.05325443786982%{stroke-dashoffset: 16}89.44773175542406%{ stroke-dashoffset: 0;}100%{ stroke-dashoffset: 0;}}@keyframes oyBMncNa_draw_55{89.44773175542407%{stroke-dashoffset: 11}89.71893491124263%{ stroke-dashoffset: 0;}100%{ stroke-dashoffset: 0;}}@keyframes oyBMncNa_draw_56{89.7189349112426%{stroke-dashoffset: 12}90.01479289940828%{ stroke-dashoffset: 0;}100%{ stroke-dashoffset: 0;}}@keyframes oyBMncNa_draw_57{90.01479289940828%{stroke-dashoffset: 10}90.26134122287968%{ stroke-dashoffset: 0;}100%{ stroke-dashoffset: 0;}}@keyframes oyBMncNa_draw_58{90.26134122287968%{stroke-dashoffset: 49}91.46942800788955%{ stroke-dashoffset: 0;}100%{ stroke-dashoffset: 0;}}@keyframes oyBMncNa_draw_59{91.46942800788955%{stroke-dashoffset: 10}91.71597633136093%{ stroke-dashoffset: 0;}100%{ stroke-dashoffset: 0;}}@keyframes oyBMncNa_draw_60{91.71597633136095%{stroke-dashoffset: 49}92.92406311637082%{ stroke-dashoffset: 0;}100%{ stroke-dashoffset: 0;}}@keyframes oyBMncNa_draw_61{92.92406311637082%{stroke-dashoffset: 10}93.1706114398422%{ stroke-dashoffset: 0;}100%{ stroke-dashoffset: 0;}}@keyframes oyBMncNa_draw_62{93.1706114398422%{stroke-dashoffset: 49}94.37869822485206%{ stroke-dashoffset: 0;}100%{ stroke-dashoffset: 0;}}@keyframes oyBMncNa_draw_63{94.37869822485206%{stroke-dashoffset: 10}94.62524654832347%{ stroke-dashoffset: 0;}100%{ stroke-dashoffset: 0;}}@keyframes oyBMncNa_draw_64{94.62524654832347%{stroke-dashoffset: 30}95.36489151873766%{ stroke-dashoffset: 0;}100%{ stroke-dashoffset: 0;}}@keyframes oyBMncNa_draw_65{95.36489151873768%{stroke-dashoffset: 16}95.75936883629191%{ stroke-dashoffset: 0;}100%{ stroke-dashoffset: 0;}}@keyframes oyBMncNa_draw_66{95.75936883629191%{stroke-dashoffset: 16}96.15384615384616%{ stroke-dashoffset: 0;}100%{ stroke-dashoffset: 0;}}</style></svg>
