<!--?xml version="1.0" encoding="utf-8"?-->
<!-- Generator: Adobe Illustrator 21.1.0, SVG Export Plug-In . SVG Version: 6.00 Build 0)  -->
<svg version="1.1" id="Layer_4" xmlns="http://www.w3.org/2000/svg" xmlns:xlink="http://www.w3.org/1999/xlink" x="0px" y="0px" viewBox="0 0 1000 479" style="" xml:space="preserve">
<style type="text/css">
	.st0{fill:none;stroke:#FFFFFF;stroke-width:4;}
	.st1{fill:#66B8D3;}
	.st2{fill:#FFFFFF;}
	.st3{fill:#FFAA00;stroke:#282D33;stroke-width:4;}
	.st4{fill:none;stroke:#66B8D3;stroke-width:4;}
	.st5{fill:none;stroke:#FDFEFF;stroke-width:4;stroke-dasharray:4;}
	.st6{fill:none;stroke:#FFFFFF;stroke-width:4;stroke-dasharray:4;}
</style>
<g>
	<g id="group1">
		<path class="st0 kmDOVqvh_0" d="M110.8,139.7L132.9,139.7L132.9,202.7L110.8,202.7"></path>
		<path class="st0 kmDOVqvh_1" d="M120.3,187.9c0.2,0,0.4,0.2,0.4,0.5c0,0.2-0.2,0.4-0.4,0.4c-0.2,0-0.4-0.2-0.4-0.4
			C119.9,188.1,120.1,187.9,120.3,187.9 M120.3,183.9c-2.5,0-4.4,2-4.4,4.5c0,2.5,2,4.4,4.4,4.4c2.5,0,4.4-2,4.4-4.4
			C124.7,185.9,122.8,183.9,120.3,183.9L120.3,183.9z"></path>
		<path class="st0 kmDOVqvh_2" d="M186.6,113.1h-12.1l-25.8,22.1c-2.4,2.6-4.2,5.7-5.1,9.3h0.5"></path>
		<path class="st0 kmDOVqvh_3" d="M144.2,182.7h3c3.8,5,9.7,8.3,16.4,8.3h35.7l7.9-0.4c4.2,0,7.6-3.4,7.6-7.6c0-4.2-1.5-7.6-5.7-7.6h1.9
			c4.2,0,7.6-3.4,7.6-7.6c0-4.2-3.4-7.6-7.6-7.6h3.8c4.2,0,7.6-3.4,7.6-7.6c0-4.2-3.4-7.6-7.6-7.6h-4.3c3.6,0,7.4-3.6,7.4-8
			c0-4.4-3.6-7.9-7.9-7.9h-32.7"></path>
		<path class="st0 kmDOVqvh_4" d="M238.4,140.8c7.8,7.8,7.8,20.5,0,28.3"></path>
		<path class="st0 kmDOVqvh_5" d="M249.4,129.7c13.9,13.9,13.9,36.5,0,50.4"></path>
		<path class="st0 kmDOVqvh_6" d="M259.9,119.3c19.7,19.7,19.7,51.6,0,71.3"></path>
		<path class="st0 kmDOVqvh_7" d="M235.3,249.3h-6.8c-3,0-5.4-2.4-5.4-5.4v-9"></path>
		<path class="st0 kmDOVqvh_8" d="M234.6,250.1c5.6,0,5.6,6,11.2,6c5.6,0,5.6-6,11.2-6c5.6,0,5.6,6,11.2,6c5.6,0,5.6-6,11.2-6s5.6,6,11.2,6
			c5.6,0,5.6-6,11.2-6c5.6,0,5.6,6,11.2,6"></path>
		<path class="st0 kmDOVqvh_9" d="M319,245.3c-3.5,0-6.3,2.8-6.3,6.3v7.8c0,3.5,2.8,6.3,6.3,6.3"></path>
		<path class="st0 kmDOVqvh_10" d="M324.7,265.2c0,1.2-0.9,2.1-2.1,2.1h-2.4c-1.2,0-2.1-0.9-2.1-2.1V246c0-1.2,0.9-2.1,2.1-2.1h2.4
			c1.2,0,2.1,0.9,2.1,2.1V265.2z"></path>
		<path class="st0 kmDOVqvh_11" d="M337.5,276.5c-10.8,0-19.6-3.2-19.6-14v-18.3c0-3.1,0.7-6,1.9-8.5"></path>
		<path class="st0 kmDOVqvh_12" d="M342.3,274.6c0,1.1-0.9,1.9-1.9,1.9h-4.4c-1.1,0-1.9-0.9-1.9-1.9l0,0c0-1.1,0.9-1.9,1.9-1.9h4.4
			C341.4,272.6,342.3,273.5,342.3,274.6L342.3,274.6z"></path>
		<path class="st0 kmDOVqvh_13" d="M361.8,236.6c-0.9,0-1.7-0.4-2.2-1.2c-3.1-5.2-8.6-8.3-14.6-8.3h-7.5c-6,0-11.5,3.1-14.6,8.3
			c-0.7,1.2-2.3,1.6-3.5,0.9c-1.2-0.7-1.6-2.3-0.9-3.5c4-6.7,11.1-10.7,18.9-10.7h7.5c7.8,0,14.9,4,18.9,10.7
			c0.7,1.2,0.3,2.7-0.9,3.5C362.7,236.5,362.2,236.6,361.8,236.6z"></path>
		<path class="st0 kmDOVqvh_14" d="M362.7,235.8c1.2,2.6,1.9,5.4,1.9,8.4v18.3"></path>
		<path class="st0 kmDOVqvh_15" d="M363.7,265.8c3.5,0,6.3-2.8,6.3-6.3v-7.8c0-3.5-2.8-6.3-6.3-6.3"></path>
		<path class="st0 kmDOVqvh_16" d="M358.1,246c0-1.2,0.9-2.1,2.1-2.1h2.4c1.2,0,2.1,0.9,2.1,2.1v19.2c0,1.2-0.9,2.1-2.1,2.1h-2.4
			c-1.2,0-2.1-0.9-2.1-2.1V246z"></path>
		<g>
			<path class="st1 kmDOVqvh_17" d="M220.7,197c-0.2,0-0.4,0-0.6,0c-3.7,0.7-7.3,1.5-11,2.2c-3.4,0.7-7.1-2.3-7.9-6.8c-0.9-5-1.8-21.8-2.1-32.5
				c0.3-10.7,1.2-27.7,2.1-32.7c0.8-4.5,4.5-7.6,7.9-6.8c3.7,0.7,7.3,1.5,11,2.2c0.2,0,0.3,0,0.5,0c1.2-12.5,3-24.6,5.3-36.1
				c-4.7-1.1-9.7-1.6-14.7-1.7c-2.4,0-4.8,0.2-7.2,0.4c-10.4,8.9-19.3,23.5-23.8,43.3c-2,8.9-3.1,18.8-3.1,29.8
				c-0.3,12,0.9,22.8,3,32.5c4.5,19.9,13.5,34.7,23.9,43.6c2.4,0.2,4.8,0.4,7.2,0.4c5.1,0,10-0.6,14.7-1.6
				C223.6,221.6,221.9,209.5,220.7,197z"></path>
		</g>
		<path class="st1 kmDOVqvh_18" d="M134.9,139.7L142.6,139.7L142.6,195.6L134.9,195.6"></path>
	</g>
	<g id="group2">
		<path class="st1 kmDOVqvh_19" d="M255.6,277.4L208.2,277.4L208.2,371.3L270.9,371.3L270.9,292.7Z"></path>
		<path class="st0 kmDOVqvh_20" d="M201,298.9L218.4,298.9"></path>
		<path class="st0 kmDOVqvh_21" d="M200.7,306.5L242,306.5"></path>
		<path class="st0 kmDOVqvh_22" d="M200.7,314L242,314"></path>
		<path class="st0 kmDOVqvh_23" d="M200.7,321.6L242,321.6"></path>
		<path class="st0 kmDOVqvh_24" d="M200.7,329.2L227.4,329.2"></path>
		<path class="st0 kmDOVqvh_25" d="M287.5,360.3c15.6,0,28.3-12.7,28.3-28.3c0-7-2.5-13.4-6.7-18.3l6.6-12.5l-12,7.6c-4.6-3.2-10.1-5.1-16.2-5.1
			c-15.6,0-28.3,12.7-28.3,28.3C259.2,347.6,271.9,360.3,287.5,360.3z"></path>
		<path class="st0 kmDOVqvh_26" d="M290.2,345L290.2,328.1L278.5,328.1"></path>
		<path class="st0 kmDOVqvh_27" d="M283.4,328.1L283.4,345L295.1,345"></path>
		<path class="st0 kmDOVqvh_28" d="M282.90000000000003,318.4A3.9,3.9 0,1,1 290.7,318.4A3.9,3.9 0,1,1 282.90000000000003,318.4"></path>
		<g>
			<path class="st2 kmDOVqvh_29" d="M254.9,293.3L270.9,293.3L254.9,277.4Z"></path>
		</g>
	</g>
	<g id="group3">
		<path class="st1 kmDOVqvh_30" width="120.8" height="81.8" d="M328.6 310.3 L449.40000000000003 310.3 L449.40000000000003 392.1 L328.6 392.1 Z"></path>
		<path class="st0 kmDOVqvh_31" d="M396.7,351.2L388.9,355.7L381.2,360.2L381.2,351.2L381.2,342.2L388.9,346.7Z"></path>
		<path class="st0 kmDOVqvh_32" d="M328.6,399.8L328.6,408.9"></path>
		<path class="st0 kmDOVqvh_33" d="M336.1,399.8L336.1,408.9"></path>
		<path class="st0 kmDOVqvh_34" d="M345.5,404.3L356.2,404.3"></path>
		<path class="st0 kmDOVqvh_35" d="M357.40000000000003,404.3A5.4,5.4 0,1,1 368.2,404.3A5.4,5.4 0,1,1 357.40000000000003,404.3"></path>
		<path class="st0 kmDOVqvh_36" d="M437.9,404.3L366.7,404.3"></path>
		<path class="st0 kmDOVqvh_37" d="M444.7,404.3L451.8,404.3"></path>
		<path class="st0 kmDOVqvh_38" width="36.6" height="70.7" d="M422.3 284.9 L458.90000000000003 284.9 L458.90000000000003 355.59999999999997 L422.3 355.59999999999997 Z"></path>
		<path class="st0 kmDOVqvh_39" d="M458.6,339.5L422.6,339.5"></path>
		<path class="st0 kmDOVqvh_40" d="M442.4,347.6L438.8,347.6"></path>
		<path class="st0 kmDOVqvh_41" d="M422.6,299.1L458.6,299.1"></path>
	</g>
	<g>
		<path class="st1 kmDOVqvh_42" d="M385.2,202.4L337.5,202.4L337.5,180.9L346,180.9L346,170.9L357.1,180.9L385.2,180.9Z"></path>
		<path class="st3 kmDOVqvh_43" d="M345.6,191.4L378.2,191.4"></path>
	</g>
	<g id="group4">
		<path class="st0 kmDOVqvh_44" d="M491.1,224.3c5.2-6.3,8.3-13.9,8.3-22.3c0-20.9-19.4-37.9-43.3-37.9c-23.9,0-43.3,16.9-43.3,37.9
			c0,20.9,19.4,37.9,43.3,37.9c6.1,0,12-1.1,17.2-3.1l7.4,2l15.3,4.1l-4.1-15.3L491.1,224.3z"></path>
		<path class="st0 kmDOVqvh_45" d="M470.7,184.4L463.2,184.4"></path>
		<path class="st0 kmDOVqvh_46" d="M443.2,184.4L435.7,184.4"></path>
		<path class="st0 kmDOVqvh_47" d="M438.9,194.5c0.4,8.8,6.7,15.8,14.5,15.8c7.8,0,14.1-7,14.5-15.8H438.9z"></path>
		<path class="st1 kmDOVqvh_48" d="M424.2,206.9c-13.7,0-24.7,9.7-24.7,21.6c0,4.4,1.5,8.4,4,11.8l-2.8,10.3l11.7-3.1c3.5,1.7,7.5,2.6,11.8,2.6
			c13.7,0,24.7-9.7,24.7-21.6C448.9,216.6,437.8,206.9,424.2,206.9z"></path>
		<path class="st0 kmDOVqvh_49" d="M416.5,228.6L411.8,228.6"></path>
		<path class="st0 kmDOVqvh_50" d="M426.5,228.6L421.8,228.6"></path>
		<path class="st0 kmDOVqvh_51" d="M436.5,228.6L431.8,228.6"></path>
	</g>
	<g id="group5">
		<path class="st4 kmDOVqvh_52" d="M502.1,334.3c13.5,0,24.4-10.9,24.4-24.4c0-5.7-2-11-5.3-15.2l1.4-5.3l-5.3,1.4c-4.2-3.3-9.4-5.3-15.2-5.3
			c-13.5,0-24.4,10.9-24.4,24.4C477.7,323.3,488.6,334.3,502.1,334.3z"></path>
		<path class="st0 kmDOVqvh_53" d="M510.9,316.1L493.8,316.1"></path>
		<path class="st0 kmDOVqvh_54" d="M504.7,309.7L511.6,316.1L504.7,322.5"></path>
		<path class="st0 kmDOVqvh_55" d="M500.7,310.8L493.8,304.4L500.7,298.1"></path>
		<path class="st0 kmDOVqvh_56" d="M494.6,304.5L511.6,304.5"></path>
	</g>
	<g id="group6">
		<path class="st0 kmDOVqvh_57" d="M572,222.8l-1.4-1.3l-5.7-5.3c-1.2-1.1-3.2-1.1-4.4,0l-5.7,5.3l-1,0.9"></path>
		<path class="st0 kmDOVqvh_58" d="M539.4,236.1L533.3,241.7L533.3,241.7L533.3,241.8L533.3,241.8L533.3,241.8L533.3,279.2L592.2,279.2L
			592.2,241.8L592.2,241.8L592.2,241.7L592.2,241.7L592.2,241.7L586.1,236"></path>
		<path class="st0 kmDOVqvh_59" d="M539.3,243.2L539.3,222.8L585.9,222.8L585.9,243.2"></path>
		<path class="st0 kmDOVqvh_60" d="M592.4,243.1L572.2,261.2L553.3,261.2L533.2,243.1"></path>
		<path class="st0 kmDOVqvh_61" d="M535,278.7l6.6-6.1l4.9-4.7c0.6-0.5,1.3-1.3,2.1-2l4.9-4.6"></path>
		<path class="st0 kmDOVqvh_62" d="M572,261.2l4.9,4.6c0.8,0.7,1.5,1.4,2.1,2l5,4.7l7.1,6.7"></path>
	</g>
	<g id="group7">
		<path class="st0 kmDOVqvh_63" d="M596.8,347.4c-3.9,2.9-8.7,4.6-13.9,4.6c-12.7,0-23-10.3-23-23c0-12.7,10.3-23,23-23c7.2,0,13.6,3.3,17.8,8.4
			"></path>
		<path class="st0 kmDOVqvh_64" d="M589.6,320.6c0,0-4,14.2-1.2,16.7c8.2,7.5,27.1-11.9,8.7-26.6"></path>
		<path class="st0 kmDOVqvh_65" d="M590.2,318.3c0,0-9.4-2.2-14.9,3c-6.6,6.2-5.2,15.8,1,17.6c6.1,1.7,8.4-2.9,9.1-4.9
			C586.1,331.9,590.2,318.3,590.2,318.3z"></path>
	</g>
	<g id="group8">
		<path class="st0 kmDOVqvh_66" d="M610.4,91.9A22.6,22.6 0,1,1 655.6,91.9A22.6,22.6 0,1,1 610.4,91.9"></path>
		<path class="st0 kmDOVqvh_67" d="M627.4,90A5.6,5.6 0,1,1 638.6,90A5.6,5.6 0,1,1 627.4,90"></path>
		<path class="st0 kmDOVqvh_68" d="M637.3,96.3h-8.5c-3.1,0-5.6,2.5-5.6,5.6v0.5c2.6,2.4,6.1,3.9,9.9,3.9c3.8,0,7.3-1.5,9.9-3.9v-0.5
			C642.9,98.8,640.4,96.3,637.3,96.3z"></path>
	</g>
	<g id="group9">
		<path class="st1 kmDOVqvh_69" d="M717.2,107L769.4,107L769.4,146.2L742,146.2L729.5,158.6L729.5,146.2L717.2,146.2Z"></path>
		<path class="st3 kmDOVqvh_70" d="M757.4,122L729.2,122"></path>
		<path class="st3 kmDOVqvh_71" d="M757.4,131.2L729.2,131.2"></path>
	</g>
	<g id="group10">
		<path class="st0 kmDOVqvh_72" d="M559.6,130.1c-9.4,0-16.9,7.6-16.9,16.9c0,9.4,16.9,23.8,16.9,23.8s16.9-14.4,16.9-23.8
			C576.5,137.7,569,130.1,559.6,130.1z"></path>
		<path class="st0 kmDOVqvh_73" d="M552.7,147.1A6.9,6.9 0,1,1 566.5,147.1A6.9,6.9 0,1,1 552.7,147.1"></path>
		<path class="st5 kmDOVqvh_74" d="M783,248.1h12.2c18.5,0,33.5-15,33.5-33.5l0,0c0-18.5-15-33.5-33.5-33.5H559.5"></path>
		<path class="st0 kmDOVqvh_75" d="M607.9,227c10.2-14.4,24.3-15.4,30.8-15.4c16.9,0,27,8.8,31.1,13.5"></path>
		<path class="st0 kmDOVqvh_76" d="M699,304.3h-9.2c-1.9,0-3.5-1.6-3.5-3.5v-63c0-1.9,1.6-3.5,3.5-3.5h4.1"></path>
		<path class="st0 kmDOVqvh_77" d="M706.2,291.2v21.2c0,6.4-5.2,11.6-11.6,11.6H688c-6.4,0-11.6-5.2-11.6-11.6v-49.6c0-6.4,5.2-11.6,11.6-11.6"></path>
		<path class="st0 kmDOVqvh_78" d="M718.3,285c0,3.2-2.6,5.8-5.8,5.8h-11.7c-3.2,0-5.8-2.6-5.8-5.8v-53.6c0-3.2,2.6-5.8,5.8-5.8h11.7
			c3.2,0,5.8,2.6,5.8,5.8V285z"></path>
		<path class="st0 kmDOVqvh_79" d="M768.2,234.3h6.7c1.9,0,3.5,1.6,3.5,3.5v63c0,1.9-1.6,3.5-3.5,3.5h-61.5"></path>
		<path class="st0 kmDOVqvh_80" d="M724.1,227.9L767.9,227.9L767.9,264.1L724.1,264.1"></path>
		<path class="st0 kmDOVqvh_81" width="32.5" height="19.8" d="M727.6 236.1 L760.1 236.1 L760.1 255.9 L727.6 255.9 Z"></path>
		<path class="st0 kmDOVqvh_82" d="M724.3,273L733.1,273"></path>
		<path class="st0 kmDOVqvh_83" d="M736.7,273L745.5,273"></path>
		<path class="st0 kmDOVqvh_84" d="M749.1,273L757.8,273"></path>
		<path class="st0 kmDOVqvh_85" d="M761.5,273L770.2,273"></path>
		<path class="st0 kmDOVqvh_86" d="M724.3,281.9L733.1,281.9"></path>
		<path class="st0 kmDOVqvh_87" d="M736.7,281.9L745.5,281.9"></path>
		<path class="st0 kmDOVqvh_88" d="M749.1,281.9L757.8,281.9"></path>
		<path class="st0 kmDOVqvh_89" d="M761.5,281.9L770.2,281.9"></path>
		<path class="st0 kmDOVqvh_90" d="M724.3,290.8L733.1,290.8"></path>
		<path class="st0 kmDOVqvh_91" d="M736.7,290.8L745.5,290.8"></path>
		<path class="st0 kmDOVqvh_92" d="M749.1,290.8L757.8,290.8"></path>
		<path class="st0 kmDOVqvh_93" d="M761.5,290.8L770.2,290.8"></path>
		<path class="st6 kmDOVqvh_94" d="M673.4,248.2h-10.2c-18.5,0-33.6,15-33.6,33.6l0,0c0,18.6,15.1,33.6,33.6,33.6h7.9"></path>
		<path class="st6 kmDOVqvh_95" d="M710.7,315.4L851.7,315.4"></path>
		<path class="st0 kmDOVqvh_96" d="M889.2,262.9c0,14.1-25.6,52.9-25.6,52.9S838,277,838,262.9c0-14.1,11.4-25.6,25.6-25.6
			C877.7,237.3,889.2,248.7,889.2,262.9z"></path>
		<g>
			<path class="st1 kmDOVqvh_97" d="M856,264.3A7.6,7.6 0,1,1 871.2,264.3A7.6,7.6 0,1,1 856,264.3"></path>
		</g>
	</g>
</g>
<style>.kmDOVqvh_0{stroke-dasharray:108 110;stroke-dashoffset:109;animation:kmDOVqvh_draw 147ms linear 0ms forwards;}.kmDOVqvh_1{stroke-dasharray:31 33;stroke-dashoffset:32;animation:kmDOVqvh_draw 43ms linear 147ms forwards;}.kmDOVqvh_2{stroke-dasharray:58 60;stroke-dashoffset:59;animation:kmDOVqvh_draw 79ms linear 191ms forwards;}.kmDOVqvh_3{stroke-dasharray:204 206;stroke-dashoffset:205;animation:kmDOVqvh_draw 277ms linear 271ms forwards;}.kmDOVqvh_4{stroke-dasharray:32 34;stroke-dashoffset:33;animation:kmDOVqvh_draw 44ms linear 549ms forwards;}.kmDOVqvh_5{stroke-dasharray:56 58;stroke-dashoffset:57;animation:kmDOVqvh_draw 77ms linear 593ms forwards;}.kmDOVqvh_6{stroke-dasharray:80 82;stroke-dashoffset:81;animation:kmDOVqvh_draw 109ms linear 671ms forwards;}.kmDOVqvh_7{stroke-dasharray:25 27;stroke-dashoffset:26;animation:kmDOVqvh_draw 35ms linear 780ms forwards;}.kmDOVqvh_8{stroke-dasharray:93 95;stroke-dashoffset:94;animation:kmDOVqvh_draw 127ms linear 816ms forwards;}.kmDOVqvh_9{stroke-dasharray:28 30;stroke-dashoffset:29;animation:kmDOVqvh_draw 39ms linear 943ms forwards;}.kmDOVqvh_10{stroke-dasharray:57 59;stroke-dashoffset:58;animation:kmDOVqvh_draw 78ms linear 982ms forwards;}.kmDOVqvh_11{stroke-dasharray:55 57;stroke-dashoffset:56;animation:kmDOVqvh_draw 75ms linear 1061ms forwards;}.kmDOVqvh_12{stroke-dasharray:21 23;stroke-dashoffset:22;animation:kmDOVqvh_draw 29ms linear 1137ms forwards;}.kmDOVqvh_13{stroke-dasharray:112 114;stroke-dashoffset:113;animation:kmDOVqvh_draw 153ms linear 1167ms forwards;}.kmDOVqvh_14{stroke-dasharray:27 29;stroke-dashoffset:28;animation:kmDOVqvh_draw 37ms linear 1320ms forwards;}.kmDOVqvh_15{stroke-dasharray:28 30;stroke-dashoffset:29;animation:kmDOVqvh_draw 39ms linear 1358ms forwards;}.kmDOVqvh_16{stroke-dasharray:57 59;stroke-dashoffset:58;animation:kmDOVqvh_draw 78ms linear 1397ms forwards;}.kmDOVqvh_17{stroke-dasharray:393 395;stroke-dashoffset:394;animation:kmDOVqvh_draw 534ms linear 1476ms forwards;}.kmDOVqvh_18{stroke-dasharray:72 74;stroke-dashoffset:73;animation:kmDOVqvh_draw 98ms linear 2010ms forwards;}.kmDOVqvh_19{stroke-dasharray:305 307;stroke-dashoffset:306;animation:kmDOVqvh_draw 414ms linear 2109ms forwards;}.kmDOVqvh_20{stroke-dasharray:18 20;stroke-dashoffset:19;animation:kmDOVqvh_draw 25ms linear 2524ms forwards;}.kmDOVqvh_21{stroke-dasharray:42 44;stroke-dashoffset:43;animation:kmDOVqvh_draw 58ms linear 2549ms forwards;}.kmDOVqvh_22{stroke-dasharray:42 44;stroke-dashoffset:43;animation:kmDOVqvh_draw 58ms linear 2608ms forwards;}.kmDOVqvh_23{stroke-dasharray:42 44;stroke-dashoffset:43;animation:kmDOVqvh_draw 58ms linear 2666ms forwards;}.kmDOVqvh_24{stroke-dasharray:27 29;stroke-dashoffset:28;animation:kmDOVqvh_draw 37ms linear 2724ms forwards;}.kmDOVqvh_25{stroke-dasharray:199 201;stroke-dashoffset:200;animation:kmDOVqvh_draw 271ms linear 2762ms forwards;}.kmDOVqvh_26{stroke-dasharray:29 31;stroke-dashoffset:30;animation:kmDOVqvh_draw 40ms linear 3033ms forwards;}.kmDOVqvh_27{stroke-dasharray:29 31;stroke-dashoffset:30;animation:kmDOVqvh_draw 40ms linear 3074ms forwards;}.kmDOVqvh_28{stroke-dasharray:25 27;stroke-dashoffset:26;animation:kmDOVqvh_draw 35ms linear 3115ms forwards;}.kmDOVqvh_29{stroke-dasharray:55 57;stroke-dashoffset:56;animation:kmDOVqvh_draw 75ms linear 3150ms forwards;}.kmDOVqvh_30{stroke-dasharray:406 408;stroke-dashoffset:407;animation:kmDOVqvh_draw 551ms linear 3226ms forwards;}.kmDOVqvh_31{stroke-dasharray:54 56;stroke-dashoffset:55;animation:kmDOVqvh_draw 74ms linear 3777ms forwards;}.kmDOVqvh_32{stroke-dasharray:10 12;stroke-dashoffset:11;animation:kmDOVqvh_draw 14ms linear 3852ms forwards;}.kmDOVqvh_33{stroke-dasharray:10 12;stroke-dashoffset:11;animation:kmDOVqvh_draw 14ms linear 3867ms forwards;}.kmDOVqvh_34{stroke-dasharray:11 13;stroke-dashoffset:12;animation:kmDOVqvh_draw 16ms linear 3882ms forwards;}.kmDOVqvh_35{stroke-dasharray:34 36;stroke-dashoffset:35;animation:kmDOVqvh_draw 47ms linear 3898ms forwards;}.kmDOVqvh_36{stroke-dasharray:72 74;stroke-dashoffset:73;animation:kmDOVqvh_draw 98ms linear 3946ms forwards;}.kmDOVqvh_37{stroke-dasharray:8 10;stroke-dashoffset:9;animation:kmDOVqvh_draw 12ms linear 4045ms forwards;}.kmDOVqvh_38{stroke-dasharray:215 217;stroke-dashoffset:216;animation:kmDOVqvh_draw 292ms linear 4057ms forwards;}.kmDOVqvh_39{stroke-dasharray:36 38;stroke-dashoffset:37;animation:kmDOVqvh_draw 50ms linear 4350ms forwards;}.kmDOVqvh_40{stroke-dasharray:4 6;stroke-dashoffset:5;animation:kmDOVqvh_draw 6ms linear 4400ms forwards;}.kmDOVqvh_41{stroke-dasharray:36 38;stroke-dashoffset:37;animation:kmDOVqvh_draw 50ms linear 4406ms forwards;}.kmDOVqvh_42{stroke-dasharray:153 155;stroke-dashoffset:154;animation:kmDOVqvh_draw 208ms linear 4457ms forwards;}.kmDOVqvh_43{stroke-dasharray:33 35;stroke-dashoffset:34;animation:kmDOVqvh_draw 46ms linear 4665ms forwards;}.kmDOVqvh_44{stroke-dasharray:277 279;stroke-dashoffset:278;animation:kmDOVqvh_draw 376ms linear 4711ms forwards;}.kmDOVqvh_45{stroke-dasharray:8 10;stroke-dashoffset:9;animation:kmDOVqvh_draw 12ms linear 5088ms forwards;}.kmDOVqvh_46{stroke-dasharray:8 10;stroke-dashoffset:9;animation:kmDOVqvh_draw 12ms linear 5100ms forwards;}.kmDOVqvh_47{stroke-dasharray:77 79;stroke-dashoffset:78;animation:kmDOVqvh_draw 105ms linear 5113ms forwards;}.kmDOVqvh_48{stroke-dasharray:157 159;stroke-dashoffset:158;animation:kmDOVqvh_draw 214ms linear 5218ms forwards;}.kmDOVqvh_49{stroke-dasharray:5 7;stroke-dashoffset:6;animation:kmDOVqvh_draw 8ms linear 5433ms forwards;}.kmDOVqvh_50{stroke-dasharray:5 7;stroke-dashoffset:6;animation:kmDOVqvh_draw 8ms linear 5441ms forwards;}.kmDOVqvh_51{stroke-dasharray:5 7;stroke-dashoffset:6;animation:kmDOVqvh_draw 8ms linear 5449ms forwards;}.kmDOVqvh_52{stroke-dasharray:159 161;stroke-dashoffset:160;animation:kmDOVqvh_draw 216ms linear 5457ms forwards;}.kmDOVqvh_53{stroke-dasharray:18 20;stroke-dashoffset:19;animation:kmDOVqvh_draw 25ms linear 5674ms forwards;}.kmDOVqvh_54{stroke-dasharray:19 21;stroke-dashoffset:20;animation:kmDOVqvh_draw 27ms linear 5700ms forwards;}.kmDOVqvh_55{stroke-dasharray:19 21;stroke-dashoffset:20;animation:kmDOVqvh_draw 27ms linear 5727ms forwards;}.kmDOVqvh_56{stroke-dasharray:17 19;stroke-dashoffset:18;animation:kmDOVqvh_draw 24ms linear 5754ms forwards;}.kmDOVqvh_57{stroke-dasharray:24 26;stroke-dashoffset:25;animation:kmDOVqvh_draw 33ms linear 5778ms forwards;}.kmDOVqvh_58{stroke-dasharray:151 153;stroke-dashoffset:152;animation:kmDOVqvh_draw 206ms linear 5812ms forwards;}.kmDOVqvh_59{stroke-dasharray:88 90;stroke-dashoffset:89;animation:kmDOVqvh_draw 120ms linear 6018ms forwards;}.kmDOVqvh_60{stroke-dasharray:74 76;stroke-dashoffset:75;animation:kmDOVqvh_draw 101ms linear 6139ms forwards;}.kmDOVqvh_61{stroke-dasharray:26 28;stroke-dashoffset:27;animation:kmDOVqvh_draw 36ms linear 6241ms forwards;}.kmDOVqvh_62{stroke-dasharray:27 29;stroke-dashoffset:28;animation:kmDOVqvh_draw 37ms linear 6277ms forwards;}.kmDOVqvh_63{stroke-dasharray:108 110;stroke-dashoffset:109;animation:kmDOVqvh_draw 147ms linear 6315ms forwards;}.kmDOVqvh_64{stroke-dasharray:60 62;stroke-dashoffset:61;animation:kmDOVqvh_draw 82ms linear 6463ms forwards;}.kmDOVqvh_65{stroke-dasharray:65 67;stroke-dashoffset:66;animation:kmDOVqvh_draw 89ms linear 6546ms forwards;}.kmDOVqvh_66{stroke-dasharray:143 145;stroke-dashoffset:144;animation:kmDOVqvh_draw 195ms linear 6635ms forwards;}.kmDOVqvh_67{stroke-dasharray:36 38;stroke-dashoffset:37;animation:kmDOVqvh_draw 50ms linear 6830ms forwards;}.kmDOVqvh_68{stroke-dasharray:49 51;stroke-dashoffset:50;animation:kmDOVqvh_draw 67ms linear 6880ms forwards;}.kmDOVqvh_69{stroke-dasharray:201 203;stroke-dashoffset:202;animation:kmDOVqvh_draw 273ms linear 6948ms forwards;}.kmDOVqvh_70{stroke-dasharray:29 31;stroke-dashoffset:30;animation:kmDOVqvh_draw 40ms linear 7222ms forwards;}.kmDOVqvh_71{stroke-dasharray:29 31;stroke-dashoffset:30;animation:kmDOVqvh_draw 40ms linear 7263ms forwards;}.kmDOVqvh_72{stroke-dasharray:113 115;stroke-dashoffset:114;animation:kmDOVqvh_draw 154ms linear 7303ms forwards;}.kmDOVqvh_73{stroke-dasharray:44 46;stroke-dashoffset:45;animation:kmDOVqvh_draw 61ms linear 7458ms forwards;}.kmDOVqvh_74{stroke-dasharray:354 356;stroke-dashoffset:355;animation:kmDOVqvh_draw 481ms linear 7519ms forwards;}.kmDOVqvh_75{stroke-dasharray:71 73;stroke-dashoffset:72;animation:kmDOVqvh_draw 97ms linear 8000ms forwards;}.kmDOVqvh_76{stroke-dasharray:88 90;stroke-dashoffset:89;animation:kmDOVqvh_draw 120ms linear 8098ms forwards;}.kmDOVqvh_77{stroke-dasharray:133 135;stroke-dashoffset:134;animation:kmDOVqvh_draw 181ms linear 8218ms forwards;}.kmDOVqvh_78{stroke-dasharray:168 170;stroke-dashoffset:169;animation:kmDOVqvh_draw 229ms linear 8400ms forwards;}.kmDOVqvh_79{stroke-dasharray:143 145;stroke-dashoffset:144;animation:kmDOVqvh_draw 195ms linear 8629ms forwards;}.kmDOVqvh_80{stroke-dasharray:124 126;stroke-dashoffset:125;animation:kmDOVqvh_draw 169ms linear 8824ms forwards;}.kmDOVqvh_81{stroke-dasharray:105 107;stroke-dashoffset:106;animation:kmDOVqvh_draw 143ms linear 8994ms forwards;}.kmDOVqvh_82{stroke-dasharray:9 11;stroke-dashoffset:10;animation:kmDOVqvh_draw 13ms linear 9137ms forwards;}.kmDOVqvh_83{stroke-dasharray:9 11;stroke-dashoffset:10;animation:kmDOVqvh_draw 13ms linear 9151ms forwards;}.kmDOVqvh_84{stroke-dasharray:9 11;stroke-dashoffset:10;animation:kmDOVqvh_draw 13ms linear 9164ms forwards;}.kmDOVqvh_85{stroke-dasharray:9 11;stroke-dashoffset:10;animation:kmDOVqvh_draw 13ms linear 9178ms forwards;}.kmDOVqvh_86{stroke-dasharray:9 11;stroke-dashoffset:10;animation:kmDOVqvh_draw 13ms linear 9192ms forwards;}.kmDOVqvh_87{stroke-dasharray:9 11;stroke-dashoffset:10;animation:kmDOVqvh_draw 13ms linear 9205ms forwards;}.kmDOVqvh_88{stroke-dasharray:9 11;stroke-dashoffset:10;animation:kmDOVqvh_draw 13ms linear 9219ms forwards;}.kmDOVqvh_89{stroke-dasharray:9 11;stroke-dashoffset:10;animation:kmDOVqvh_draw 13ms linear 9232ms forwards;}.kmDOVqvh_90{stroke-dasharray:9 11;stroke-dashoffset:10;animation:kmDOVqvh_draw 13ms linear 9246ms forwards;}.kmDOVqvh_91{stroke-dasharray:9 11;stroke-dashoffset:10;animation:kmDOVqvh_draw 13ms linear 9259ms forwards;}.kmDOVqvh_92{stroke-dasharray:9 11;stroke-dashoffset:10;animation:kmDOVqvh_draw 13ms linear 9273ms forwards;}.kmDOVqvh_93{stroke-dasharray:9 11;stroke-dashoffset:10;animation:kmDOVqvh_draw 13ms linear 9286ms forwards;}.kmDOVqvh_94{stroke-dasharray:124 126;stroke-dashoffset:125;animation:kmDOVqvh_draw 169ms linear 9300ms forwards;}.kmDOVqvh_95{stroke-dasharray:141 143;stroke-dashoffset:142;animation:kmDOVqvh_draw 192ms linear 9469ms forwards;}.kmDOVqvh_96{stroke-dasharray:199 201;stroke-dashoffset:200;animation:kmDOVqvh_draw 271ms linear 9662ms forwards;}.kmDOVqvh_97{stroke-dasharray:48 50;stroke-dashoffset:49;animation:kmDOVqvh_draw 66ms linear 9933ms forwards;}@keyframes kmDOVqvh_draw{100%{stroke-dashoffset:0;}}@keyframes kmDOVqvh_fade{0%{stroke-opacity:1;}97.1830985915493%{stroke-opacity:1;}100%{stroke-opacity:0;}}</style></svg>
