<!--?xml version="1.0" encoding="utf-8"?-->
<!-- Generator: Adobe Illustrator 21.1.0, SVG Export Plug-In . SVG Version: 6.00 Build 0)  -->
<svg version="1.1" id="Layer_1" xmlns="http://www.w3.org/2000/svg" xmlns:xlink="http://www.w3.org/1999/xlink" x="0px" y="0px" viewBox="0 0 551 565.9" style="" xml:space="preserve" class="contact-final">
<style type="text/css">
	.st0{fill:none;stroke:#69B8D3;stroke-width:3;stroke-miterlimit:10;}
	.st1{fill:#FFFFFF;}
	.st2{fill:none;stroke:#FFFFFF;stroke-width:3;stroke-miterlimit:10;}
	.st3{fill:#1E1E38;}
	.st4{fill:#FFFFFF;stroke:#69B8D3;stroke-width:3;stroke-miterlimit:10;}
	.st5{fill:#1E1E38;stroke:#69B8D3;stroke-width:3;stroke-miterlimit:10;}
	.st6{fill:none;stroke:#69B8D3;stroke-width:3;stroke-linecap:round;stroke-linejoin:round;stroke-miterlimit:10;}
	.st7{fill:none;stroke:#69B8D3;stroke-width:2;stroke-miterlimit:10;}
	.st8{fill:#69B8D3;}
	.st9{fill:none;stroke:#FFFFFF;stroke-width:4;stroke-miterlimit:10;}
	.st10{clip-path:url(#SVGID_4_);fill:none;stroke:#69B8D3;stroke-width:3;stroke-miterlimit:10;}
	.st11{clip-path:url(#SVGID_8_);fill:none;stroke:#69B8D3;stroke-width:3;stroke-miterlimit:10;}
	.st12{clip-path:url(#SVGID_12_);fill:none;stroke:#69B8D3;stroke-width:3;stroke-miterlimit:10;}
	.st13{clip-path:url(#SVGID_15_);fill:none;stroke:#69B8D3;stroke-width:3;stroke-miterlimit:10;}
	.st14{clip-path:url(#SVGID_17_);fill:none;stroke:#69B8D3;stroke-width:3;stroke-miterlimit:10;}
	.st15{clip-path:url(#SVGID_19_);fill:none;stroke:#69B8D3;stroke-width:3;stroke-miterlimit:10;}
	.st16{clip-path:url(#SVGID_21_);fill:none;stroke:#69B8D3;stroke-width:3;stroke-miterlimit:10;}
	.st17{fill:none;}
</style>
<g>
	<path class="st0 BSfBJslZ_0" d="M76.30000000000001,480.6A21.6,21.6 0,1,1 119.5,480.6A21.6,21.6 0,1,1 76.30000000000001,480.6"></path>
	<path class="st1 BSfBJslZ_1" d="M94.3,492.1L94.3,492.1c-0.6,0-1.2-0.3-1.6-0.8L84,479.7c-0.7-0.9-0.5-2.1,0.4-2.8c0.9-0.7,2.1-0.5,2.8,0.4
		l7.1,9.5l12.9-16.8c0.7-0.9,1.9-1,2.8-0.4c0.9,0.7,1,1.9,0.4,2.8l-14.5,18.9C95.5,491.8,94.9,492.1,94.3,492.1z"></path>
</g>
<path class="st2 BSfBJslZ_2" d="M98.2,503.5L98.2,533.1L238.8,533.1L238.8,407.1"></path>
<path class="st3 BSfBJslZ_3" d="M381.5,289.1H367c-2.1,9.1-9.2,10.7-13.2,10.8c-0.8,0-1.2-1-0.6-1.5c4.5-3.5,2.8-9.3,2.8-9.3h-6.7
	c-7.1,0-12.9-5.8-12.9-12.9v-12.9c0-7.1,5.8-12.9,12.9-12.9h32.2c7.1,0,12.9,5.8,12.9,12.9v12.9
	C394.5,283.3,388.6,289.1,381.5,289.1z"></path>
<g>
	<path class="st0 BSfBJslZ_4" d="M259.4,385.6c0,0-1.5,8.5,6,13.7h-65.9c0,0,8.2-4.5,6.7-13.7H259.4z"></path>
	<path class="st0 BSfBJslZ_5" d="M271.9,404h-78.2c-1.1,0-2-0.9-2-2l0,0c0-1.1,0.9-2,2-2h78.2c1.1,0,2,0.9,2,2l0,0
		C273.9,403.1,273,404,271.9,404z"></path>
	<path class="st0 BSfBJslZ_6" d="M338.4,385.1h-211c-3.9,0-7-3.2-7-7V236.3c0-7.5,6.1-13.6,13.6-13.6h197.9c7.5,0,13.6,6.1,13.6,13.6v141.8
		C345.4,382,342.1,385.1,338.4,385.1z"></path>
	<path class="st0 BSfBJslZ_7" width="207.5" height="119.8" d="M129 231.5 L336.5 231.5 L336.5 351.3 L129 351.3 Z"></path>
	<path class="st4 BSfBJslZ_8" d="M229.2,373.6A4.8,4.8 0,1,1 238.8,373.6A4.8,4.8 0,1,1 229.2,373.6"></path>
	<path class="st2 BSfBJslZ_9" d="M252.8,331.5L300.5,283.8"></path>
	<g>
		<path class="st2 BSfBJslZ_10" d="M269.1,328.7L300.5,297.4"></path>
		<path class="st2 BSfBJslZ_11" d="M247,350.9L260.5,337.3"></path>
	</g>
</g>
<g>
	<path class="st5 BSfBJslZ_12" width="88.4" height="63.3" d="M52.3 368.3 L140.7 368.3 L140.7 431.6 L52.3 431.6 Z"></path>
	<path class="st6 BSfBJslZ_13" d="M52.3,368.3L96.5,403.1L140.7,368.3"></path>
	<path class="st6 BSfBJslZ_14" d="M52.3,431.7L87,396.9"></path>
	<path class="st6 BSfBJslZ_15" d="M140.7,431.7L106,397"></path>
</g>
<g>
	<path class="st5 BSfBJslZ_16" d="M324.4,322.6l-8.8,8.8c-0.6,0.6-0.9,1.3-0.9,2.2l-0.1,90c0,1.7,1.4,3,3,3l87.5,0.1c1.7,0,3-1.4,3-3l0.1-98.8
		c0-1.7-1.4-3-3-3l-78.8-0.1C325.8,321.7,325,322,324.4,322.6z"></path>
	<path class="st6 BSfBJslZ_17" d="M325.3,332.2L325.3,321.7L314.8,332.2Z"></path>
	<g>
		<path class="st7 BSfBJslZ_18" d="M329.5,340.8L393.6,340.9"></path>
		<path class="st7 BSfBJslZ_19" d="M329.5,349.9L393.6,350"></path>
		<path class="st7 BSfBJslZ_20" d="M329.5,358.9L393.6,359"></path>
		<path class="st7 BSfBJslZ_21" d="M329.5,368L379.3,368"></path>
	</g>
	<g>
		<path class="st7 BSfBJslZ_22" d="M329.5,396L338.8,402.4L356,386.9L368,395.6L393.5,381.8"></path>
		<path class="st7 BSfBJslZ_23" d="M329.5,381.8L329.5,411.9L393.5,411.9"></path>
	</g>
</g>
<path class="st2 BSfBJslZ_24" d="M462.1,244.7L501.7,244.7L501.7,407.1L412.8,407.1"></path>
<path class="st2 BSfBJslZ_25" d="M390.8,165.6L390.8,211.5"></path>
<g>
	<g>
		<path class="st0 BSfBJslZ_26" d="M434,328.1A21.6,21.6 0,1,1 477.20000000000005,328.1A21.6,21.6 0,1,1 434,328.1"></path>
	</g>
	<g>
		<path class="st6 BSfBJslZ_27" d="M443.4,328.1L467.9,328.1"></path>
		<path class="st6 BSfBJslZ_28" d="M455.6,340.4L455.6,315.8"></path>
	</g>
</g>
<g>
	<path class="st0 BSfBJslZ_29" d="M436.8,280.6h-21.6c-3.2,13.5-13.7,16-19.7,16.2c-1.2,0-1.8-1.5-0.8-2.3c6.7-5.2,4.2-13.9,4.2-13.9h-10.1
		c-10.6,0-19.2-8.7-19.2-19.2v-19.2c0-10.6,8.7-19.2,19.2-19.2h48.1c10.6,0,19.2,8.7,19.2,19.2v19.2
		C456,271.9,447.4,280.6,436.8,280.6z"></path>
	<path class="st8 BSfBJslZ_30" d="M384.7,251A6.3,6.3 0,1,1 397.3,251A6.3,6.3 0,1,1 384.7,251"></path>
	<path class="st8 BSfBJslZ_31" d="M406.5,251A6.3,6.3 0,1,1 419.1,251A6.3,6.3 0,1,1 406.5,251"></path>
	<path class="st8 BSfBJslZ_32" d="M428.2,251A6.3,6.3 0,1,1 440.8,251A6.3,6.3 0,1,1 428.2,251"></path>
</g>
<g>
	<path class="st0 BSfBJslZ_33" d="M419.4,140.5h-20.8c-3.1,13-13.1,15.3-18.9,15.5c-1.2,0-1.7-1.4-0.8-2.2c6.4-5,4-13.4,4-13.4h-9.6
		c-10.1,0-18.4-8.3-18.4-18.4V88.6c0-10.1,8.3-18.4,18.4-18.4h46.1c10.1,0,18.4,8.3,18.4,18.4V122
		C437.8,132.2,429.5,140.5,419.4,140.5z"></path>
	<path class="st9 BSfBJslZ_34" d="M376.3,101.6L391.3,121.5L416.3,89.1"></path>
</g>
<path class="st2 BSfBJslZ_35" d="M130.5,82.6L130.5,32.4L390.8,32.4L390.8,63.4"></path>
<path class="st2 BSfBJslZ_36" d="M95.5,146L165.5,186.5"></path>
<path class="st2 BSfBJslZ_37" d="M130.7,126.1L130.7,206.7"></path>
<path class="st2 BSfBJslZ_38" d="M95.3,186.8L166,146"></path>
<g>
	<path id="SVGID_3_" class="st3 BSfBJslZ_39" d="M110.29999999999998,166.4A20.4,20.4 0,1,1 151.1,166.4A20.4,20.4 0,1,1 110.29999999999998,166.4"></path>
	<g>
		<g>
			<g>
				<defs>
					<path id="SVGID_2_" d="M110.29999999999998,166.4A20.4,20.4 0,1,1 151.1,166.4A20.4,20.4 0,1,1 110.29999999999998,166.4" class="BSfBJslZ_40"></path>
				</defs>
				<clipPath id="SVGID_4_">
					<use xlink:href="#SVGID_2_" style="overflow:visible;"></use>
				</clipPath>
				<path class="st10 BSfBJslZ_41" d="M134.1,171.7c3-1.3,5.1-4.3,5.1-7.8c0-4.7-3.8-8.5-8.5-8.5s-8.5,3.8-8.5,8.5c0,3.5,2.1,6.5,5.1,7.8
					c-4.7,0.2-8.5,4.1-8.5,8.9v6.2h23.7v-6.2C142.6,175.8,138.8,171.9,134.1,171.7z"></path>
			</g>
		</g>
	</g>
	
		<path transform="matrix(0.6156 -0.7881 0.7881 0.6156 -80.8196 167.0657)" class="st0 BSfBJslZ_42" d="M110.4,166.4A20.4,20.4 0,1,1 151.20000000000002,166.4A20.4,20.4 0,1,1 110.4,166.4"></path>
</g>
<g>
	<g>
		<g>
			<g>
				<defs>
					<path id="SVGID_6_" d="M163.29999999999998,195.8A20.4,20.4 0,1,1 204.1,195.8A20.4,20.4 0,1,1 163.29999999999998,195.8" class="BSfBJslZ_43"></path>
				</defs>
				<clipPath id="SVGID_8_">
					<use xlink:href="#SVGID_6_" style="overflow:visible;"></use>
				</clipPath>
				<path class="st11 BSfBJslZ_44" d="M187,201.2c3-1.3,5.1-4.3,5.1-7.8c0-4.7-3.8-8.5-8.5-8.5s-8.5,3.8-8.5,8.5c0,3.5,2.1,6.5,5.1,7.8
					c-4.7,0.2-8.5,4.1-8.5,8.9v6.2h23.8v-6.2C195.5,205.3,191.7,201.4,187,201.2z"></path>
			</g>
		</g>
	</g>
	<path id="SVGID_13_" class="st0 BSfBJslZ_45" d="M163.29999999999998,195.8A20.4,20.4 0,1,1 204.1,195.8A20.4,20.4 0,1,1 163.29999999999998,195.8"></path>
</g>
<path class="st3 BSfBJslZ_46" d="M110.29999999999998,226.5A20.4,20.4 0,1,1 151.1,226.5A20.4,20.4 0,1,1 110.29999999999998,226.5"></path>
<g>
	<g>
		<g>
			<g>
				<defs>
					<path id="SVGID_10_" d="M163.29999999999998,135.8A20.4,20.4 0,1,1 204.1,135.8A20.4,20.4 0,1,1 163.29999999999998,135.8" class="BSfBJslZ_47"></path>
				</defs>
				<clipPath id="SVGID_12_">
					<use xlink:href="#SVGID_10_" style="overflow:visible;"></use>
				</clipPath>
				<path class="st12 BSfBJslZ_48" d="M187,141.1c3-1.3,5.1-4.3,5.1-7.8c0-4.7-3.8-8.5-8.5-8.5s-8.5,3.8-8.5,8.5c0,3.5,2.1,6.5,5.1,7.8
					c-4.7,0.2-8.5,4.1-8.5,8.9v6.2h23.8V150C195.5,145.2,191.7,141.3,187,141.1z"></path>
			</g>
		</g>
	</g>
	<path id="SVGID_5_" class="st0 BSfBJslZ_49" d="M163.29999999999998,135.8A20.4,20.4 0,1,1 204.1,135.8A20.4,20.4 0,1,1 163.29999999999998,135.8"></path>
	<path class="st0 BSfBJslZ_50" d="M163.29999999999998,135.8A20.4,20.4 0,1,1 204.1,135.8A20.4,20.4 0,1,1 163.29999999999998,135.8"></path>
</g>
<g>
	<g>
		<g>
			<g>
				<defs>
					<path id="SVGID_14_" d="M110.29999999999998,105.6A20.4,20.4 0,1,1 151.1,105.6A20.4,20.4 0,1,1 110.29999999999998,105.6" class="BSfBJslZ_51"></path>
				</defs>
				<clipPath id="SVGID_15_">
					<use xlink:href="#SVGID_14_" style="overflow:visible;"></use>
				</clipPath>
				<path class="st13 BSfBJslZ_52" d="M134.1,111c3-1.3,5.1-4.3,5.1-7.8c0-4.7-3.8-8.5-8.5-8.5s-8.5,3.8-8.5,8.5c0,3.5,2.1,6.5,5.1,7.8
					c-4.7,0.2-8.5,4.1-8.5,8.9v6.2h23.7v-6.2C142.6,115.1,138.8,111.2,134.1,111z"></path>
			</g>
		</g>
	</g>
	<path id="SVGID_9_" class="st0 BSfBJslZ_53" d="M110.29999999999998,105.6A20.4,20.4 0,1,1 151.1,105.6A20.4,20.4 0,1,1 110.29999999999998,105.6"></path>
	<path class="st0 BSfBJslZ_54" d="M110.29999999999998,105.6A20.4,20.4 0,1,1 151.1,105.6A20.4,20.4 0,1,1 110.29999999999998,105.6"></path>
</g>
<g>
	<g>
		<g>
			<g>
				<defs>
					<path id="SVGID_16_" d="M57.4,135.8A20.4,20.4 0,1,1 98.19999999999999,135.8A20.4,20.4 0,1,1 57.4,135.8" class="BSfBJslZ_55"></path>
				</defs>
				<clipPath id="SVGID_17_">
					<use xlink:href="#SVGID_16_" style="overflow:visible;"></use>
				</clipPath>
				<path class="st14 BSfBJslZ_56" d="M81.1,141.1c3-1.3,5.1-4.3,5.1-7.8c0-4.7-3.8-8.5-8.5-8.5c-4.7,0-8.5,3.8-8.5,8.5c0,3.5,2.1,6.5,5.1,7.8
					c-4.7,0.2-8.5,4.1-8.5,8.9v6.2h23.7V150C89.6,145.2,85.8,141.3,81.1,141.1z"></path>
			</g>
		</g>
	</g>
	<path id="SVGID_1_" class="st0 BSfBJslZ_57" d="M57.4,135.8A20.4,20.4 0,1,1 98.19999999999999,135.8A20.4,20.4 0,1,1 57.4,135.8"></path>
	<path class="st0 BSfBJslZ_58" d="M57.4,135.8A20.4,20.4 0,1,1 98.19999999999999,135.8A20.4,20.4 0,1,1 57.4,135.8"></path>
</g>
<g>
	<g>
		<g>
			<g>
				<defs>
					<path id="SVGID_18_" d="M57.4,196.9A20.4,20.4 0,1,1 98.19999999999999,196.9A20.4,20.4 0,1,1 57.4,196.9" class="BSfBJslZ_59"></path>
				</defs>
				<clipPath id="SVGID_19_">
					<use xlink:href="#SVGID_18_" style="overflow:visible;"></use>
				</clipPath>
				<path class="st15 BSfBJslZ_60" d="M81.1,202.3c3-1.3,5.1-4.3,5.1-7.8c0-4.7-3.8-8.5-8.5-8.5c-4.7,0-8.5,3.8-8.5,8.5c0,3.5,2.1,6.5,5.1,7.8
					c-4.7,0.2-8.5,4.1-8.5,8.9v6.2h23.7v-6.2C89.6,206.4,85.8,202.5,81.1,202.3z"></path>
			</g>
		</g>
	</g>
	<path id="SVGID_11_" class="st0 BSfBJslZ_61" d="M57.4,196.9A20.4,20.4 0,1,1 98.19999999999999,196.9A20.4,20.4 0,1,1 57.4,196.9"></path>
	<path class="st0 BSfBJslZ_62" d="M57.4,196.9A20.4,20.4 0,1,1 98.19999999999999,196.9A20.4,20.4 0,1,1 57.4,196.9"></path>
</g>
<g>
	<g>
		<g>
			<g>
				<defs>
					<path id="SVGID_20_" d="M110.29999999999998,227.1A20.4,20.4 0,1,1 151.1,227.1A20.4,20.4 0,1,1 110.29999999999998,227.1" class="BSfBJslZ_63"></path>
				</defs>
				<clipPath id="SVGID_21_">
					<use xlink:href="#SVGID_20_" style="overflow:visible;"></use>
				</clipPath>
				<path class="st16 BSfBJslZ_64" d="M134.1,232.4c3-1.3,5.1-4.3,5.1-7.8c0-4.7-3.8-8.5-8.5-8.5s-8.5,3.8-8.5,8.5c0,3.5,2.1,6.5,5.1,7.8
					c-4.7,0.2-8.5,4.1-8.5,8.9v6.2h23.7v-6.2C142.6,236.6,138.8,232.6,134.1,232.4z"></path>
				<use xlink:href="#SVGID_20_" style="overflow:visible;fill:none;stroke:#69B8D3;stroke-width:3;stroke-miterlimit:10;"></use>
			</g>
		</g>
	</g>
	<path id="SVGID_7_" class="st0 BSfBJslZ_65" d="M110.29999999999998,227.1A20.4,20.4 0,1,1 151.1,227.1A20.4,20.4 0,1,1 110.29999999999998,227.1"></path>
	<path class="st0 BSfBJslZ_66" d="M110.29999999999998,227.1A20.4,20.4 0,1,1 151.1,227.1A20.4,20.4 0,1,1 110.29999999999998,227.1"></path>
</g>
<path class="st17 BSfBJslZ_67" d="M189.2,115.4"></path>
</svg>
