<!--?xml version="1.0" encoding="utf-8"?-->
<!-- Generator: Adobe Illustrator 21.1.0, SVG Export Plug-In . SVG Version: 6.00 Build 0)  -->
<svg version="1.1" id="Layer_1" xmlns="http://www.w3.org/2000/svg" xmlns:xlink="http://www.w3.org/1999/xlink" x="0px" y="0px" viewBox="0 0 640.5 637.5" style="" xml:space="preserve">
<style type="text/css">
	.st0{fill:none;stroke:#FFFFFF;stroke-width:3;stroke-linecap:round;stroke-linejoin:round;stroke-miterlimit:10;}
	.st1{fill:none;stroke:#1E234A;stroke-width:3;stroke-linecap:round;stroke-linejoin:round;stroke-miterlimit:10;}
	.st2{fill:none;stroke:#1E234A;stroke-width:4;stroke-linecap:round;stroke-linejoin:round;stroke-miterlimit:10;}
	.st3{fill:none;stroke:#FFFFFF;stroke-width:4;stroke-linecap:round;stroke-linejoin:round;stroke-miterlimit:10;}
	.st4{fill:#1E234A;}
	.st5{fill:#69B8D3;}
	.st6{fill:#FFFFFF;}
	.st7{fill:#1F234A;}
</style>
<path class="st0 sCceYSRv_0" d="M34.400000000000034,318.7A284.2,284.2 0,1,1 602.8,318.7A284.2,284.2 0,1,1 34.400000000000034,318.7"></path>
<path class="st1 sCceYSRv_1" d="M19.5,319.9A297.8,297.8 0,1,1 615.1,319.9A297.8,297.8 0,1,1 19.5,319.9"></path>
<path class="st2 sCceYSRv_2" d="M380.4,278.5V107.7c0-9.1-7.4-16.4-16.4-16.4H205.7c-9.1,0-16.4,7.4-16.4,16.4V404c0,9.1,7.4,16.4,16.4,16.4
	H331"></path>
<path class="st2 sCceYSRv_3" d="M331,363.3L204.8,363.3L204.8,137L363.2,137L363.2,278.5"></path>
<path class="st3 sCceYSRv_4" d="M256.3,113.4L311.1,113.4"></path>
<path class="st2 sCceYSRv_5" width="23.2" height="23.2" d="M256.6 170.2 L279.8 170.2 L279.8 193.39999999999998 L256.6 193.39999999999998 Z"></path>
<path class="st2 sCceYSRv_6" width="23.2" height="23.2" d="M322 208.6 L345.2 208.6 L345.2 231.79999999999998 L322 231.79999999999998 Z"></path>
<path class="st2 sCceYSRv_7" width="23.2" height="23.2" d="M256.6 248.4 L279.8 248.4 L279.8 271.6 L256.6 271.6 Z"></path>
<path class="st3 sCceYSRv_8" d="M259.4,293L259.4,336.5"></path>
<path class="st3 sCceYSRv_9" d="M282,314.8L236.3,314.8"></path>
<path class="st2 sCceYSRv_10" width="37.4" height="37.4" d="M295.9 296.1 L333.29999999999995 296.1 L333.29999999999995 333.5 L295.9 333.5 Z"></path>
<path class="st4 sCceYSRv_11" width="23.2" height="23.2" d="M222.3 170.2 L245.5 170.2 L245.5 193.39999999999998 L222.3 193.39999999999998 Z"></path>
<path class="st5 sCceYSRv_12" d="M347,325.3A30.1,30.1 0,1,1 407.20000000000005,325.3A30.1,30.1 0,1,1 347,325.3"></path>
<path class="st2 sCceYSRv_13" d="M343.7,328.1L351.2,328.1"></path>
<path class="st2 sCceYSRv_14" d="M352.7,304L358,309.3"></path>
<path class="st2 sCceYSRv_15" d="M376.1,293.4L376.1,300.9"></path>
<path class="st2 sCceYSRv_16" d="M400.2,302.4L394.9,307.7"></path>
<path class="st2 sCceYSRv_17" d="M410.8,325.7L403.3,325.7"></path>
<path class="st2 sCceYSRv_18" d="M434.6,381.5c0-4.5-3.6-8.1-8.1-8.1s-8.1,3.6-8.1,8.1v-6c0-0.1,0-0.2,0-0.3c0-4.5-3.6-8.1-8.1-8.1
	s-8.1,3.6-8.1,8.1l0,0v-5c0-0.1,0-0.2,0-0.3c0-4.5-3.6-8.1-8.1-8.1c-4.4,0-7.9,3.5-8.1,7.8v-40.3l0,0c0-4.5-3.6-8.1-8.1-8.1
	s-8.1,3.6-8.1,8.1v47.8v0.5h-0.1c-0.7-8.4-7.6-14.9-16.1-14.9v14.9v1.3v18v16.2v16.2c0,10.8,5.3,20.4,13.4,26.3v45.5h55.5v-45.7
	c7.5-5.7,12.3-14.8,12.3-24.9v-48.7C434.6,381.7,434.6,381.6,434.6,381.5z M385.9,375.3v-5.2c0,0,0,0,0,0.1V375.3z"></path>
<path class="st2 sCceYSRv_19" d="M369.7,376.3L369.7,398.9"></path>
<path class="st5 sCceYSRv_20" width="99.5" height="72" d="M344.3 478 L443.8 478 L443.8 550 L344.3 550 Z"></path>
<path class="st2 sCceYSRv_21" d="M343.5,538.4L445.6,538.4"></path>
<path class="st4 sCceYSRv_22" width="23.2" height="23.2" d="M289.4 170.2 L312.59999999999997 170.2 L312.59999999999997 193.39999999999998 L289.4 193.39999999999998 Z"></path>
<path class="st4 sCceYSRv_23" width="23.2" height="23.2" d="M322 170.2 L345.2 170.2 L345.2 193.39999999999998 L322 193.39999999999998 Z"></path>
<path class="st6 sCceYSRv_24" width="23.2" height="23.2" d="M222.3 208.6 L245.5 208.6 L245.5 231.79999999999998 L222.3 231.79999999999998 Z"></path>
<path class="st4 sCceYSRv_25" width="23.2" height="23.2" d="M256.6 208.6 L279.8 208.6 L279.8 231.79999999999998 L256.6 231.79999999999998 Z"></path>
<path class="st4 sCceYSRv_26" width="23.2" height="23.2" d="M289.4 208.6 L312.59999999999997 208.6 L312.59999999999997 231.79999999999998 L289.4 231.79999999999998 Z"></path>
<path class="st6 sCceYSRv_27" width="23.2" height="23.2" d="M322 248.4 L345.2 248.4 L345.2 271.6 L322 271.6 Z"></path>
<path class="st4 sCceYSRv_28" width="23.2" height="23.2" d="M222.3 248.4 L245.5 248.4 L245.5 271.6 L222.3 271.6 Z"></path>
<path class="st4 sCceYSRv_29" width="23.2" height="23.2" d="M289.4 248.4 L312.59999999999997 248.4 L312.59999999999997 271.6 L289.4 271.6 Z"></path>
<path class="st7 sCceYSRv_30" d="M284.8,376.4c-8.3,0-15,6.7-15,15s6.7,15,15,15c8.3,0,15-6.7,15-15S293.1,376.4,284.8,376.4z M284.8,396.9
	c-3,0-5.5-2.5-5.5-5.5s2.5-5.5,5.5-5.5s5.5,2.5,5.5,5.5S287.8,396.9,284.8,396.9z"></path>
<path class="st6 sCceYSRv_31" d="M354.8,503.7A4.7,4.7 0,1,1 364.2,503.7A4.7,4.7 0,1,1 354.8,503.7"></path>
<style>.sCceYSRv_0{stroke-dasharray:1787 1789;stroke-dashoffset:1788;animation:sCceYSRv_draw_0 15400ms linear 0ms infinite,sCceYSRv_fade 15400ms linear 0ms infinite;}.sCceYSRv_2{stroke-dasharray:828 830;stroke-dashoffset:829;animation:sCceYSRv_draw_2 15400ms linear 0ms infinite,sCceYSRv_fade 15400ms linear 0ms infinite;}.sCceYSRv_3{stroke-dasharray:653 655;stroke-dashoffset:654;animation:sCceYSRv_draw_3 15400ms linear 0ms infinite,sCceYSRv_fade 15400ms linear 0ms infinite;}.sCceYSRv_4{stroke-dasharray:55 57;stroke-dashoffset:56;animation:sCceYSRv_draw_4 15400ms linear 0ms infinite,sCceYSRv_fade 15400ms linear 0ms infinite;}.sCceYSRv_5{stroke-dasharray:93 95;stroke-dashoffset:94;animation:sCceYSRv_draw_5 15400ms linear 0ms infinite,sCceYSRv_fade 15400ms linear 0ms infinite;}.sCceYSRv_6{stroke-dasharray:93 95;stroke-dashoffset:94;animation:sCceYSRv_draw_6 15400ms linear 0ms infinite,sCceYSRv_fade 15400ms linear 0ms infinite;}.sCceYSRv_7{stroke-dasharray:93 95;stroke-dashoffset:94;animation:sCceYSRv_draw_7 15400ms linear 0ms infinite,sCceYSRv_fade 15400ms linear 0ms infinite;}.sCceYSRv_8{stroke-dasharray:44 46;stroke-dashoffset:45;animation:sCceYSRv_draw_8 15400ms linear 0ms infinite,sCceYSRv_fade 15400ms linear 0ms infinite;}.sCceYSRv_9{stroke-dasharray:46 48;stroke-dashoffset:47;animation:sCceYSRv_draw_9 15400ms linear 0ms infinite,sCceYSRv_fade 15400ms linear 0ms infinite;}.sCceYSRv_10{stroke-dasharray:150 152;stroke-dashoffset:151;animation:sCceYSRv_draw_10 15400ms linear 0ms infinite,sCceYSRv_fade 15400ms linear 0ms infinite;}.sCceYSRv_11{stroke-dasharray:93 95;stroke-dashoffset:94;animation:sCceYSRv_draw_11 15400ms linear 0ms infinite,sCceYSRv_fade 15400ms linear 0ms infinite;}.sCceYSRv_12{stroke-dasharray:190 192;stroke-dashoffset:191;animation:sCceYSRv_draw_12 15400ms linear 0ms infinite,sCceYSRv_fade 15400ms linear 0ms infinite;}.sCceYSRv_13{stroke-dasharray:8 10;stroke-dashoffset:9;animation:sCceYSRv_draw_13 15400ms linear 0ms infinite,sCceYSRv_fade 15400ms linear 0ms infinite;}.sCceYSRv_14{stroke-dasharray:8 10;stroke-dashoffset:9;animation:sCceYSRv_draw_14 15400ms linear 0ms infinite,sCceYSRv_fade 15400ms linear 0ms infinite;}.sCceYSRv_15{stroke-dasharray:8 10;stroke-dashoffset:9;animation:sCceYSRv_draw_15 15400ms linear 0ms infinite,sCceYSRv_fade 15400ms linear 0ms infinite;}.sCceYSRv_16{stroke-dasharray:8 10;stroke-dashoffset:9;animation:sCceYSRv_draw_16 15400ms linear 0ms infinite,sCceYSRv_fade 15400ms linear 0ms infinite;}.sCceYSRv_17{stroke-dasharray:8 10;stroke-dashoffset:9;animation:sCceYSRv_draw_17 15400ms linear 0ms infinite,sCceYSRv_fade 15400ms linear 0ms infinite;}.sCceYSRv_18{stroke-dasharray:559 561;stroke-dashoffset:560;animation:sCceYSRv_draw_18 15400ms linear 0ms infinite,sCceYSRv_fade 15400ms linear 0ms infinite;}.sCceYSRv_19{stroke-dasharray:23 25;stroke-dashoffset:24;animation:sCceYSRv_draw_19 15400ms linear 0ms infinite,sCceYSRv_fade 15400ms linear 0ms infinite;}.sCceYSRv_20{stroke-dasharray:343 345;stroke-dashoffset:344;animation:sCceYSRv_draw_20 15400ms linear 0ms infinite,sCceYSRv_fade 15400ms linear 0ms infinite;}.sCceYSRv_21{stroke-dasharray:103 105;stroke-dashoffset:104;animation:sCceYSRv_draw_21 15400ms linear 0ms infinite,sCceYSRv_fade 15400ms linear 0ms infinite;}.sCceYSRv_22{stroke-dasharray:93 95;stroke-dashoffset:94;animation:sCceYSRv_draw_22 15400ms linear 0ms infinite,sCceYSRv_fade 15400ms linear 0ms infinite;}.sCceYSRv_23{stroke-dasharray:93 95;stroke-dashoffset:94;animation:sCceYSRv_draw_23 15400ms linear 0ms infinite,sCceYSRv_fade 15400ms linear 0ms infinite;}.sCceYSRv_24{stroke-dasharray:93 95;stroke-dashoffset:94;animation:sCceYSRv_draw_24 15400ms linear 0ms infinite,sCceYSRv_fade 15400ms linear 0ms infinite;}.sCceYSRv_25{stroke-dasharray:93 95;stroke-dashoffset:94;animation:sCceYSRv_draw_25 15400ms linear 0ms infinite,sCceYSRv_fade 15400ms linear 0ms infinite;}.sCceYSRv_26{stroke-dasharray:93 95;stroke-dashoffset:94;animation:sCceYSRv_draw_26 15400ms linear 0ms infinite,sCceYSRv_fade 15400ms linear 0ms infinite;}.sCceYSRv_27{stroke-dasharray:93 95;stroke-dashoffset:94;animation:sCceYSRv_draw_27 15400ms linear 0ms infinite,sCceYSRv_fade 15400ms linear 0ms infinite;}.sCceYSRv_28{stroke-dasharray:93 95;stroke-dashoffset:94;animation:sCceYSRv_draw_28 15400ms linear 0ms infinite,sCceYSRv_fade 15400ms linear 0ms infinite;}.sCceYSRv_29{stroke-dasharray:93 95;stroke-dashoffset:94;animation:sCceYSRv_draw_29 15400ms linear 0ms infinite,sCceYSRv_fade 15400ms linear 0ms infinite;}.sCceYSRv_30{stroke-dasharray:129 131;stroke-dashoffset:130;animation:sCceYSRv_draw_30 15400ms linear 0ms infinite,sCceYSRv_fade 15400ms linear 0ms infinite;}.sCceYSRv_31{stroke-dasharray:30 32;stroke-dashoffset:31;animation:sCceYSRv_draw_31 15400ms linear 0ms infinite,sCceYSRv_fade 15400ms linear 0ms infinite;}@keyframes sCceYSRv_draw{100%{stroke-dashoffset:0;}}@keyframes sCceYSRv_fade{0%{stroke-opacity:1;}98.7012987012987%{stroke-opacity:1;}100%{stroke-opacity:0;}}@keyframes sCceYSRv_draw_0{0%{stroke-dashoffset: 1788}21.76948051948052%{ stroke-dashoffset: 0;}100%{ stroke-dashoffset: 0;}}@keyframes sCceYSRv_draw_1{21.76948051948052%{stroke-dashoffset: 1873}44.57386363636363%{ stroke-dashoffset: 0;}100%{ stroke-dashoffset: 0;}}@keyframes sCceYSRv_draw_2{44.57386363636363%{stroke-dashoffset: 829}54.6672077922078%{ stroke-dashoffset: 0;}100%{ stroke-dashoffset: 0;}}@keyframes sCceYSRv_draw_3{54.6672077922078%{stroke-dashoffset: 654}62.62987012987013%{ stroke-dashoffset: 0;}100%{ stroke-dashoffset: 0;}}@keyframes sCceYSRv_draw_4{62.62987012987013%{stroke-dashoffset: 56}63.31168831168831%{ stroke-dashoffset: 0;}100%{ stroke-dashoffset: 0;}}@keyframes sCceYSRv_draw_5{63.31168831168831%{stroke-dashoffset: 94}64.45616883116884%{ stroke-dashoffset: 0;}100%{ stroke-dashoffset: 0;}}@keyframes sCceYSRv_draw_6{64.45616883116884%{stroke-dashoffset: 94}65.60064935064935%{ stroke-dashoffset: 0;}100%{ stroke-dashoffset: 0;}}@keyframes sCceYSRv_draw_7{65.60064935064935%{stroke-dashoffset: 94}66.74512987012987%{ stroke-dashoffset: 0;}100%{ stroke-dashoffset: 0;}}@keyframes sCceYSRv_draw_8{66.74512987012987%{stroke-dashoffset: 45}67.29301948051948%{ stroke-dashoffset: 0;}100%{ stroke-dashoffset: 0;}}@keyframes sCceYSRv_draw_9{67.29301948051948%{stroke-dashoffset: 47}67.86525974025975%{ stroke-dashoffset: 0;}100%{ stroke-dashoffset: 0;}}@keyframes sCceYSRv_draw_10{67.86525974025975%{stroke-dashoffset: 151}69.70373376623377%{ stroke-dashoffset: 0;}100%{ stroke-dashoffset: 0;}}@keyframes sCceYSRv_draw_11{69.70373376623377%{stroke-dashoffset: 94}70.84821428571428%{ stroke-dashoffset: 0;}100%{ stroke-dashoffset: 0;}}@keyframes sCceYSRv_draw_12{70.84821428571428%{stroke-dashoffset: 191}73.1737012987013%{ stroke-dashoffset: 0;}100%{ stroke-dashoffset: 0;}}@keyframes sCceYSRv_draw_13{73.1737012987013%{stroke-dashoffset: 9}73.28327922077922%{ stroke-dashoffset: 0;}100%{ stroke-dashoffset: 0;}}@keyframes sCceYSRv_draw_14{73.28327922077922%{stroke-dashoffset: 9}73.39285714285714%{ stroke-dashoffset: 0;}100%{ stroke-dashoffset: 0;}}@keyframes sCceYSRv_draw_15{73.39285714285714%{stroke-dashoffset: 9}73.50243506493507%{ stroke-dashoffset: 0;}100%{ stroke-dashoffset: 0;}}@keyframes sCceYSRv_draw_16{73.50243506493507%{stroke-dashoffset: 9}73.61201298701299%{ stroke-dashoffset: 0;}100%{ stroke-dashoffset: 0;}}@keyframes sCceYSRv_draw_17{73.61201298701299%{stroke-dashoffset: 9}73.7215909090909%{ stroke-dashoffset: 0;}100%{ stroke-dashoffset: 0;}}@keyframes sCceYSRv_draw_18{73.7215909090909%{stroke-dashoffset: 560}80.53977272727273%{ stroke-dashoffset: 0;}100%{ stroke-dashoffset: 0;}}@keyframes sCceYSRv_draw_19{80.53977272727273%{stroke-dashoffset: 24}80.83198051948052%{ stroke-dashoffset: 0;}100%{ stroke-dashoffset: 0;}}@keyframes sCceYSRv_draw_20{80.83198051948052%{stroke-dashoffset: 344}85.02029220779221%{ stroke-dashoffset: 0;}100%{ stroke-dashoffset: 0;}}@keyframes sCceYSRv_draw_21{85.02029220779221%{stroke-dashoffset: 104}86.28652597402598%{ stroke-dashoffset: 0;}100%{ stroke-dashoffset: 0;}}@keyframes sCceYSRv_draw_22{86.28652597402598%{stroke-dashoffset: 94}87.43100649350649%{ stroke-dashoffset: 0;}100%{ stroke-dashoffset: 0;}}@keyframes sCceYSRv_draw_23{87.43100649350649%{stroke-dashoffset: 94}88.57548701298701%{ stroke-dashoffset: 0;}100%{ stroke-dashoffset: 0;}}@keyframes sCceYSRv_draw_24{88.57548701298701%{stroke-dashoffset: 94}89.71996753246754%{ stroke-dashoffset: 0;}100%{ stroke-dashoffset: 0;}}@keyframes sCceYSRv_draw_25{89.71996753246754%{stroke-dashoffset: 94}90.86444805194806%{ stroke-dashoffset: 0;}100%{ stroke-dashoffset: 0;}}@keyframes sCceYSRv_draw_26{90.86444805194806%{stroke-dashoffset: 94}92.00892857142857%{ stroke-dashoffset: 0;}100%{ stroke-dashoffset: 0;}}@keyframes sCceYSRv_draw_27{92.00892857142857%{stroke-dashoffset: 94}93.1534090909091%{ stroke-dashoffset: 0;}100%{ stroke-dashoffset: 0;}}@keyframes sCceYSRv_draw_28{93.1534090909091%{stroke-dashoffset: 94}94.2978896103896%{ stroke-dashoffset: 0;}100%{ stroke-dashoffset: 0;}}@keyframes sCceYSRv_draw_29{94.2978896103896%{stroke-dashoffset: 94}95.44237012987013%{ stroke-dashoffset: 0;}100%{ stroke-dashoffset: 0;}}@keyframes sCceYSRv_draw_30{95.44237012987013%{stroke-dashoffset: 130}97.02516233766234%{ stroke-dashoffset: 0;}100%{ stroke-dashoffset: 0;}}@keyframes sCceYSRv_draw_31{97.02516233766234%{stroke-dashoffset: 31}97.40259740259741%{ stroke-dashoffset: 0;}100%{ stroke-dashoffset: 0;}}</style></svg>
