<?xml version="1.0" encoding="utf-8"?>
<!-- Generator: Adobe Illustrator 21.0.0, SVG Export Plug-In . SVG Version: 6.00 Build 0)  -->
<svg version="1.1" id="Layer_1" xmlns="http://www.w3.org/2000/svg" xmlns:xlink="http://www.w3.org/1999/xlink" x="0px" y="0px"
	 viewBox="0 0 100 100" style="enable-background:new 0 0 100 100;" xml:space="preserve">
<style type="text/css">
	.st0{fill:none;stroke:#FFFFFF;stroke-width:2;stroke-miterlimit:10;}
</style>
<g>
	<path class="st0" d="M93.5,40.6v21.1h-9.6c-0.2,0-2.3,3.9-2.4,4.1l8.3,7L75.1,87.3L66.4,79c-0.3,0.2-3.1,2.3-6,2.3v13.5H39.3V81.3
		c0-0.2-4.6-2-4.9-2.1l-7.7,8.7L12.2,73.6l8.3-7.7c-0.2-0.3-2.3-4.1-2.3-4.1H4.7V40.8h13.5c0.2-2.9,2.1-6.5,2.3-6.7L12,24.5
		L26.4,9.9l8,8.3c0.3-0.2,4.9-2.3,4.9-2.3V6.2h21.1V16c2.9,0.2,5.7,2.3,6,2.4l8.8-8.3L89.7,25l-8.5,9c0.2,0.3,2.3,3.8,2.3,6.7
		L93.5,40.6L93.5,40.6z M60,49.8c0-6.2-5.1-11.3-11.3-11.3s-11.3,5.1-11.3,11.3C37.5,56,42.6,61,48.8,61S60,56,60,49.8z"/>
</g>
</svg>
