<?xml version="1.0" encoding="utf-8"?>
<!-- Generator: Adobe Illustrator 21.0.0, SVG Export Plug-In . SVG Version: 6.00 Build 0)  -->
<svg version="1.1" id="Layer_1" xmlns="http://www.w3.org/2000/svg" xmlns:xlink="http://www.w3.org/1999/xlink" x="0px" y="0px"
	 viewBox="0 0 400 400" style="enable-background:new 0 0 400 400;" xml:space="preserve">
<style type="text/css">
	.st0{fill:none;stroke:#FFFFFF;stroke-width:2;stroke-miterlimit:10;}
	.st1{fill:none;stroke:#FFFFFF;stroke-width:1.5;stroke-miterlimit:10;}
	.st2{fill:none;stroke:#1E1E38;stroke-width:2;stroke-linecap:round;stroke-linejoin:round;stroke-miterlimit:10;}
	.st3{fill:none;stroke:#1E1E38;stroke-width:1.5;stroke-linecap:round;stroke-linejoin:round;stroke-miterlimit:10;}
	.st4{fill:none;stroke:#FFFFFF;stroke-width:0.75;stroke-miterlimit:10;}
	.st5{fill:#FFFFFF;}
	.st6{fill:none;stroke:#1E1E38;stroke-linecap:round;stroke-linejoin:round;stroke-miterlimit:10;}
	.st7{fill:#1E1E38;}
	.st8{fill:#68B8D3;stroke:#FFFFFF;stroke-width:1.5;stroke-miterlimit:10;}
</style>
<g>
	<circle class="st0" cx="199.5" cy="210.3" r="65.7"/>
</g>
<g>
	<g>
		<rect x="67.8" y="183.1" class="st1" width="42.7" height="53.1"/>
	</g>
	<g>
		<rect x="67.8" y="183.1" class="st1" width="42.7" height="5.4"/>
	</g>
	<path class="st2" d="M114.9,246.3H63.6c-1.4,0-2.8-1.3-2.8-2.6v-67.1c0-1.3,1.5-2.3,2.8-2.3h51.3c1.4,0,2.6,1.1,2.6,2.3v67.1
		C117.5,244.9,116.3,246.3,114.9,246.3z"/>
	<g>
		<g>
			<g>
				<path class="st3" d="M89.1,219.2H72.8v-22.8h10.7c3.1,0,5.6,2.5,5.6,5.6V219.2z"/>
			</g>
		</g>
		<g>
			<g>
				<path class="st3" d="M89.1,219.2h16.4v-22.8H94.8c-3.1,0-5.6,2.5-5.6,5.6V219.2z"/>
			</g>
		</g>
	</g>
	<g>
		<g>
			<rect x="76.1" y="200.4" class="st4" width="9.2" height="9.2"/>
		</g>
		<g>
			<polygon class="st4" points="80,203.2 80,206.8 81.9,204.9 			"/>
		</g>
	</g>
	<g>
		<rect x="91.9" y="200.4" class="st5" width="11.4" height="0.9"/>
	</g>
	<g>
		<rect x="91.9" y="203.3" class="st5" width="11.4" height="0.9"/>
	</g>
	<g>
		<rect x="91.9" y="206.1" class="st5" width="11.4" height="0.9"/>
	</g>
	<g>
		<rect x="91.9" y="209" class="st5" width="11.4" height="0.9"/>
	</g>
	<g>
		<rect x="91.9" y="211.9" class="st5" width="11.4" height="0.9"/>
	</g>
	<g>
		<rect x="75.3" y="211.9" class="st5" width="11.4" height="0.9"/>
	</g>
	<g>
		<rect x="91.9" y="214.8" class="st5" width="6.9" height="0.9"/>
	</g>
	<line class="st6" x1="73.7" y1="225.6" x2="104.5" y2="225.6"/>
	<line class="st6" x1="73.7" y1="230.2" x2="104.5" y2="230.2"/>
</g>
<g>
	<line class="st2" x1="117.9" y1="215.2" x2="134.8" y2="215.2"/>
	<line class="st2" x1="137.8" y1="215.2" x2="139.2" y2="215.2"/>
	<line class="st2" x1="144.6" y1="215.2" x2="146" y2="215.2"/>
	<line class="st2" x1="151.4" y1="215.2" x2="152.8" y2="215.2"/>
	<line class="st2" x1="158.3" y1="215.2" x2="159.7" y2="215.2"/>
	<line class="st2" x1="165.1" y1="215.2" x2="166.5" y2="215.2"/>
	<line class="st2" x1="171.9" y1="215.2" x2="173.3" y2="215.2"/>
	<line class="st2" x1="178.8" y1="215.2" x2="180.2" y2="215.2"/>
	<line class="st2" x1="185.6" y1="215.2" x2="187" y2="215.2"/>
	<line class="st2" x1="192.5" y1="215.2" x2="193.9" y2="215.2"/>
	<line class="st2" x1="199.3" y1="215.2" x2="200.7" y2="215.2"/>
	<line class="st2" x1="206.1" y1="215.2" x2="207.5" y2="215.2"/>
	<line class="st2" x1="213" y1="215.2" x2="214.4" y2="215.2"/>
	<line class="st2" x1="219.8" y1="215.2" x2="221.2" y2="215.2"/>
	<line class="st2" x1="226.6" y1="215.2" x2="228" y2="215.2"/>
	<line class="st2" x1="233.5" y1="215.2" x2="234.9" y2="215.2"/>
	<line class="st2" x1="240.3" y1="215.2" x2="241.7" y2="215.2"/>
	<line class="st2" x1="247.1" y1="215.2" x2="248.5" y2="215.2"/>
	<line class="st2" x1="254" y1="215.2" x2="255.4" y2="215.2"/>
	<line class="st2" x1="260.8" y1="215.2" x2="262.2" y2="215.2"/>
	<line class="st2" x1="265.2" y1="215.2" x2="281.1" y2="215.2"/>
</g>
<g>
	<g>
		<line class="st2" x1="337.1" y1="182.9" x2="357.8" y2="182.9"/>
		<line class="st2" x1="330.2" y1="188.4" x2="349.7" y2="188.4"/>
		<line class="st2" x1="353.7" y1="188.4" x2="355.9" y2="188.4"/>
		<line class="st2" x1="359.8" y1="188.4" x2="362" y2="188.4"/>
	</g>
	<rect x="286.5" y="189.5" class="st1" width="26" height="41.6"/>
	<path class="st2" d="M314.3,240.7h-30c-0.9,0-2.5-1.1-2.5-2.2v-55.8c0-1.2,1.6-2,2.5-2h30c0.9,0,2.3,0.8,2.3,2v55.8
		C316.6,239.6,315.3,240.7,314.3,240.7z"/>
	<g>
		<g>
			<g>
				<path class="st2" d="M317,214.7h7.4c1.3,0,2.5-1,2.6-2.4c0-0.6,0-9.2,0-9.6c0-2.1,1.7-3.9,3.9-3.9c2.1,0,3.9,1.7,3.9,3.9v22.2
					c0,1.1,0.9,2.1,2.1,2.1c1.1,0,2.1-0.9,2.1-2.1v-12.8c0-2.1,1.7-3.9,3.9-3.9c2.1,0,3.9,1.7,3.9,3.9c0,0.8,0.7,1.5,1.5,1.5h6.6"/>
			</g>
		</g>
		<g>
			<g>
				<path class="st2" d="M379.4,213.6L379.4,213.6c0-4.4-3.6-8-8-8H363c-4.4,0-8,3.6-8,8l0,0c0,4.4,3.6,8,8,8h8.4
					C375.8,221.7,379.4,218,379.4,213.6z"/>
			</g>
			<g>
				<path class="st2" d="M366.8,213.6L366.8,213.6c0-0.8-0.7-1.5-1.5-1.5h-2.8c-0.8,0-1.5,0.7-1.5,1.5l0,0c0,0.8,0.7,1.5,1.5,1.5
					h2.8C366.2,215.1,366.8,214.5,366.8,213.6z"/>
			</g>
		</g>
	</g>
	<g>
		<circle class="st3" cx="298.8" cy="209.6" r="7.7"/>
	</g>
	<g>
		<polygon class="st5" points="297.4,213.5 297.4,206.3 301.8,209.9 		"/>
	</g>
	<g>
		<rect x="288.7" y="194" class="st5" width="21.1" height="2.4"/>
	</g>
	<line class="st3" x1="289" y1="224.6" x2="309.8" y2="224.6"/>
	<line class="st1" x1="291.2" y1="222.7" x2="291.2" y2="226.6"/>
</g>
<g>
	<path class="st2" d="M24.4,198.9c0.3,0.1,19.9,0,19.9,0"/>
	<path class="st2" d="M31.8,204.7c0.3,0.1,19.9,0,19.9,0"/>
	<path class="st2" d="M24.1,204.7c0.1,0,4.7,0,4.7,0"/>
	<path class="st2" d="M18.6,204.7c0,0,2.4,0,2.4,0"/>
</g>
<g>
	<path class="st2" d="M40.8,246"/>
	<g>
		<path class="st2" d="M44.6,237.6c1.3,1.1,2,2.7,2,4.4c0,3.2-2.6,5.8-5.8,5.8c-3.2,0-5.8-2.6-5.8-5.8c0-1.8,0.8-3.5,2.3-4.6"/>
		<line class="st2" x1="40.8" y1="234.7" x2="40.8" y2="241.7"/>
	</g>
	<polyline class="st2" points="40.8,228 40.8,216.3 57.8,216.3 	"/>
	<polyline class="st2" points="40.8,254.1 40.8,269.3 81.7,269.3 	"/>
</g>
<g>
	<g>
		<g>
			<g>
				<g>
					<path class="st5" d="M93.6,272.1c1-1.1,2.5-1.7,4.1-1.7c1.6,0,3,0.7,4,1.8c0,0-1.7,1.4-4.1,1.3C95,273.5,93.6,272.1,93.6,272.1
						z"/>
				</g>
				<g>
					
						<ellipse transform="matrix(5.843703e-03 -1 1 5.843703e-03 -168.9627 362.1078)" class="st5" cx="97.6" cy="266" rx="3" ry="3"/>
				</g>
			</g>
			
				<ellipse transform="matrix(5.843703e-03 -1 1 5.843703e-03 -171.3536 364.4571)" class="st2" cx="97.6" cy="268.4" rx="9.7" ry="9.7"/>
		</g>
		<g>
			<g>
				<g>
					<path class="st5" d="M88.4,300.9c1-1.1,2.5-1.7,4.1-1.7s3,0.7,4,1.8c0,0-1.7,1.4-4.1,1.3C89.8,302.3,88.4,300.9,88.4,300.9z"/>
				</g>
				<g>
					
						<ellipse transform="matrix(5.843703e-03 -1 1 5.843703e-03 -202.9028 385.5466)" class="st5" cx="92.5" cy="294.8" rx="3" ry="3"/>
				</g>
			</g>
			
				<ellipse transform="matrix(5.843703e-03 -1 1 5.843703e-03 -205.2937 387.896)" class="st2" cx="92.4" cy="297.2" rx="9.7" ry="9.7"/>
		</g>
		<line class="st2" x1="107.3" y1="272" x2="129.5" y2="277.4"/>
		<line class="st2" x1="103" y1="295.9" x2="130.9" y2="290.1"/>
		<g>
			<g>
				<g>
					<path class="st5" d="M135.6,290.2c1.9-2,4.6-3.2,7.6-3.2c3,0,5.7,1.3,7.5,3.3c0,0-3.2,2.5-7.6,2.5
						C138.3,292.7,135.6,290.2,135.6,290.2z"/>
				</g>
				<g>
					
						<ellipse transform="matrix(5.843703e-03 -1 1 5.843703e-03 -136.3001 420.3711)" class="st5" cx="143.3" cy="278.7" rx="5.6" ry="5.6"/>
				</g>
			</g>
			
				<ellipse transform="matrix(5.843703e-03 -1 1 5.843703e-03 -140.0011 424.033)" class="st2" cx="143.3" cy="282.4" rx="14.5" ry="14.5"/>
		</g>
	</g>
	<polyline class="st2" points="142.6,297.5 142.5,311.8 199.2,312.1 199.3,273.5 	"/>
	<g>
		<path class="st2" d="M199.9,263.8l-1,0c-4.4,0-7.9-3.6-7.8-7.9l0.1-13.6c0-4.4,3.6-7.9,7.9-7.9l1,0c4.4,0,7.9,3.6,7.9,7.9
			l-0.1,13.6C207.8,260.3,204.2,263.8,199.9,263.8z"/>
		<path class="st2" d="M214.3,255.7l-2.2,0c-0.5,6.6-6,11.8-12.7,11.7c-6.7,0-12.2-5.3-12.6-11.9l-2.4,0"/>
		<line class="st2" x1="192" y1="273" x2="206.6" y2="273.1"/>
		<line class="st2" x1="199.3" y1="272.8" x2="199.3" y2="268"/>
		<line class="st2" x1="191.1" y1="245.1" x2="196.9" y2="245.2"/>
		<line class="st2" x1="191.1" y1="249" x2="196.9" y2="249"/>
		<line class="st2" x1="191" y1="252.5" x2="196.9" y2="252.5"/>
		<line class="st2" x1="202.1" y1="245.2" x2="207.9" y2="245.2"/>
		<line class="st2" x1="202" y1="249.1" x2="207.9" y2="249.1"/>
		<line class="st2" x1="202" y1="252.5" x2="207.8" y2="252.6"/>
	</g>
</g>
<g>
	<path class="st2" d="M81.9,164.3c0,0.5,0.4,0.9,0.9,0.8c0,0,1.8-0.1,3.3,0c0.5,0,1.5,0.3,2.5,0.5c1.5,0.4,3.2,0.8,4.8,0.9
		c0.2,0,0.3,0.1,0.5,0.1c0,0,0,0,0.1,0c0.2,0,0.5,0,0.7,0l2.6,0c0.1,0,0.2,0,0.3,0c0,0,0,0,0.1,0c1.5,0,2.7-1.2,2.7-2.7
		c0-0.5-0.1-0.8-0.2-1.1c0.9-0.4,1.5-1.2,1.5-2.2c0-0.5-0.1-1-0.3-1.3c0.5-0.5,0.8-1.2,0.8-1.9c0-0.7-0.3-1.4-0.8-1.9
		c0.2-0.4,0.4-0.9,0.4-1.4c0-1.5-1.2-2.7-2.7-2.7h-6.8c0-0.4,0-0.7,0-1c0-0.3,0-0.5,0-0.6c0-0.2,0-0.4,0-0.6
		c0.1-1.7,0.1-3.3-0.9-4.4c-0.6-0.6-1.5-0.9-2.8-0.9c-0.5,0-0.9,0.4-0.9,0.9v3.3c0,1.5-2.1,3.7-2.8,4.1h-2.1c-0.5,0-0.9,0.4-0.9,0.9
		"/>
	<rect x="77" y="151.2" class="st5" width="5.7" height="15"/>
</g>
<g>
	<path class="st2" d="M150.7,137.9c-0.3,0-0.5,0-0.8,0.1c-1.2-2.6-3.8-4.4-6.8-4.4c-1,0-1.9,0.2-2.7,0.5c-1.6-3.1-4.9-5.2-8.6-5.2
		c-3.7,0-6.9,2-8.5,5c-0.7-0.2-1.5-0.4-2.3-0.4c-4.1,0-7.4,3.3-7.4,7.4c0,4.1,3.3,7.4,7.4,7.4c1.9,0,28.4,0,29.7,0
		c2.9,0,5.2-2.3,5.2-5.2C156,140.2,153.6,137.9,150.7,137.9z"/>
	<line class="st2" x1="122.2" y1="158.1" x2="138.8" y2="158.1"/>
	<line class="st2" x1="111.6" y1="163.5" x2="137.5" y2="163.5"/>
	<line class="st2" x1="142.4" y1="158.1" x2="148.5" y2="158.1"/>
</g>
<g>
	<path class="st2" d="M271.5,298.8h-28.2c-1.9,0-4.4-1.9-4.4-4.1v-16.4c0-2.2,2.4-4,4.4-4h1v-7.8c0-0.4,0.2-0.7,0.5-0.8
		c0.3-0.1,0.7-0.1,1,0.1l9.6,8.5h16.2c2,0,4,1.9,4,4v16.4C275.5,296.8,273.5,298.8,271.5,298.8z"/>
	<path class="st1" d="M245.7,294.2h22.4c0.9,0,1.6-0.7,1.6-1.6v-11.8c0-0.9-0.7-1.6-1.6-1.6h-14.9l-5-5v5h-2.5
		c-0.9,0-1.6,0.7-1.6,1.6v11.8C244.1,293.5,244.9,294.2,245.7,294.2z"/>
	<polygon class="st7" points="255.8,284.9 255.8,289.3 259.7,287.1 	"/>
	<path d="M277.7,273.7c-0.1-0.2-0.2-0.4-0.3-0.7L277.7,273.7z"/>
</g>
<g>
	<rect x="172" y="141.9" class="st8" width="54.7" height="33.5"/>
	<path class="st1" d="M213.3,167.6h-28.1c-0.9,0-1.6-0.7-1.6-1.6v-15.9c0-0.9,0.7-1.6,1.6-1.6h28.1c0.9,0,1.6,0.7,1.6,1.6v15.9
		C214.9,166.9,214.2,167.6,213.3,167.6z"/>
	<path class="st2" d="M230.1,180h-61.5c-0.5,0-0.9-0.4-0.9-0.9v-40.8c0-0.5,0.4-0.9,0.9-0.9h61.5c0.5,0,0.9,0.4,0.9,0.9v40.8
		C231,179.6,230.6,180,230.1,180z"/>
	<path class="st2" d="M231.8,186.5h-64.9c-1.5,0-2.8-1.2-2.8-2.8v-2.8c0-0.5,0.4-0.9,0.9-0.9h68.7c0.5,0,0.9,0.4,0.9,0.9v2.8
		C234.5,185.3,233.3,186.5,231.8,186.5z"/>
	<g>
		<polygon class="st1" points="196.4,161.6 196.4,154.4 202.2,158 		"/>
	</g>
	<path class="st5" d="M222.6,179.7c-0.3-1-1.1-1.7-2.1-1.7c-0.3,0-0.5,0.1-0.8,0.1c-0.4-0.6-1.1-1.1-1.9-1.1c-0.1,0-0.3,0-0.4,0
		v-2.5c0-1.3-1-2.3-2.2-2.3s-2.2,1-2.2,2.3v6.4c-0.9-0.5-2.1-0.9-2.9,0.1c-1.5,1.7,0.3,4.3,1.9,6.7c0.7,1.1,1.7,2.5,1.7,3.1v2.4
		c0,0.5,0.4,0.9,0.9,0.9h8.1c0.5,0,0.9-0.4,0.9-0.9c0-1.3,0.5-2.6,0.9-3.7c0.4-1,0.7-2,0.7-2.8v-4.3
		C225.1,180,223.6,179.4,222.6,179.7z M223.3,186.7c0,0.6-0.3,1.4-0.6,2.3c-0.4,1-0.8,2.2-0.9,3.4h-6.4v-1.5c0-1.1-0.9-2.5-2-4.1
		c-1-1.4-2.6-3.9-2-4.5c0.3-0.1,1.2,0.6,1.6,0.9v1.3c0,0.5,0.4,0.9,0.9,0.9c0.5,0,0.9-0.4,0.9-0.9v-1.8v-8c0-0.3,0.2-0.5,0.4-0.5
		s0.4,0.2,0.4,0.5v4.8v2.5c0,0.5,0.4,0.9,0.9,0.9c0.5,0,0.9-0.4,0.9-0.9v-2.5c0-0.3,0.2-0.5,0.4-0.5c0.2,0,0.4,0.2,0.4,0.4
		c0,0,0,0.1,0,0.1v2.5c0,0.5,0.4,0.9,0.9,0.9s0.9-0.4,0.9-0.9v-1.3c0-0.1,0-0.1,0-0.2c0-0.3,0.2-0.5,0.4-0.5c0.2,0,0.4,0.2,0.4,0.5
		v1.6c0,0,0,0,0,0v1.1c0,0.5,0.4,0.9,0.9,0.9s0.9-0.4,0.9-0.9v-1.2c0-0.3,0.2-0.5,0.4-0.5c0,0,0.2,0.3,0.2,1V186.7z"/>
	<line class="st2" x1="184.2" y1="170.7" x2="214.4" y2="170.7"/>
</g>
<line class="st2" x1="309" y1="138.7" x2="329.7" y2="138.7"/>
<g>
	<path class="st2" d="M230.1,105.7c-0.1,0-0.3,0-0.4-0.1c-0.3-0.2-0.5-0.5-0.5-0.8l0.1-8.1c0-0.3,0.2-0.6,0.5-0.8
		c0.3-0.1,0.7-0.1,0.9,0.1l5.4,4c0.2,0.2,0.4,0.4,0.4,0.7s-0.1,0.5-0.4,0.7l-5.5,4.1C230.5,105.7,230.3,105.7,230.1,105.7z"/>
	<polyline class="st2" points="196.4,134.6 196.4,100.8 223.6,100.8 	"/>
	<polyline class="st2" points="241.7,100.8 269.6,100.8 269.6,118.3 	"/>
</g>
<g>
	<circle class="st0" cx="284" cy="126.8" r="3.5"/>
	<path class="st2" d="M284,142.4c-0.2,0-0.4-0.1-0.6-0.2c-0.3-0.3-8.1-7.5-8.1-15.3c0-4.8,3.9-8.7,8.7-8.7c4.8,0,8.7,3.9,8.7,8.7
		c0,7.8-7.7,15-8.1,15.3C284.4,142.3,284.2,142.4,284,142.4z"/>
	<path class="st2" d="M292.5,138.7c0.8,2.2,1.3,4.7,1.3,7.2c0,11.5-9.4,20.8-21,20.8c-11.6,0-21-9.3-21-20.8
		c0-11.5,9.4-20.8,21-20.8"/>
	<path class="st2" d="M257.6,131.5c0,0,5.8,3.1,16.1,2.7"/>
	<line class="st2" x1="251.8" y1="145.9" x2="293.8" y2="145.9"/>
	<path class="st2" d="M257.4,159.3c0,0,13.2-6.4,31.1,0"/>
	<path class="st2" d="M272.3,166.7c-22-18.5-4.6-37-4.6-37"/>
	<path class="st2" d="M284.3,145.9c0,0,0.1,14.1-12.7,20.8"/>
</g>
<g>
	<rect x="263.5" y="251.2" class="st1" width="71.9" height="10.6"/>
	<line class="st6" x1="267" y1="253.7" x2="267" y2="259.4"/>
	<g>
		<g>
			<path class="st6" d="M329,254.4c-0.9,0-1.6,0.7-1.6,1.6c0,0.9,0.7,1.6,1.6,1.6c0.9,0,1.6-0.7,1.6-1.6
				C330.6,255.1,329.9,254.4,329,254.4z"/>
		</g>
		<line class="st6" x1="330.1" y1="257.4" x2="331.5" y2="258.7"/>
	</g>
</g>
<g>
	<rect x="299.3" y="275.4" class="st5" width="10.6" height="8.1"/>
	<path class="st3" d="M298.8,283.8c-0.1,0-0.3,0-0.4-0.1l-6.9-3.4c-0.3-0.2-0.5-0.5-0.5-0.8c0-0.3,0.2-0.6,0.5-0.8l6.9-3.4
		c0.3-0.1,0.6-0.1,0.9,0c0.3,0.2,0.4,0.4,0.4,0.8v6.8c0,0.3-0.2,0.6-0.4,0.8C299.2,283.8,299,283.8,298.8,283.8z"/>
	<rect x="339" y="275.4" class="st5" width="4.7" height="8.1"/>
	<path class="st3" d="M338.1,283.8h-27.6c-0.5,0-0.9-0.4-0.9-0.9v-6.8c0-0.5,0.4-0.9,0.9-0.9h27.6c0.5,0,0.9,0.4,0.9,0.9v6.8
		C339,283.4,338.6,283.8,338.1,283.8z"/>
	<path class="st3" d="M342,282.9v3.1c0,0.5-0.4,0.9-0.9,0.9h-16"/>
</g>
<g>
	<line class="st2" x1="244.4" y1="176.5" x2="267.7" y2="176.5"/>
	<line class="st2" x1="237.4" y1="181.9" x2="254.3" y2="181.9"/>
</g>
<path d="M314.3,238.9L314.3,238.9L314.3,238.9z"/>
<g>
	<rect x="350" y="235" class="st1" width="6.3" height="6.3"/>
	<rect x="350" y="245.6" class="st1" width="6.3" height="6.3"/>
	<line class="st2" x1="360.8" y1="235.8" x2="377.8" y2="235.8"/>
	<line class="st2" x1="360.8" y1="240.6" x2="371.7" y2="240.6"/>
	<line class="st2" x1="360.8" y1="251" x2="368.8" y2="251"/>
	<line class="st2" x1="360.8" y1="246.3" x2="377.8" y2="246.3"/>
</g>
</svg>
