<?xml version="1.0" encoding="utf-8"?>
<!-- Generator: Adobe Illustrator 21.0.0, SVG Export Plug-In . SVG Version: 6.00 Build 0)  -->
<svg version="1.1" id="Layer_1" xmlns="http://www.w3.org/2000/svg" xmlns:xlink="http://www.w3.org/1999/xlink" x="0px" y="0px"
	 viewBox="0 0 400 400" style="enable-background:new 0 0 400 400;" xml:space="preserve">
<style type="text/css">
	.st0{fill:none;stroke:#FFFFFF;stroke-width:2;stroke-miterlimit:10;}
	.st1{fill:#FFFFFF;stroke:#66B8D3;stroke-width:1.5;stroke-miterlimit:10;}
	.st2{fill:none;stroke:#66B8D3;stroke-width:1.5;stroke-miterlimit:10;}
	.st3{fill:none;stroke:#FFFFFF;stroke-width:1.5;stroke-linecap:round;stroke-linejoin:round;stroke-miterlimit:10;}
	.st4{fill:#FFFFFF;}
	.st5{fill:#69B8D3;}
	.st6{fill:none;stroke:#FFFFFF;stroke-width:1.5;stroke-miterlimit:10;}
</style>
<path class="st0" d="M296,111.6c-8.7-8.9-20.2-14.2-32.6-14.8c1.6-4,2.4-8.2,2.4-12.6c0-18.9-15.3-34.2-34.2-34.2
	c-11.6,0-22.1,5.7-28.5,15.3c-6.6-7.4-16-11.6-25.9-11.6c-19.2,0-34.8,15.6-34.8,34.8c0,2.7,0.3,5.5,1,8.1
	c-26.6,0.6-48,22.4-48,49.1c0,27.1,22,49.1,49.1,49.1H261c27.1,0,49.1-22,49.1-49.1C309.9,132.9,305,120.8,296,111.6z"/>
<g>
	<rect x="155.2" y="187" class="st1" width="93.9" height="34"/>
	<path class="st2" d="M249.1,173.8c0.4,0,0.8-0.3,0.8-0.8v-32.7c0-0.4-0.4-0.8-0.8-0.8h-93.2c-0.4,0-0.8,0.4-0.8,0.8V173
		c0,0.4,0.4,0.8,0.8,0.8h45.8v13h-45.8c-0.4,0-0.8,0.4-0.8,0.8v32.7c0,0.4,0.4,0.8,0.8,0.8h45.8v13h-45.8c-0.4,0-0.8,0.4-0.8,0.8
		v32.7c0,0.4,0.4,0.8,0.8,0.8h93.2c0.4,0,0.8-0.3,0.8-0.8v-32.7c0-0.4-0.4-0.8-0.8-0.8h-45.8v-13h45.8c0.4,0,0.8-0.4,0.8-0.8v-32.7
		c0-0.4-0.4-0.8-0.8-0.8h-45.8v-13H249.1z"/>
	<circle class="st2" cx="171.4" cy="155.9" r="7.4"/>
	<line class="st2" x1="189.1" y1="155.9" x2="238.7" y2="155.9"/>
	<circle class="st2" cx="171.4" cy="203.2" r="7.4"/>
	<line class="st2" x1="189.1" y1="203.2" x2="238.7" y2="203.2"/>
	<circle class="st2" cx="171.4" cy="251.8" r="7.4"/>
	<line class="st2" x1="189.1" y1="251.8" x2="238.7" y2="251.8"/>
</g>
<g>
	<path class="st2" d="M291,255.7c-2.4,0-4.4-2.1-4.4-4.6c0-2.6,2-4.6,4.4-4.6s4.4,2.1,4.4,4.6C295.5,253.6,293.5,255.7,291,255.7z"
		/>
	<circle class="st2" cx="222.7" cy="93.9" r="3.9"/>
	<circle class="st2" cx="268.6" cy="139.1" r="3.9"/>
	<circle class="st2" cx="298.1" cy="156.6" r="3.9"/>
	<circle class="st2" cx="269.1" cy="221.7" r="3.9"/>
	<circle class="st2" cx="286.2" cy="229.4" r="3.9"/>
	<circle class="st2" cx="269.1" cy="291.8" r="3.9"/>
	<circle class="st2" cx="108.7" cy="262.7" r="3.9"/>
	<circle class="st2" cx="303.3" cy="204" r="3.9"/>
	<circle class="st2" cx="171.3" cy="96.4" r="3.9"/>
	<circle class="st2" cx="118.5" cy="142.4" r="3.9"/>
	<circle class="st2" cx="98" cy="197.6" r="3.9"/>
	<circle class="st2" cx="202.6" cy="107.1" r="3.6"/>
	<polyline class="st2" points="214.5,139.1 214.5,105 222.7,105 222.7,98.2 	"/>
	<polyline class="st2" points="189.6,139.1 189.6,96.4 175.7,96.4 	"/>
	<line class="st2" x1="202.6" y1="139.5" x2="202.6" y2="110.7"/>
	<line class="st2" x1="155.2" y1="156.6" x2="136.9" y2="156.6"/>
	<polyline class="st2" points="136.2,169.6 136.2,142.7 122.6,142.7 	"/>
	<line class="st2" x1="249.9" y1="156.6" x2="267.9" y2="156.6"/>
	<polyline class="st2" points="268.6,143.3 268.6,169.9 283.9,169.9 283.9,157 294.2,157 	"/>
	<polyline class="st2" points="100.3,200.3 115.2,215.2 139.4,215.2 139.4,204 155.2,204 	"/>
	<line class="st2" x1="250.5" y1="204" x2="300.3" y2="204"/>
	<line class="st2" x1="269.1" y1="204" x2="269.1" y2="218"/>
	<line class="st2" x1="286.2" y1="203.9" x2="286.2" y2="225.9"/>
	<polyline class="st2" points="155.2,251.2 136.2,251.2 136.2,262.7 112.1,262.7 	"/>
	<polyline class="st2" points="249.1,251.2 267.8,251.2 269.1,251.2 269.1,288.2 	"/>
	<line class="st2" x1="287.2" y1="251.2" x2="266.6" y2="251.2"/>
</g>
<g>
	<path class="st2" d="M85.7,212.8H26.5c-0.8,0-1.5-0.7-1.5-1.5v-38.2c0-0.8,0.7-1.5,1.5-1.5h59.3c0.8,0,1.5,0.7,1.5,1.5v38.2
		C87.2,212.1,86.5,212.8,85.7,212.8z"/>
	<rect x="28.3" y="175.1" class="st3" width="55.5" height="32.3"/>
	<circle class="st4" cx="56.1" cy="209.9" r="0.4"/>
	<circle class="st5" cx="56.1" cy="210.3" r="0.7"/>
	<rect x="45.2" y="217.7" class="st2" width="21.7" height="2.8"/>
	<rect x="49.7" y="212.8" class="st2" width="12.9" height="4.8"/>
	<line class="st2" x1="35.6" y1="184.6" x2="64.1" y2="184.6"/>
	<line class="st2" x1="50" y1="187.9" x2="54.9" y2="187.9"/>
	<line class="st2" x1="35.6" y1="187.9" x2="46.9" y2="187.9"/>
</g>
<g>
	<path class="st2" d="M298.7,342.4h-59.3c-0.8,0-1.5-0.7-1.5-1.5v-38.2c0-0.8,0.7-1.5,1.5-1.5h59.3c0.8,0,1.5,0.7,1.5,1.5v38.2
		C300.2,341.7,299.5,342.4,298.7,342.4z"/>
	<rect x="241.3" y="304.8" class="st3" width="55.5" height="32.3"/>
	<circle class="st4" cx="269.1" cy="339.5" r="0.4"/>
	<circle class="st5" cx="269.1" cy="339.9" r="0.7"/>
	<rect x="258.2" y="347.2" class="st2" width="21.7" height="2.8"/>
	<rect x="262.6" y="342.4" class="st2" width="12.9" height="4.8"/>
	<line class="st2" x1="248.6" y1="314.2" x2="277.1" y2="314.2"/>
	<line class="st2" x1="263" y1="317.6" x2="267.9" y2="317.6"/>
	<line class="st2" x1="248.6" y1="317.6" x2="259.9" y2="317.6"/>
</g>
<path class="st2" d="M374.1,220.3h-59.3c-0.8,0-1.5-0.7-1.5-1.5v-38.2c0-0.8,0.7-1.5,1.5-1.5h59.3c0.8,0,1.5,0.7,1.5,1.5v38.2
	C375.6,219.6,375,220.3,374.1,220.3z"/>
<rect x="316.7" y="182.7" class="st3" width="55.5" height="32.3"/>
<circle class="st4" cx="344.5" cy="217.4" r="0.4"/>
<circle class="st5" cx="344.5" cy="217.8" r="0.7"/>
<rect x="333.6" y="225.1" class="st2" width="21.7" height="2.8"/>
<rect x="338.1" y="220.3" class="st2" width="12.9" height="4.8"/>
<line class="st2" x1="324" y1="192.1" x2="352.5" y2="192.1"/>
<line class="st2" x1="338.4" y1="195.5" x2="343.3" y2="195.5"/>
<line class="st2" x1="324" y1="195.5" x2="335.3" y2="195.5"/>
<g>
	<path class="st6" d="M267.2,105.2c5.7,0,9.9,1.6,10.1,3c0,0,0,0,0,0.1v0.3c-0.4,1.4-4.6,2.9-9.9,2.9c-5.7,0-10.1-1.6-10.1-3.1
		C257.1,106.8,261.3,105.2,267.2,105.2z"/>
	<path class="st6" d="M277.1,116.9v0.3v4.9v0.1v5.2c-0.4,1.5-4.6,3-9.9,3c-5.7,0-10.1-1.8-10.1-3.3v-4.9v-0.1v-4.9v-0.3v-4.6v-0.4
		v-3.1c1.9,1.6,6,2.4,10.1,2.4c3.9,0,8-0.8,9.9-2.4v3v0.4V116.9z"/>
	<path class="st6" d="M257.1,113.5c0,0,9.9,6.5,20,0"/>
	<path class="st6" d="M257.1,118.5c0,0,9.9,6.5,20,0"/>
	<path class="st6" d="M257.1,123.4c0,0,9.9,6.5,20,0"/>
</g>
<g>
	<path class="st6" d="M222.7,61.5c5.6,0,9.8,1.6,9.9,3c0,0,0,0,0,0.1v0.3c-0.4,1.4-4.6,2.9-9.8,2.9c-5.6,0-9.9-1.6-9.9-3.1
		C212.8,63.2,216.9,61.5,222.7,61.5z"/>
	<path class="st6" d="M232.5,73.2v0.3v4.9v0.1v5.2c-0.4,1.5-4.6,3-9.8,3c-5.6,0-9.9-1.8-9.9-3.3v-4.9v-0.1v-4.9v-0.3v-4.6v-0.4v-3.1
		c1.9,1.6,5.9,2.4,9.9,2.4c3.9,0,7.9-0.8,9.8-2.4v3v0.4V73.2z"/>
	<path class="st6" d="M212.8,69.8c0,0,9.8,6.5,19.7,0"/>
	<path class="st6" d="M212.8,74.8c0,0,9.8,6.5,19.7,0"/>
	<path class="st6" d="M212.8,79.7c0,0,9.8,6.5,19.7,0"/>
</g>
<g>
	<path class="st6" d="M85,247.4c6.6,0,11.5,1.9,11.7,3.5c0,0,0,0,0,0.2v0.3c-0.5,1.6-5.4,3.4-11.5,3.4c-6.6,0-11.7-1.9-11.7-3.7
		C73.3,249.3,78.2,247.4,85,247.4z"/>
	<path class="st6" d="M96.5,261.2v0.3v5.8v0.2v6.1c-0.5,1.8-5.4,3.5-11.5,3.5c-6.6,0-11.7-2.1-11.7-3.8v-5.8v-0.2v-5.8v-0.3v-5.4
		v-0.5v-3.7c2.2,1.9,6.9,2.9,11.7,2.9c4.6,0,9.3-1,11.5-2.9v3.5v0.5V261.2z"/>
	<path class="st6" d="M73.3,257.2c0,0,11.5,7.7,23.2,0"/>
	<path class="st6" d="M73.3,263.1c0,0,11.5,7.7,23.2,0"/>
	<path class="st6" d="M73.3,268.9c0,0,11.5,7.7,23.2,0"/>
</g>
<g>
	<line class="st3" x1="343.7" y1="149.4" x2="343.7" y2="164.2"/>
	<polyline class="st3" points="346.9,152.4 343.7,149 340.8,152.4 	"/>
</g>
<g>
	<line class="st3" x1="123.7" y1="225.8" x2="138.6" y2="225.8"/>
	<polyline class="st3" points="126.7,222.5 123.3,225.8 126.7,228.7 	"/>
</g>
<g>
	<line class="st3" x1="278.7" y1="273.8" x2="278.7" y2="258.9"/>
	<polyline class="st3" points="275.4,270.8 278.7,274.2 281.5,270.8 	"/>
</g>
<g>
	<line class="st3" x1="144.2" y1="239.5" x2="129.3" y2="239.5"/>
	<polyline class="st3" points="141.2,242.8 144.6,239.5 141.2,236.6 	"/>
</g>
<g>
	<line class="st3" x1="356.3" y1="163.8" x2="356.3" y2="149"/>
	<polyline class="st3" points="353,160.8 356.3,164.2 359.2,160.8 	"/>
</g>
<path class="st1" d="M328.9,163.6h-17.8c-3,0-5.4-2.4-5.4-5.4s2.4-5.4,5.4-5.4c0.2,0,0.3,0,0.4,0c1-3.9,4.4-6.7,8.5-6.7
	c4,0,7.5,2.8,8.5,6.7c0.2,0,0.3,0,0.4,0c3,0,5.4,2.4,5.4,5.4C334.3,161.1,331.9,163.6,328.9,163.6z"/>
<path class="st1" d="M95.2,156.1c-0.7,0-1.4-0.3-2-0.9c-0.6-0.7-1.6-1-2.5-0.6c-0.3,0.1-0.5,0.1-0.8,0.1c-1.2,0-2.3-0.9-2.6-2.1
	c-0.2-0.9-0.9-1.6-1.8-1.8c-0.7-0.2-1.4-0.6-1.8-1.3c-0.4-0.6-0.5-1.4-0.2-2.1c0.3-0.9,0.1-1.9-0.6-2.5c-0.5-0.5-0.9-1.2-0.9-2
	s0.3-1.4,0.9-2c0.7-0.6,1-1.6,0.6-2.5c-0.2-0.7-0.2-1.5,0.2-2.1c0.4-0.6,1-1.1,1.8-1.3c0.9-0.2,1.6-0.9,1.8-1.8
	c0.3-1.2,1.3-2.1,2.6-2.1c0.3,0,0.5,0.1,0.8,0.1c0.2,0.1,0.5,0.1,0.7,0.1l0,0c0.7,0,1.3-0.3,1.8-0.8s1.2-0.9,2-0.9
	c0.7,0,1.4,0.3,2,0.9c0.6,0.7,1.6,1,2.5,0.6c0.3-0.1,0.5-0.1,0.8-0.1c1.2,0,2.3,0.9,2.6,2.1c0.2,0.9,0.9,1.6,1.8,1.8
	c0.7,0.2,1.4,0.6,1.8,1.3c0.4,0.6,0.5,1.4,0.2,2.1c-0.3,0.9-0.1,1.9,0.6,2.5c0.5,0.5,0.9,1.2,0.9,2c0,0.7-0.3,1.4-0.9,2
	c-0.7,0.6-1,1.6-0.6,2.5c0.2,0.7,0.2,1.5-0.2,2.1c-0.4,0.6-1,1.1-1.8,1.3c-0.9,0.2-1.6,0.9-1.8,1.8c-0.3,1.2-1.3,2.1-2.6,2.1
	c-0.3,0-0.5-0.1-0.8-0.1c-0.9-0.3-1.9,0-2.5,0.6C96.7,155.8,95.9,156.1,95.2,156.1z"/>
<circle class="st2" cx="95.2" cy="142.9" r="3.1"/>
<path class="st1" d="M99.7,128.1c-0.5,0-1-0.3-1.4-0.7c-0.4-0.5-1.1-0.8-1.7-0.6c-0.2,0.1-0.4,0.1-0.6,0c-0.9-0.1-1.6-0.7-1.8-1.6
	c-0.1-0.7-0.6-1.2-1.2-1.4c-0.5-0.1-1-0.5-1.2-1s-0.3-1.1-0.1-1.5c0.2-0.6,0.1-1.3-0.4-1.8c-0.4-0.4-0.6-0.9-0.5-1.5
	c0-0.5,0.3-1,0.7-1.4c0.5-0.4,0.8-1.1,0.6-1.7c-0.1-0.5-0.1-1.1,0.2-1.5c0.3-0.4,0.8-0.8,1.3-0.8c0.7-0.1,1.2-0.6,1.4-1.2
	c0.2-0.9,1-1.4,1.9-1.4c0.2,0,0.4,0.1,0.6,0.1s0.3,0.1,0.5,0.1l0,0c0.5,0,0.9-0.1,1.3-0.5s0.9-0.6,1.5-0.5c0.5,0,1,0.3,1.4,0.7
	c0.4,0.5,1.1,0.8,1.7,0.6c0.2-0.1,0.4-0.1,0.6,0c0.9,0.1,1.6,0.7,1.8,1.6c0.1,0.7,0.6,1.2,1.2,1.4c0.5,0.1,1,0.5,1.2,1
	s0.3,1.1,0.1,1.5c-0.2,0.6-0.1,1.3,0.4,1.8c0.4,0.4,0.6,0.9,0.5,1.5s-0.3,1-0.7,1.4c-0.5,0.4-0.8,1.1-0.6,1.7
	c0.1,0.5,0.1,1.1-0.2,1.5c-0.3,0.4-0.8,0.8-1.3,0.8c-0.7,0.1-1.2,0.6-1.4,1.2c-0.2,0.9-1,1.4-1.9,1.4c-0.2,0-0.4-0.1-0.6-0.1
	c-0.6-0.2-1.3-0.1-1.8,0.4C100.8,127.9,100.3,128.1,99.7,128.1z"/>
<ellipse transform="matrix(5.698641e-02 -0.9984 0.9984 5.698641e-02 -23.9067 212.0017)" class="st2" cx="100.3" cy="118.7" rx="2.3" ry="2.3"/>
<g>
	<rect x="152.8" y="109" class="st0" width="23.4" height="16.2"/>
	<path class="st0" d="M167.9,109v-2.1c0-0.6,0.5-1.2,1.2-1.2h3.3c0.6,0,1.2,0.5,1.2,1.2v2.1H167.9L167.9,109z"/>
</g>
<g>
	<rect x="302.6" y="240.7" class="st0" width="36.8" height="25.6"/>
	<path class="st0" d="M315.7,240.7h-8.9v-3.4c0-1,0.8-1.8,1.8-1.8h5.1c1,0,1.8,0.8,1.8,1.8L315.7,240.7L315.7,240.7z"/>
</g>
</svg>
