<?xml version="1.0" encoding="UTF-8" standalone="no"?>
<!DOCTYPE svg  PUBLIC '-//W3C//DTD SVG 1.1//EN'  'http://www.w3.org/Graphics/SVG/1.1/DTD/svg11.dtd'>
<svg version="1.1" xmlns="http://www.w3.org/2000/svg">
<defs>
<font id="AvenirNextLTPro-Bold" horiz-adv-x="646">
<font-face underline-position="-250" units-per-em="1000" underline-thickness="50" x-height="498" panose-1="2 11 8 4 2 2 2 2 2 4" font-weight="700" font-family="o" cap-height="708" ascent="756" bbox="-46 -250 1025 963" descent="-244" unicode-range="U+0020-00FE"/>
<missing-glyph/>
<glyph horiz-adv-x="250" unicode=" " glyph-name="space"/>
<glyph horiz-adv-x="357" unicode="!" glyph-name="exclam" d="M262 237h-168v471h168v-471zM276 85q0 -40 -28.5 -67.5t-69.5 -27.5q-39 0 -68 27.5t-29 66.5t28.5 67t68.5 28q41 0 69.5 -27.5t28.5 -66.5z"/>
<glyph horiz-adv-x="498" unicode='&quot;' glyph-name="quotedbl" d="M411 437h-130v271h130v-271zM217 437h-131v271h131v-271z"/>
<glyph horiz-adv-x="603" unicode="#" glyph-name="numbersign" d="M557 404h-99l-14 -100h85v-104h-98l-30 -200h-110l29 200h-79l-29 -200h-110l29 200h-85v104h99l15 100h-85v104h98l29 200h111l-29 -200h78l29 200h110l-28 -200h84v-104zM348 404h-79l-13 -100h78z"/>
<glyph unicode="$" glyph-name="dollar" d="M360 786v-68q134 -4 224 -76q-49 -56 -97 -109q-24 24 -59.5 38.5t-67.5 15.5v-160q49 -15 80.5 -28t69.5 -38t57.5 -63t19.5 -89q0 -103 -67.5 -159.5t-163.5 -59.5v-73h-74v73q-68 2 -133.5 25.5t-113.5 66.5q71 74 105 110q27 -29 68 -48.5t74 -20.5v175 q-50 13 -84 27.5t-67 38t-50 59.5t-17 84q0 92 68.5 149t154.5 61v69h73zM287 444v145q-29 -3 -49.5 -21.5t-20.5 -49.5q0 -56 70 -74zM356 280v-158q34 1 53.5 22t19.5 56q0 57 -73 80z"/>
<glyph horiz-adv-x="911" unicode="%" glyph-name="percent" d="M889 177q0 -79 -55.5 -134t-134.5 -55t-134.5 55t-55.5 134t55.5 134t134.5 55t134.5 -55t55.5 -134zM777 177q0 32 -23 55t-55 23t-55 -23t-23 -55t23 -54.5t55 -22.5t55 22.5t23 54.5zM409 531q0 -78 -55.5 -133.5t-134.5 -55.5t-134.5 55.5t-55.5 133.5q0 79 55.5 134 t134.5 55t134.5 -55t55.5 -134zM297 531q0 32 -23 55t-55 23t-55 -23t-23 -55t23 -54.5t55 -22.5t55 22.5t23 54.5zM713 695l-417 -729l-89 44l413 730z"/>
<glyph horiz-adv-x="781" unicode="&amp;" glyph-name="ampersand" d="M780 0h-207l-67 69q-78 -83 -207 -83q-105 0 -179.5 54.5t-74.5 156.5q0 131 148 196q-73 71 -73 154q0 89 66 134.5t155 45.5t152.5 -46t63.5 -134q0 -114 -142 -185l89 -91l71 109h182l-153 -205zM410 542q0 28 -18.5 46.5t-48.5 18.5q-29 0 -48.5 -18.5t-19.5 -46.5 q0 -48 53 -92q82 33 82 92zM409 169l-125 130q-75 -30 -75 -95q0 -40 29 -64.5t67 -24.5q64 0 104 54z"/>
<glyph horiz-adv-x="303" unicode="&apos;" glyph-name="quotesingle" d="M216 437h-130v271h130v-271z"/>
<glyph horiz-adv-x="342" unicode="(" glyph-name="parenleft" d="M288 -111l-112 -55q-147 203 -147 454t147 454l112 -55q-130 -178 -130 -399t130 -399z"/>
<glyph horiz-adv-x="342" unicode=")" glyph-name="parenright" d="M313 288q0 -251 -147 -454l-112 55q130 178 130 399t-130 399l112 55q147 -203 147 -454z"/>
<glyph horiz-adv-x="489" unicode="*" glyph-name="asterisk" d="M461 518l-128 -40l81 -107l-90 -63l-81 109l-79 -105l-88 63l81 104l-129 43l35 100l127 -44v130h110v-130l127 40z"/>
<glyph horiz-adv-x="666" unicode="+" glyph-name="plus" d="M611 240h-212v-209h-130v209h-213v126h212v209h130v-209h213v-126z"/>
<glyph horiz-adv-x="300" unicode="," glyph-name="comma" d="M252 160l-97 -284h-135l75 284h157z"/>
<glyph horiz-adv-x="326" unicode="-" glyph-name="hyphen" d="M290 197h-254v130h254v-130z"/>
<glyph horiz-adv-x="300" unicode="." glyph-name="period" d="M251 88q0 -41 -29.5 -69.5t-70.5 -28.5q-42 0 -72 28t-30 69t30 70t72 29q41 0 70.5 -28.5t29.5 -69.5z"/>
<glyph horiz-adv-x="415" unicode="/" glyph-name="slash" d="M415 723l-309 -775l-113 37l309 777z"/>
<glyph unicode="0" glyph-name="zero" d="M600 356q0 -78 -15.5 -144t-47 -118.5t-86 -82.5t-127.5 -30q-96 0 -160.5 53t-91 134.5t-26.5 187.5q0 78 15.5 143t47.5 117t87 81.5t128 29.5t127.5 -29.5t86 -81.5t47 -117t15.5 -143zM428 356q0 39 -4 74.5t-14.5 72.5t-32.5 59.5t-53 22.5t-53.5 -22.5t-33 -59.5 t-15 -72.5t-4.5 -74.5t4.5 -75t15 -73.5t32.5 -60t54 -22.5q31 0 53 22.5t32.5 60t14.5 73t4 75.5z"/>
<glyph unicode="1" glyph-name="one" d="M451 0h-168v520l-132 -102l-87 119l233 171h154v-708z"/>
<glyph unicode="2" glyph-name="two" d="M580 0h-512v140l276 250q58 55 58 109q0 38 -24 61.5t-64 23.5q-41 0 -68 -29.5t-32 -77.5l-161 22q12 105 88 166.5t182 61.5t181 -56t75 -161q0 -68 -31.5 -116t-92.5 -102l-164 -146h289v-146z"/>
<glyph unicode="3" glyph-name="three" d="M583 206q0 -74 -40.5 -126.5t-99.5 -75.5t-127 -23q-103 0 -180 47t-104 141l156 41q10 -37 42 -62.5t78 -25.5q41 0 72 22t31 68q0 50 -41.5 71.5t-102.5 21.5h-45v123h49q124 0 124 84q0 36 -26 57t-63 21q-36 0 -62.5 -21.5t-34.5 -57.5l-156 36q25 86 98 133t166 47 q102 0 175.5 -52t73.5 -148q0 -57 -33 -98.5t-86 -55.5v-3q60 -14 98 -59.5t38 -104.5z"/>
<glyph unicode="4" glyph-name="four" d="M612 138h-97v-138h-157v138h-333v141l288 429h201v-434h98v-136zM359 274v262h-3l-168 -262h171z"/>
<glyph unicode="5" glyph-name="five" d="M582 234q0 -122 -80 -187.5t-193 -65.5q-98 0 -171 48.5t-98 131.5l153 47q11 -38 42.5 -61.5t71.5 -23.5q45 0 75.5 27t30.5 76q0 58 -42 83t-103 25q-87 0 -173 -31l17 405h434v-144h-285l-6 -112q29 7 71 7q112 0 184 -58.5t72 -166.5z"/>
<glyph unicode="6" glyph-name="six" d="M601 238q0 -117 -80 -187t-199 -70t-199 69.5t-80 183.5q0 101 79 219l171 255h203l-174 -242l-3 -5q21 8 50 8q96 0 164 -65t68 -166zM433 234q0 48 -30.5 79.5t-79.5 31.5t-80.5 -31.5t-31.5 -80.5q0 -47 31 -79.5t80 -32.5t80 31.5t31 81.5z"/>
<glyph unicode="7" glyph-name="seven" d="M577 574l-271 -574h-195l287 564h-335v144h514v-134z"/>
<glyph unicode="8" glyph-name="eight" d="M589 202q0 -106 -77 -163.5t-189 -57.5q-113 0 -189.5 57t-76.5 163q0 62 36 107t91 62v2q-48 18 -78 57.5t-30 95.5q0 94 71.5 148t175.5 54t175.5 -52.5t71.5 -146.5q0 -57 -29.5 -98t-78.5 -57v-3q55 -15 91 -61t36 -107zM408 516q0 34 -25 57.5t-60 23.5 q-37 0 -60.5 -23t-23.5 -58t23 -59.5t61 -24.5q36 0 60.5 25t24.5 59zM421 208q0 41 -28 68.5t-70 27.5q-43 0 -71 -27.5t-28 -68.5q0 -42 27.5 -68t71.5 -26t71 25.5t27 68.5z"/>
<glyph unicode="9" glyph-name="nine" d="M602 474q0 -101 -79 -219l-171 -255h-203l176 244l2 3q-22 -8 -50 -8q-96 0 -164.5 65t-68.5 166q0 117 80 187t199 70t199 -69.5t80 -183.5zM434 476q0 47 -30.5 80t-79.5 33q-50 0 -81 -32t-31 -82q0 -48 30.5 -79.5t79.5 -31.5q50 0 81 31t31 81z"/>
<glyph horiz-adv-x="332" unicode=":" glyph-name="colon" d="M264 410q0 -39 -29 -67.5t-68 -28.5q-40 0 -69.5 27.5t-29.5 66.5q0 40 29 68t70 28q39 0 68 -27.5t29 -66.5zM264 89q0 -39 -29 -67t-68 -28q-40 0 -69.5 27.5t-29.5 66.5q0 40 29 68t70 28q39 0 68 -28t29 -67z"/>
<glyph horiz-adv-x="332" unicode=";" glyph-name="semicolon" d="M264 410q0 -40 -28.5 -67.5t-68.5 -27.5t-69 27.5t-29 66.5q0 40 28.5 68t69.5 28q39 0 68 -28t29 -67zM265 160l-97 -284h-138l75 284h160z"/>
<glyph horiz-adv-x="666" unicode="&lt;" glyph-name="less" d="M587 37l-508 214v103l508 214v-136l-306 -131l306 -127v-137z"/>
<glyph horiz-adv-x="666" unicode="=" glyph-name="equal" d="M598 335h-530v123h530v-123zM598 150h-530v123h530v-123z"/>
<glyph horiz-adv-x="666" unicode="&gt;" glyph-name="greater" d="M587 251l-508 -214v137l306 127l-306 131v136l508 -214v-103z"/>
<glyph horiz-adv-x="546" unicode="?" glyph-name="question" d="M527 527q0 -61 -26 -98.5t-86 -83.5q-33 -26 -43.5 -44t-10.5 -49v-26h-156v38q0 49 18 80.5t61 69.5l33 31q41 36 41 71q0 32 -19.5 51t-53.5 19q-39 0 -61.5 -27t-24.5 -66l-159 17q11 105 80.5 161t170.5 56q98 0 167 -51t69 -149zM381 85q0 -40 -28 -67.5t-69 -27.5 q-40 0 -69 27.5t-29 66.5t29 67t69 28t68.5 -27.5t28.5 -66.5z"/>
<glyph horiz-adv-x="800" unicode="@" glyph-name="at" d="M774 401q0 -112 -57.5 -176.5t-147.5 -64.5q-39 0 -65 17.5t-30 46.5h-4q-15 -26 -46 -45t-73 -19q-67 0 -105.5 47t-38.5 122q0 89 54 157t138 68q37 0 62.5 -15.5t32.5 -38.5h1l7 34h108l-31 -157q-13 -59 -13 -83q0 -36 29 -36q32 0 54.5 36.5t22.5 102.5 q0 114 -71 176t-188 62q-121 0 -197.5 -80t-76.5 -202q0 -126 80 -201.5t207 -75.5q136 0 230 86l63 -70q-113 -110 -304 -110q-170 0 -278 104t-108 267q0 158 112.5 265.5t272.5 107.5q97 0 177 -35.5t131.5 -111t51.5 -178.5zM465 379q0 78 -56 78q-36 0 -59.5 -40.5 t-23.5 -87.5q0 -70 55 -70q40 0 62 38t22 82z"/>
<glyph horiz-adv-x="729" unicode="A" glyph-name="A" d="M743 0h-190l-55 139h-274l-52 -139h-186l297 708h166zM451 276l-88 243l-90 -243h178z"/>
<glyph horiz-adv-x="665" unicode="B" glyph-name="B" d="M625 206q0 -55 -22.5 -96.5t-62 -64.5t-86 -34t-99.5 -11h-282v708h282q45 0 84.5 -8.5t76.5 -28t58.5 -57t21.5 -88.5q0 -57 -31 -96t-85 -57v-2q64 -11 104.5 -54.5t40.5 -110.5zM431 503q0 69 -109 69h-84v-146h92q48 0 74.5 20t26.5 57zM454 222q0 78 -121 78h-95 v-162h96q120 0 120 84z"/>
<glyph horiz-adv-x="696" unicode="C" glyph-name="C" d="M696 98q-101 -117 -275 -117q-165 0 -273 104.5t-108 269.5q0 167 109.5 269.5t274.5 102.5q77 0 149.5 -27.5t115.5 -76.5l-116 -116q-23 32 -61.5 48.5t-81.5 16.5q-89 0 -146.5 -61.5t-57.5 -155.5q0 -96 56 -156.5t145 -60.5q99 0 150 72z"/>
<glyph horiz-adv-x="774" unicode="D" glyph-name="D" d="M734 356q0 -90 -34 -160t-91.5 -112t-126.5 -63t-145 -21h-264v708h256q63 0 119.5 -10.5t109.5 -36.5t91.5 -65t61.5 -100.5t23 -139.5zM556 356q0 57 -19 98.5t-52.5 64.5t-73 33t-86.5 10h-85v-414h81q103 0 169 49t66 159z"/>
<glyph horiz-adv-x="607" unicode="E" glyph-name="E" d="M567 0h-494v708h476v-145h-311v-133h294v-137h-294v-147h329v-146z"/>
<glyph horiz-adv-x="576" unicode="F" glyph-name="F" d="M539 562h-297v-146h274v-141h-274v-275h-169v708h466v-146z"/>
<glyph horiz-adv-x="769" unicode="G" glyph-name="G" d="M702 43q-117 -61 -273 -61q-171 0 -280 103.5t-109 269.5q0 167 109.5 269.5t274.5 102.5q82 0 155 -25.5t118 -68.5l-108 -123q-57 66 -159 66q-90 0 -149 -63t-59 -158q0 -100 57 -161.5t159 -61.5q63 0 107 19v129h-135v138h292v-375z"/>
<glyph horiz-adv-x="764" unicode="H" glyph-name="H" d="M691 0h-171v296h-276v-296h-171v708h171v-268h276v268h171v-708z"/>
<glyph horiz-adv-x="318" unicode="I" glyph-name="I" d="M245 0h-172v708h172v-708z"/>
<glyph horiz-adv-x="529" unicode="J" glyph-name="J" d="M460 242q0 -37 -5.5 -70.5t-21 -69.5t-40.5 -62t-67.5 -42.5t-98.5 -16.5q-87 0 -148.5 46t-81.5 120l151 51q7 -28 25.5 -45t45.5 -17q39 0 54 27t15 78v467h172v-466z"/>
<glyph horiz-adv-x="711" unicode="K" glyph-name="K" d="M729 0h-223l-263 326h-2v-326h-168v708h168v-288h3l253 288h214l-305 -326z"/>
<glyph horiz-adv-x="526" unicode="L" glyph-name="L" d="M519 0h-446v708h172v-559h274v-149z"/>
<glyph horiz-adv-x="955" unicode="M" glyph-name="M" d="M882 0h-167l4 501h-3l-184 -501h-120l-179 501h-3l4 -501h-161v708h243l161 -454h4l154 454h247v-708z"/>
<glyph horiz-adv-x="790" unicode="N" glyph-name="N" d="M717 0h-194l-285 463h-3l4 -463h-166v708h195l284 -462h3l-4 462h166v-708z"/>
<glyph horiz-adv-x="851" unicode="O" glyph-name="O" d="M811 357q0 -167 -109 -271.5t-277 -104.5q-167 0 -276 104.5t-109 271.5q0 168 108.5 269t276.5 101q169 0 277.5 -101t108.5 -269zM628 357q0 94 -57 155t-146 61t-145.5 -61t-56.5 -155q0 -96 56.5 -158t145.5 -62t146 62t57 158z"/>
<glyph horiz-adv-x="640" unicode="P" glyph-name="P" d="M610 490q0 -78 -40.5 -130t-101 -72.5t-139.5 -20.5h-85v-267h-171v708h260q126 0 201.5 -51.5t75.5 -166.5zM439 489q0 81 -120 81h-75v-167h72q123 0 123 86z"/>
<glyph horiz-adv-x="857" unicode="Q" glyph-name="Q" d="M845 0h-431q-172 0 -275 96t-103 267q0 160 109 262t275 102t273.5 -101t107.5 -260q0 -75 -31 -136t-74 -94v-3l149 3v-136zM620 361q0 93 -56 152t-144 59q-86 0 -143 -59.5t-57 -151.5q0 -95 55.5 -155t143.5 -60q87 0 144 60t57 155z"/>
<glyph horiz-adv-x="663" unicode="R" glyph-name="R" d="M652 0h-200l-153 281h-58v-281h-168v708h270q54 0 100 -11t86 -35t62.5 -67t22.5 -101q0 -70 -39 -120t-108 -71zM445 491q0 79 -114 79h-91v-165h81q124 0 124 86z"/>
<glyph horiz-adv-x="591" unicode="S" glyph-name="S" d="M556 639l-109 -115q-21 27 -56.5 44t-69.5 17q-40 0 -69.5 -16.5t-29.5 -54.5q0 -17 7 -29.5t23.5 -22t32.5 -16t46 -15.5q39 -13 61 -21t56.5 -26.5t53.5 -38.5t34 -53.5t15 -73.5q0 -115 -78.5 -175.5t-192.5 -60.5q-77 0 -148 27t-117 75l112 114q26 -33 68.5 -54 t84.5 -21q43 0 70.5 18.5t27.5 58.5q0 16 -7.5 28.5t-16.5 21t-32 18.5t-39 15.5t-52 17.5q-39 13 -67 27t-56 37t-43 58t-15 81q0 56 24 100.5t64 70t87.5 38.5t98.5 13q62 0 124.5 -22.5t107.5 -64.5z"/>
<glyph horiz-adv-x="581" unicode="T" glyph-name="T" d="M576 562h-200v-562h-171v562h-200v146h571v-146z"/>
<glyph horiz-adv-x="738" unicode="U" glyph-name="U" d="M673 267q0 -128 -83.5 -207t-221.5 -79t-220 78.5t-82 207.5v441h170v-427q0 -63 33 -104.5t100 -41.5q68 0 100.5 41.5t32.5 104.5v427h171v-441z"/>
<glyph horiz-adv-x="682" unicode="V" glyph-name="V" d="M697 708l-273 -708h-171l-268 708h192l164 -502h4l163 502h189z"/>
<glyph horiz-adv-x="1025" unicode="W" glyph-name="W" d="M1025 708l-202 -708h-169l-140 479h-3l-140 -479h-170l-201 708h184l112 -471h3l126 471h178l127 -471h3l114 471h178z"/>
<glyph horiz-adv-x="703" unicode="X" glyph-name="X" d="M711 0h-211l-155 250l-149 -250h-204l248 374l-228 334h206l132 -220l130 220h199l-224 -334z"/>
<glyph horiz-adv-x="669" unicode="Y" glyph-name="Y" d="M689 708l-272 -408v-300h-171v300l-266 408h207l151 -262l151 262h200z"/>
<glyph horiz-adv-x="635" unicode="Z" glyph-name="Z" d="M597 0h-558v148l337 415h-329v145h543v-137l-345 -423h352v-148z"/>
<glyph horiz-adv-x="342" unicode="[" glyph-name="bracketleft" d="M269 -156h-216v888h216v-102h-89v-684h89v-102z"/>
<glyph horiz-adv-x="415" unicode="\" glyph-name="backslash" d="M422 -15l-113 -37l-308 775l113 39z"/>
<glyph horiz-adv-x="342" unicode="]" glyph-name="bracketright" d="M289 -156h-216v102h89v684h-89v102h216v-888z"/>
<glyph horiz-adv-x="690" unicode="^" glyph-name="asciicircum" d="M616 343h-148l-124 213l-123 -213h-148l213 365h118z"/>
<glyph horiz-adv-x="500" unicode="_" glyph-name="underscore" d="M500 -164h-500v89h500v-89z"/>
<glyph horiz-adv-x="300" unicode="`" glyph-name="grave" d="M231 572h-124l-146 144h166z"/>
<glyph horiz-adv-x="566" unicode="a" glyph-name="a" d="M358 200v17h-21q-153 0 -153 -68q0 -26 21 -38.5t50 -12.5q49 0 76 27.5t27 74.5zM140 341l-83 89q89 84 222 84q123 0 176 -62.5t53 -200.5v-251h-150v53h-3q-18 -30 -57 -47.5t-84 -17.5q-44 0 -82.5 13.5t-68.5 50.5t-30 92q0 168 320 168v8q0 35 -25 53.5t-65 18.5 q-68 0 -123 -51z"/>
<glyph horiz-adv-x="659" unicode="b" glyph-name="b" d="M619 251q0 -110 -64.5 -187.5t-172.5 -77.5q-50 0 -94.5 21t-68.5 58h-2v-65h-151v756h164v-311h2q57 67 152 67q105 0 170 -76.5t65 -184.5zM461 251q0 52 -31.5 89.5t-86.5 37.5q-53 0 -86.5 -39t-33.5 -89q0 -51 33.5 -89.5t86.5 -38.5q55 0 86.5 38t31.5 91z"/>
<glyph horiz-adv-x="503" unicode="c" glyph-name="c" d="M502 447l-95 -110q-13 18 -37.5 29t-49.5 11q-51 0 -83 -37.5t-32 -90.5t32 -90t85 -37q58 0 89 37l91 -111q-66 -64 -184 -64q-121 0 -200 72t-79 193q0 119 79.5 192t198.5 73q53 0 104.5 -18.5t80.5 -48.5z"/>
<glyph horiz-adv-x="658" unicode="d" glyph-name="d" d="M592 0h-151v65h-2q-24 -37 -68.5 -58t-94.5 -21q-108 0 -172.5 77.5t-64.5 187.5q0 108 65 184.5t170 76.5q95 0 152 -67h2v311h164v-756zM435 250q0 50 -33.5 89t-86.5 39q-55 0 -86.5 -37.5t-31.5 -89.5q0 -53 31.5 -91t86.5 -38q53 0 86.5 38.5t33.5 89.5z"/>
<glyph horiz-adv-x="596" unicode="e" glyph-name="e" d="M196 306h211q0 41 -25.5 68t-72.5 27q-46 0 -78 -28t-35 -67zM558 243q0 -27 -1 -39h-361q4 -40 39 -67t80 -27q72 0 110 52l114 -72q-73 -106 -226 -106q-117 0 -195.5 70.5t-78.5 192.5q0 120 76.5 193.5t192.5 73.5q112 0 181 -72.5t69 -198.5z"/>
<glyph horiz-adv-x="364" unicode="f" glyph-name="f" d="M384 765l-11 -130q-21 7 -45 7q-73 0 -73 -94v-50h111v-123h-111v-375h-164v375h-91v123h91v48q0 229 214 229q48 0 79 -10z"/>
<glyph horiz-adv-x="658" unicode="g" glyph-name="g" d="M592 47q0 -142 -78 -214.5t-215 -72.5q-67 0 -137 20.5t-119 57.5l82 117q72 -63 165 -63q70 0 105.5 37.5t35.5 101.5v30h-3q-51 -66 -151 -66q-109 0 -173.5 74t-64.5 182t64.5 184.5t172.5 76.5q107 0 159 -78h2v64h155v-451zM436 252q0 53 -33.5 89.5t-87.5 36.5 t-85.5 -36t-31.5 -90q0 -52 32 -89.5t85 -37.5q55 0 88 37t33 90z"/>
<glyph horiz-adv-x="617" unicode="h" glyph-name="h" d="M557 0h-165v270q0 105 -73 105q-41 0 -65 -30t-24 -76v-269h-164v756h164v-321h2q18 32 56 54.5t87 22.5q94 0 138 -59.5t44 -144.5v-308z"/>
<glyph horiz-adv-x="296" unicode="i" glyph-name="i" d="M242 657q0 -38 -27.5 -64t-66.5 -26t-66.5 26.5t-27.5 63.5q0 36 27.5 63t66.5 27t66.5 -26.5t27.5 -63.5zM230 0h-164v498h164v-498z"/>
<glyph horiz-adv-x="299" unicode="j" glyph-name="j" d="M245 657q0 -38 -27.5 -64t-66.5 -26t-66.5 26.5t-27.5 63.5q0 36 27.5 63t66.5 27t66.5 -26.5t27.5 -63.5zM233 -13q0 -50 -9 -88t-30 -71t-61.5 -50.5t-98.5 -17.5q-42 0 -71 8l11 137q15 -5 35 -5q34 0 47 22.5t13 64.5v511h164v-511z"/>
<glyph horiz-adv-x="595" unicode="k" glyph-name="k" d="M399 273l200 -273h-203l-163 239h-3v-239h-165v756h165v-460h3l159 202h199z"/>
<glyph horiz-adv-x="298" unicode="l" glyph-name="l" d="M232 0h-166v756h166v-756z"/>
<glyph horiz-adv-x="924" unicode="m" glyph-name="m" d="M864 0h-164v272q0 105 -71 105q-40 0 -61.5 -31.5t-21.5 -76.5v-269h-164v284q0 93 -71 93q-38 0 -60 -30.5t-22 -76.5v-270h-165v498h159v-69h2q19 35 58 59t91 24q106 0 150 -85q54 85 159 85q64 0 106.5 -32.5t58.5 -76.5t16 -95v-308z"/>
<glyph horiz-adv-x="616" unicode="n" glyph-name="n" d="M556 0h-165v272q0 105 -74 105q-42 0 -65 -31t-23 -76v-270h-165v498h159v-69h2q18 35 58.5 59t90.5 24q93 0 137.5 -59.5t44.5 -144.5v-308z"/>
<glyph horiz-adv-x="632" unicode="o" glyph-name="o" d="M592 251q0 -119 -80 -193t-197 -74q-116 0 -196 74t-80 193t80 191t196 72q117 0 197 -72t80 -191zM434 251q0 51 -32 89t-87 38t-86 -37.5t-31 -89.5t31.5 -90.5t86.5 -38.5t86.5 38.5t31.5 90.5z"/>
<glyph horiz-adv-x="657" unicode="p" glyph-name="p" d="M618 251q0 -110 -64.5 -187.5t-172.5 -77.5q-46 0 -87 18.5t-64 50.5h-2v-295h-164v738h156v-61h3q24 33 65.5 54t93.5 21q105 0 170.5 -76.5t65.5 -184.5zM459 251q0 52 -31 89.5t-86 37.5q-53 0 -86.5 -39t-33.5 -89q0 -51 33.5 -89.5t86.5 -38.5q55 0 86 38t31 91z "/>
<glyph horiz-adv-x="657" unicode="q" glyph-name="q" d="M592 -240h-163v295h-2q-24 -32 -64.5 -50.5t-86.5 -18.5q-109 0 -173 77.5t-64 187.5q0 108 65 184.5t170 76.5q52 0 94 -21t66 -54h3v61h155v-738zM435 250q0 50 -33.5 89t-86.5 39q-55 0 -86.5 -37.5t-31.5 -89.5q0 -53 31.5 -91t86.5 -38q53 0 86.5 38.5t33.5 89.5z "/>
<glyph horiz-adv-x="396" unicode="r" glyph-name="r" d="M394 508l-7 -144q-19 5 -42 5q-59 0 -88 -36.5t-29 -76.5v-256h-164v498h158v-72h2q19 39 55 62.5t80 23.5q24 0 35 -4z"/>
<glyph horiz-adv-x="472" unicode="s" glyph-name="s" d="M447 444l-90 -93q-47 45 -104 45q-26 0 -44 -10t-18 -30t19 -29t72 -21q159 -36 159 -152q0 -87 -62.5 -128.5t-150.5 -41.5q-62 0 -120.5 20t-96.5 57l92 97q51 -56 122 -56q24 0 41.5 10.5t17.5 32.5t-21.5 33t-77.5 24q-145 34 -145 145q0 82 63 124.5t144 42.5 q125 0 200 -70z"/>
<glyph horiz-adv-x="372" unicode="t" glyph-name="t" d="M359 375h-117v-190q0 -36 14 -53t48 -17q29 0 48 8l2 -120q-41 -15 -95 -15q-95 0 -136 46t-41 131v210h-80v123h79v131h161v-131h117v-123z"/>
<glyph horiz-adv-x="614" unicode="u" glyph-name="u" d="M550 0h-158v69h-2q-18 -35 -59 -59t-91 -24q-93 0 -137 59.5t-44 144.5v308h165v-270q0 -106 74 -106q41 0 64.5 31t23.5 76v269h164v-498z"/>
<glyph horiz-adv-x="567" unicode="v" glyph-name="v" d="M568 498l-196 -498h-177l-196 498h181l105 -323h3l105 323h175z"/>
<glyph horiz-adv-x="871" unicode="w" glyph-name="w" d="M871 498l-173 -498h-165l-98 310h-2l-96 -310h-165l-172 498h177l86 -315h3l89 315h165l92 -315h2l87 315h170z"/>
<glyph horiz-adv-x="594" unicode="x" glyph-name="x" d="M597 0h-193l-107 153l-110 -153h-190l199 261l-180 237h191l93 -133l94 133h185l-179 -237z"/>
<glyph horiz-adv-x="567" unicode="y" glyph-name="y" d="M568 498l-223 -573q-32 -84 -81 -124.5t-138 -40.5q-46 0 -90 11l18 138q29 -9 53 -9q36 0 53.5 15.5t30.5 51.5l16 41l-208 490h182l111 -320h3l99 320h174z"/>
<glyph horiz-adv-x="512" unicode="z" glyph-name="z" d="M478 0h-444v128l234 244h-225v126h425v-123l-241 -248h251v-127z"/>
<glyph horiz-adv-x="342" unicode="{" glyph-name="braceleft" d="M292 -156h-82q-62 0 -99.5 40.5t-37.5 107.5v167q0 74 -67 74v110q67 0 67 70v171q0 67 37.5 107.5t99.5 40.5h82v-105h-47q-46 0 -46 -60v-167q0 -52 -30.5 -79.5t-62.5 -31.5v-2q33 -3 63 -30t30 -85v-163q0 -60 46 -60h47v-105z"/>
<glyph horiz-adv-x="241" unicode="|" glyph-name="bar" d="M186 -250h-130l-1 1000h131v-1000z"/>
<glyph horiz-adv-x="342" unicode="}" glyph-name="braceright" d="M336 233q-67 0 -67 -74v-167q0 -67 -37.5 -107.5t-99.5 -40.5h-82v105h47q46 0 46 60v163q0 58 30 85t63 30v2q-32 4 -62.5 31.5t-30.5 79.5v167q0 60 -46 60h-47v105h82q62 0 99.5 -40.5t37.5 -107.5v-171q0 -70 67 -70v-110z"/>
<glyph horiz-adv-x="666" unicode="~" glyph-name="asciitilde" d="M593 287v-2q-27 -46 -59 -73t-80 -27q-52 0 -112 38q-61 38 -107 38q-50 0 -84 -70l-66 104q51 99 137 99q58 0 120 -37q69 -40 99 -40q25 0 44.5 18.5t42.5 52.5z"/>
<glyph horiz-adv-x="250" unicode=" " glyph-name="uni00A0"/>
<glyph horiz-adv-x="357" unicode="¡" glyph-name="exclamdown" d="M276 423q0 -39 -28.5 -66.5t-69.5 -27.5q-40 0 -68.5 28t-28.5 67t29 66.5t68 27.5q41 0 69.5 -27.5t28.5 -67.5zM262 -200h-168v471h168v-471z"/>
<glyph unicode="¢" glyph-name="cent" d="M550 51q-56 -56 -160 -65v-65h-76v65q-105 12 -169 84.5t-64 179.5q0 106 63.5 176.5t169.5 85.5v64h76v-64q106 -7 159 -63l-83 -104q-31 33 -76 39v-270q46 4 79 39zM314 116v266q-44 -10 -68 -46.5t-24 -86.5q0 -48 24.5 -84.5t67.5 -48.5z"/>
<glyph unicode="£" glyph-name="sterling" d="M625 658l-96 -110q-35 38 -92 38q-56 0 -80.5 -35.5t-24.5 -83.5v-51h156v-115h-156v-160h259v-141h-519v141h95v160h-95v115h95v61q0 43 15 85.5t44.5 80t81.5 61t119 23.5q122 0 198 -69z"/>
<glyph horiz-adv-x="950" unicode="¤" glyph-name="currency" d="M713 459q42 -65 42 -150q0 -90 -45 -155l93 -93l-84 -84q-32 31 -97 96q-64 -39 -146 -39q-78 0 -147 41q-66 -66 -99 -98l-84 84l96 96q-42 62 -42 152q0 83 39 147l-93 93q29 28 85 84q16 -16 48 -47.5t47 -46.5q68 41 150 41q83 0 150 -39l92 92q14 -14 42.5 -42 t42.5 -42zM476 441q-55 0 -90.5 -38.5t-35.5 -93.5q0 -57 35.5 -95.5t90.5 -38.5q56 0 91.5 38.5t35.5 95.5q0 54 -36 93t-91 39z"/>
<glyph unicode="¥" glyph-name="yen" d="M637 708l-179 -292h124v-103h-179v-65h179v-103h-179v-145h-158v145h-178v103h178v65h-178v103h127l-182 292h185l132 -260l129 260h179z"/>
<glyph horiz-adv-x="241" unicode="¦" glyph-name="brokenbar" d="M186 313h-131v362h131v-362zM186 -175h-131v362h131v-362z"/>
<glyph horiz-adv-x="607" unicode="§" glyph-name="section" d="M562 279q0 -39 -20.5 -72.5t-54.5 -52.5q50 -35 50 -110q0 -49 -22 -87.5t-58.5 -60.5t-78 -33t-85.5 -11q-75 0 -145 31.5t-108 89.5l122 87q21 -36 59 -54.5t75 -18.5q28 0 50.5 13.5t22.5 37.5q0 31 -26.5 47t-104.5 43q-88 30 -132 66t-44 104q0 89 86 138 q-53 39 -53 113q0 58 37 100t87.5 59.5t105.5 17.5q74 0 134 -26.5t94 -76.5l-116 -88q-18 27 -47 43.5t-58 16.5q-28 0 -49.5 -12.5t-21.5 -36.5q0 -25 26.5 -42.5t90.5 -39.5q89 -33 136.5 -74t47.5 -111zM414 263q0 27 -20 43.5t-58 32.5l-86 35q-41 -17 -41 -53 q0 -19 13 -33.5t26.5 -21t40.5 -17.5l94 -37q31 14 31 51z"/>
<glyph horiz-adv-x="300" unicode="¨" glyph-name="dieresis" d="M342 658q0 -34 -24.5 -58t-58.5 -24q-35 0 -59 24t-24 58q0 33 24 57t59 24q34 0 58.5 -23.5t24.5 -57.5zM125 658q0 -34 -24.5 -58t-59.5 -24q-34 0 -58.5 24t-24.5 58q0 33 24.5 57t58.5 24q35 0 59.5 -23.5t24.5 -57.5z"/>
<glyph horiz-adv-x="800" unicode="©" glyph-name="copyright" d="M780 353q0 -156 -111 -265.5t-268 -109.5q-158 0 -269.5 109.5t-111.5 265.5q0 157 111.5 267t269.5 110q157 0 268 -110t111 -267zM720 353q0 133 -93.5 227t-225.5 94q-133 0 -227 -94t-94 -227q0 -132 93 -225.5t226 -93.5q132 0 226.5 93.5t94.5 225.5zM585 510 l-77 -70q-31 39 -90 39q-53 0 -83.5 -37.5t-30.5 -88.5q0 -52 32 -90t88 -38q57 0 88 36l72 -76q-60 -63 -165 -63q-101 0 -169 61.5t-68 168.5q0 104 68.5 166.5t168.5 62.5q50 0 94.5 -19t71.5 -52z"/>
<glyph horiz-adv-x="384" unicode="ª" glyph-name="ordfeminine" d="M236 431v27h-1q-22 -34 -84 -34q-43 0 -74.5 22.5t-31.5 65.5q0 98 186 98v4q0 35 -50 35q-40 0 -68 -28q-9 9 -27 27.5t-27 27.5q50 47 131 47q139 0 139 -128v-164h-93zM234 541v12h-12q-80 0 -80 -35q0 -13 11.5 -20t25.5 -7q26 0 40.5 14t14.5 36z"/>
<glyph horiz-adv-x="543" unicode="«" glyph-name="guillemotleft" d="M509 85l-97 -63l-161 232l161 232l97 -63l-115 -169zM284 85l-98 -63l-161 232l161 232l97 -63l-115 -169z"/>
<glyph horiz-adv-x="666" unicode="¬" glyph-name="logicalnot" d="M606 145h-130v183h-425v123h555v-306z"/>
<glyph horiz-adv-x="326" unicode="­" glyph-name="uni00AD" d="M290 197h-254v130h254v-130z"/>
<glyph horiz-adv-x="600" unicode="®" glyph-name="registered" d="M279 521h26q12 0 20 6.5t8 16.5q0 8 -8.5 13t-19.5 5h-26v-41zM439 365h-100l-44 94h-16v-94h-88v266h114q50 0 85.5 -20t35.5 -66q0 -55 -48 -74zM72 492q0 94 67 160.5t162 66.5q94 0 160.5 -66.5t66.5 -160.5t-66.5 -159.5t-160.5 -65.5q-95 0 -162 65.5t-67 159.5z M108 492q0 -79 56.5 -135.5t136.5 -56.5q79 0 135 56.5t56 135.5q0 80 -56 136t-135 56q-80 0 -136.5 -56t-56.5 -136z"/>
<glyph horiz-adv-x="300" unicode="¯" glyph-name="macron" d="M318 601h-336v86h336v-86z"/>
<glyph horiz-adv-x="416" unicode="°" glyph-name="degree" d="M376 558q0 -70 -49 -119t-119 -49t-119 49t-49 119t48.5 118.5t119.5 48.5t119.5 -48.5t48.5 -118.5zM296 558q0 36 -25.5 62t-62.5 26t-62.5 -26t-25.5 -62q0 -37 25.5 -62.5t62.5 -25.5t62.5 25.5t25.5 62.5z"/>
<glyph horiz-adv-x="666" unicode="±" glyph-name="plusminus" d="M616 331h-212v-132h-130v132h-213v127h213v132h130v-132h212v-127zM616 31h-555v127h555v-127z"/>
<glyph horiz-adv-x="420" unicode="²" glyph-name="twosuperior" d="M374 275h-319v92l170 155q29 27 29 56q0 18 -12 29.5t-33 11.5q-22 0 -37 -17t-17 -44l-110 13q7 69 54.5 108.5t114.5 39.5t113.5 -34t46.5 -100q0 -30 -12 -56t-25.5 -41t-38.5 -37l-87 -77h163v-99z"/>
<glyph horiz-adv-x="420" unicode="³" glyph-name="threesuperior" d="M379 404q0 -67 -49 -102t-115 -35q-63 0 -110.5 30t-65.5 92l105 28q16 -53 64 -53q23 0 39.5 11t16.5 35q0 47 -78 47h-33v84h36q65 0 65 46q0 17 -13 27.5t-33 10.5q-18 0 -32.5 -13t-18.5 -35l-105 25q16 56 61.5 87t102.5 31q64 0 108.5 -31t44.5 -90q0 -67 -57 -95 q32 -11 49.5 -37.5t17.5 -62.5z"/>
<glyph horiz-adv-x="300" unicode="´" glyph-name="acute" d="M339 716l-146 -144h-124l104 144h166z"/>
<glyph horiz-adv-x="666" unicode="µ" glyph-name="mu" d="M89 498h162v-248q0 -29 4.5 -53.5t23 -47.5t49.5 -23q47 0 69 31t22 80v261h162v-498h-155v57h-1q-37 -64 -111 -64q-41 0 -63 20v-239h-162v724z"/>
<glyph horiz-adv-x="618" unicode="¶" glyph-name="paragraph" d="M555 -129h-116v737h-85v-737h-116v464q-98 2 -156 52t-58 131q0 190 244 190h287v-837z"/>
<glyph horiz-adv-x="300" unicode="·" glyph-name="periodcentered" d="M251 291q0 -41 -29.5 -69.5t-70.5 -28.5q-42 0 -72 28t-30 69t30 70t72 29q41 0 70.5 -28.5t29.5 -69.5z"/>
<glyph horiz-adv-x="300" unicode="¸" glyph-name="cedilla" d="M283 -142q0 -52 -44.5 -75t-102.5 -23q-67 0 -119 25l27 60q40 -19 84 -19q50 0 50 33q0 29 -47 29q-22 0 -40 -6l-31 29l67 89h82l-47 -60q7 1 18 1q103 0 103 -83z"/>
<glyph horiz-adv-x="420" unicode="¹" glyph-name="onesuperior" d="M297 272h-117v306l-74 -58l-60 81l145 107h106v-436z"/>
<glyph horiz-adv-x="384" unicode="º" glyph-name="ordmasculine" d="M348 575q0 -67 -44.5 -109t-111.5 -42q-66 0 -110.5 42t-44.5 109q0 66 44.5 107.5t110.5 41.5q67 0 111.5 -41.5t44.5 -107.5zM253 575q0 26 -17 44.5t-44 18.5t-43 -18.5t-16 -44.5q0 -27 16 -45.5t43 -18.5q28 0 44.5 18.5t16.5 45.5z"/>
<glyph horiz-adv-x="543" unicode="»" glyph-name="guillemotright" d="M519 253l-162 -231l-97 63l115 168l-115 170l97 63zM293 253l-161 -231l-97 63l115 168l-116 170l98 63z"/>
<glyph horiz-adv-x="940" unicode="¼" glyph-name="onequarter" d="M882 83h-58v-83h-106v83h-200v93l175 260h131v-259h58v-94zM718 177v134h-1l-88 -134h89zM701 699l-388 -729l-87 39l384 730zM297 272h-117v306l-74 -58l-60 81l145 107h106v-436z"/>
<glyph horiz-adv-x="940" unicode="½" glyph-name="onehalf" d="M894 0h-319v92l170 156q29 26 29 55q0 18 -12 29.5t-32 11.5q-23 0 -38 -16.5t-17 -44.5l-110 14q7 68 55 108t114 40t113 -34.5t47 -100.5q0 -42 -19.5 -71.5t-56.5 -62.5l-87 -76h163v-100zM701 699l-388 -729l-87 39l384 730zM297 272h-117v306l-74 -58l-60 81 l145 107h106v-436z"/>
<glyph horiz-adv-x="940" unicode="¾" glyph-name="threequarters" d="M882 83h-58v-83h-106v83h-200v93l175 260h131v-259h58v-94zM718 177v134h-1l-88 -134h89zM701 699l-388 -729l-87 39l384 730zM379 404q0 -67 -49 -102t-115 -35q-63 0 -110.5 30t-65.5 92l105 28q16 -53 64 -53q23 0 39.5 11t16.5 35q0 47 -78 47h-33v84h36q65 0 65 46 q0 17 -13 27.5t-33 10.5q-18 0 -32.5 -13t-18.5 -35l-105 25q16 56 61.5 87t102.5 31q64 0 108.5 -31t44.5 -90q0 -67 -57 -95q32 -11 49.5 -37.5t17.5 -62.5z"/>
<glyph horiz-adv-x="546" unicode="¿" glyph-name="questiondown" d="M361 424q0 -39 -29 -67t-69 -28t-69 27.5t-29 66.5q0 40 28.5 67.5t69.5 27.5q40 0 69 -27.5t29 -66.5zM507 -2q-12 -105 -81.5 -160.5t-170.5 -55.5q-97 0 -166.5 51t-69.5 148q0 61 26.5 99t86.5 84q32 25 43 43t11 49v26h156v-37q0 -49 -18 -80.5t-61 -70.5l-34 -30 q-41 -37 -41 -71q0 -32 20 -51.5t54 -19.5q39 0 61.5 27.5t23.5 66.5z"/>
<glyph horiz-adv-x="729" unicode="À" glyph-name="Agrave" d="M743 0h-190l-55 139h-274l-52 -139h-186l297 708h166zM451 276l-88 243l-90 -243h178zM439 764h-124l-146 144h166z"/>
<glyph horiz-adv-x="729" unicode="Á" glyph-name="Aacute" d="M743 0h-190l-55 139h-274l-52 -139h-186l297 708h166zM451 276l-88 243l-90 -243h178zM564 908l-146 -144h-124l104 144h166z"/>
<glyph horiz-adv-x="729" unicode="Â" glyph-name="Acircumflex" d="M743 0h-190l-55 139h-274l-52 -139h-186l297 708h166zM451 276l-88 243l-90 -243h178zM564 764h-130l-68 81l-68 -81h-128l124 144h148z"/>
<glyph horiz-adv-x="729" unicode="Ã" glyph-name="Atilde" d="M743 0h-190l-55 139h-274l-52 -139h-186l297 708h166zM451 276l-88 243l-90 -243h178zM551 900q-7 -58 -34.5 -95t-78.5 -37q-36 0 -81 21q-39 20 -63 20q-31 0 -42 -40h-72q17 130 113 130q37 0 80 -20t65 -20q32 0 42 41h71z"/>
<glyph horiz-adv-x="729" unicode="Ä" glyph-name="Adieresis" d="M743 0h-190l-55 139h-274l-52 -139h-186l297 708h166zM451 276l-88 243l-90 -243h178zM558 850q0 -34 -24.5 -58t-58.5 -24q-35 0 -59 24t-24 58q0 33 24 57t59 24q34 0 58.5 -23.5t24.5 -57.5zM341 850q0 -34 -24.5 -58t-59.5 -24q-34 0 -58.5 24t-24.5 58q0 33 24.5 57 t58.5 24q35 0 59.5 -23.5t24.5 -57.5z"/>
<glyph horiz-adv-x="729" unicode="Å" glyph-name="Aring" d="M743 0h-190l-55 139h-274l-52 -139h-186l297 708h166zM451 276l-88 243l-90 -243h178zM476 856q0 -46 -31.5 -76.5t-77.5 -30.5q-45 0 -77 30.5t-32 75.5q0 46 31.5 77t77.5 31q45 0 77 -31t32 -76zM426 856q0 25 -17 41.5t-42 16.5t-42 -17t-17 -42q0 -24 17 -40.5 t42 -16.5t42 16.5t17 41.5z"/>
<glyph horiz-adv-x="1033" unicode="Æ" glyph-name="AE" d="M993 0h-479v153h-231l-88 -153h-199l414 708h565v-145h-298v-133h281v-137h-281v-147h316v-146zM514 291v272h-10l-153 -272h163z"/>
<glyph horiz-adv-x="696" unicode="Ç" glyph-name="Ccedilla" d="M531 -142q0 -52 -44.5 -75t-102.5 -23q-67 0 -119 25l27 60q40 -19 84 -19q50 0 50 33q0 29 -47 29q-22 0 -40 -6l-31 29l55 74q-143 18 -233 119t-90 251q0 167 109.5 269.5t274.5 102.5q77 0 149.5 -27.5t115.5 -76.5l-116 -116q-23 32 -61.5 48.5t-81.5 16.5 q-89 0 -146.5 -61.5t-57.5 -155.5q0 -96 56 -156.5t145 -60.5q99 0 150 72l119 -112q-93 -109 -254 -116l-32 -42q7 1 18 1q103 0 103 -83z"/>
<glyph horiz-adv-x="607" unicode="È" glyph-name="Egrave" d="M567 0h-494v708h476v-145h-311v-133h294v-137h-294v-147h329v-146zM406 764h-124l-146 144h166z"/>
<glyph horiz-adv-x="607" unicode="É" glyph-name="Eacute" d="M567 0h-494v708h476v-145h-311v-133h294v-137h-294v-147h329v-146zM503 908l-146 -144h-124l104 144h166z"/>
<glyph horiz-adv-x="607" unicode="Ê" glyph-name="Ecircumflex" d="M567 0h-494v708h476v-145h-311v-133h294v-137h-294v-147h329v-146zM512 764h-130l-68 81l-68 -81h-128l124 144h148z"/>
<glyph horiz-adv-x="607" unicode="Ë" glyph-name="Edieresis" d="M567 0h-494v708h476v-145h-311v-133h294v-137h-294v-147h329v-146zM507 850q0 -34 -24.5 -58t-58.5 -24q-35 0 -59 24t-24 58q0 33 24 57t59 24q34 0 58.5 -23.5t24.5 -57.5zM290 850q0 -34 -24.5 -58t-59.5 -24q-34 0 -58.5 24t-24.5 58q0 33 24.5 57t58.5 24 q35 0 59.5 -23.5t24.5 -57.5z"/>
<glyph horiz-adv-x="318" unicode="Ì" glyph-name="Igrave" d="M245 0h-172v708h172v-708zM245 764h-124l-146 144h166z"/>
<glyph horiz-adv-x="318" unicode="Í" glyph-name="Iacute" d="M245 0h-172v708h172v-708zM343 908l-146 -144h-124l104 144h166z"/>
<glyph horiz-adv-x="318" unicode="Î" glyph-name="Icircumflex" d="M245 0h-172v708h172v-708zM355 764h-130l-68 81l-68 -81h-128l124 144h148z"/>
<glyph horiz-adv-x="318" unicode="Ï" glyph-name="Idieresis" d="M245 0h-172v708h172v-708zM351 850q0 -34 -24.5 -58t-58.5 -24q-35 0 -59 24t-24 58q0 33 24 57t59 24q34 0 58.5 -23.5t24.5 -57.5zM134 850q0 -34 -24.5 -58t-59.5 -24q-34 0 -58.5 24t-24.5 58q0 33 24.5 57t58.5 24q35 0 59.5 -23.5t24.5 -57.5z"/>
<glyph horiz-adv-x="774" unicode="Ð" glyph-name="Eth" d="M732 356q0 -88 -34 -158.5t-90 -112t-123 -63.5t-139 -22h-272v309h-61v107h61v292h273q78 0 145.5 -20t122 -61t86 -110.5t31.5 -160.5zM557 356q0 101 -61 152t-165 51h-90v-143h181v-107h-181v-159h74q111 0 176.5 50.5t65.5 155.5z"/>
<glyph horiz-adv-x="790" unicode="Ñ" glyph-name="Ntilde" d="M717 0h-194l-285 463h-3l4 -463h-166v708h195l284 -462h3l-4 462h166v-708zM584 900q-7 -58 -34.5 -95t-78.5 -37q-35 0 -81 21q-39 20 -63 20q-31 0 -42 -40h-72q17 130 113 130q37 0 80 -20t65 -20q32 0 42 41h71z"/>
<glyph horiz-adv-x="851" unicode="Ò" glyph-name="Ograve" d="M811 357q0 -167 -109 -271.5t-277 -104.5q-167 0 -276 104.5t-109 271.5q0 168 108.5 269t276.5 101q169 0 277.5 -101t108.5 -269zM628 357q0 94 -57 155t-146 61t-145.5 -61t-56.5 -155q0 -96 56.5 -158t145.5 -62t146 62t57 158zM527 764h-124l-146 144h166z"/>
<glyph horiz-adv-x="851" unicode="Ó" glyph-name="Oacute" d="M811 357q0 -167 -109 -271.5t-277 -104.5q-167 0 -276 104.5t-109 271.5q0 168 108.5 269t276.5 101q169 0 277.5 -101t108.5 -269zM628 357q0 94 -57 155t-146 61t-145.5 -61t-56.5 -155q0 -96 56.5 -158t145.5 -62t146 62t57 158zM605 908l-146 -144h-124l104 144h166z "/>
<glyph horiz-adv-x="851" unicode="Ô" glyph-name="Ocircumflex" d="M811 357q0 -167 -109 -271.5t-277 -104.5q-167 0 -276 104.5t-109 271.5q0 168 108.5 269t276.5 101q169 0 277.5 -101t108.5 -269zM628 357q0 94 -57 155t-146 61t-145.5 -61t-56.5 -155q0 -96 56.5 -158t145.5 -62t146 62t57 158zM623 764h-130l-68 81l-68 -81h-128 l124 144h148z"/>
<glyph horiz-adv-x="851" unicode="Õ" glyph-name="Otilde" d="M811 357q0 -167 -109 -271.5t-277 -104.5q-167 0 -276 104.5t-109 271.5q0 168 108.5 269t276.5 101q169 0 277.5 -101t108.5 -269zM628 357q0 94 -57 155t-146 61t-145.5 -61t-56.5 -155q0 -96 56.5 -158t145.5 -62t146 62t57 158zM612 900q-7 -58 -34.5 -95t-78.5 -37 q-35 0 -81 21q-39 20 -63 20q-31 0 -42 -40h-72q17 130 113 130q37 0 80 -20t65 -20q32 0 42 41h71z"/>
<glyph horiz-adv-x="851" unicode="Ö" glyph-name="Odieresis" d="M811 357q0 -167 -109 -271.5t-277 -104.5q-167 0 -276 104.5t-109 271.5q0 168 108.5 269t276.5 101q169 0 277.5 -101t108.5 -269zM628 357q0 94 -57 155t-146 61t-145.5 -61t-56.5 -155q0 -96 56.5 -158t145.5 -62t146 62t57 158zM618 850q0 -34 -24.5 -58t-58.5 -24 q-35 0 -59 24t-24 58q0 33 24 57t59 24q34 0 58.5 -23.5t24.5 -57.5zM401 850q0 -34 -24.5 -58t-59.5 -24q-34 0 -58.5 24t-24.5 58q0 33 24.5 57t58.5 24q35 0 59.5 -23.5t24.5 -57.5z"/>
<glyph horiz-adv-x="666" unicode="×" glyph-name="multiply" d="M604 130l-94 -93l-177 173l-176 -173l-93 89l177 175l-178 174l94 91l177 -173l174 172l91 -87l-174 -173z"/>
<glyph horiz-adv-x="851" unicode="Ø" glyph-name="Oslash" d="M40 356q0 168 108.5 269t276.5 101q126 0 219 -58q14 16 43.5 48.5t43.5 48.5q11 -10 33.5 -29.5t33.5 -29.5q-17 -17 -46.5 -49.5t-39.5 -43.5q99 -101 99 -257q0 -166 -109.5 -269.5t-277.5 -104.5h-5q-135 0 -224 69q-15 -16 -44.5 -47.5t-44.5 -47.5q-48 41 -67 57 q15 16 44.5 48.5t44.5 48.5q-88 94 -88 246zM635 356q0 80 -38 130q-49 -53 -146 -159t-146 -159q46 -37 119 -37q95 0 153 64t58 161zM214 355q0 -73 31 -120q96 105 290 315q-44 29 -110 29q-96 0 -153.5 -64t-57.5 -160z"/>
<glyph horiz-adv-x="738" unicode="Ù" glyph-name="Ugrave" d="M673 267q0 -128 -83.5 -207t-221.5 -79t-220 78.5t-82 207.5v441h170v-427q0 -63 33 -104.5t100 -41.5q68 0 100.5 41.5t32.5 104.5v427h171v-441zM470 764h-124l-146 144h166z"/>
<glyph horiz-adv-x="738" unicode="Ú" glyph-name="Uacute" d="M673 267q0 -128 -83.5 -207t-221.5 -79t-220 78.5t-82 207.5v441h170v-427q0 -63 33 -104.5t100 -41.5q68 0 100.5 41.5t32.5 104.5v427h171v-441zM543 908l-146 -144h-124l104 144h166z"/>
<glyph horiz-adv-x="738" unicode="Û" glyph-name="Ucircumflex" d="M673 267q0 -128 -83.5 -207t-221.5 -79t-220 78.5t-82 207.5v441h170v-427q0 -63 33 -104.5t100 -41.5q68 0 100.5 41.5t32.5 104.5v427h171v-441zM567 764h-130l-68 81l-68 -81h-128l124 144h148z"/>
<glyph horiz-adv-x="738" unicode="Ü" glyph-name="Udieresis" d="M673 267q0 -128 -83.5 -207t-221.5 -79t-220 78.5t-82 207.5v441h170v-427q0 -63 33 -104.5t100 -41.5q68 0 100.5 41.5t32.5 104.5v427h171v-441zM562 850q0 -34 -24.5 -58t-58.5 -24q-35 0 -59 24t-24 58q0 33 24 57t59 24q34 0 58.5 -23.5t24.5 -57.5zM345 850 q0 -34 -24.5 -58t-59.5 -24q-34 0 -58.5 24t-24.5 58q0 33 24.5 57t58.5 24q35 0 59.5 -23.5t24.5 -57.5z"/>
<glyph horiz-adv-x="669" unicode="Ý" glyph-name="Yacute" d="M689 708l-272 -408v-300h-171v300l-266 408h207l151 -262l151 262h200zM543 908l-146 -144h-124l104 144h166z"/>
<glyph horiz-adv-x="640" unicode="Þ" glyph-name="Thorn" d="M610 369q0 -78 -40.5 -130t-101 -72.5t-139.5 -20.5h-85v-146h-171v708h171v-121h89q126 0 201.5 -51.5t75.5 -166.5zM439 368q0 82 -120 82h-75v-168h72q123 0 123 86z"/>
<glyph horiz-adv-x="667" unicode="ß" glyph-name="germandbls" d="M277 140q36 -13 73 -13q113 0 113 103q0 57 -38 85.5t-97 28.5h-21v129h22q12 0 24.5 3t27.5 10.5t24.5 25t9.5 42.5q0 34 -22.5 57.5t-61.5 23.5q-55 0 -79 -39.5t-24 -95.5v-500h-164v501q0 120 69 193.5t205 73.5q103 0 172.5 -54.5t69.5 -145.5q0 -54 -29.5 -95 t-74.5 -55v-1q70 -14 111.5 -66t41.5 -129q0 -109 -69.5 -172t-186.5 -63q-47 0 -96 12v141z"/>
<glyph horiz-adv-x="566" unicode="à" glyph-name="agrave" d="M358 200v17h-21q-153 0 -153 -68q0 -26 21 -38.5t50 -12.5q49 0 76 27.5t27 74.5zM140 341l-83 89q89 84 222 84q123 0 176 -62.5t53 -200.5v-251h-150v53h-3q-18 -30 -57 -47.5t-84 -17.5q-44 0 -82.5 13.5t-68.5 50.5t-30 92q0 168 320 168v8q0 35 -25 53.5t-65 18.5 q-68 0 -123 -51zM382 572h-124l-146 144h166z"/>
<glyph horiz-adv-x="566" unicode="á" glyph-name="aacute" d="M358 200v17h-21q-153 0 -153 -68q0 -26 21 -38.5t50 -12.5q49 0 76 27.5t27 74.5zM140 341l-83 89q89 84 222 84q123 0 176 -62.5t53 -200.5v-251h-150v53h-3q-18 -30 -57 -47.5t-84 -17.5q-44 0 -82.5 13.5t-68.5 50.5t-30 92q0 168 320 168v8q0 35 -25 53.5t-65 18.5 q-68 0 -123 -51zM458 716l-146 -144h-124l104 144h166z"/>
<glyph horiz-adv-x="566" unicode="â" glyph-name="acircumflex" d="M358 200v17h-21q-153 0 -153 -68q0 -26 21 -38.5t50 -12.5q49 0 76 27.5t27 74.5zM140 341l-83 89q89 84 222 84q123 0 176 -62.5t53 -200.5v-251h-150v53h-3q-18 -30 -57 -47.5t-84 -17.5q-44 0 -82.5 13.5t-68.5 50.5t-30 92q0 168 320 168v8q0 35 -25 53.5t-65 18.5 q-68 0 -123 -51zM482 572h-130l-68 81l-68 -81h-128l124 144h148z"/>
<glyph horiz-adv-x="566" unicode="ã" glyph-name="atilde" d="M358 200v17h-21q-153 0 -153 -68q0 -26 21 -38.5t50 -12.5q49 0 76 27.5t27 74.5zM140 341l-83 89q89 84 222 84q123 0 176 -62.5t53 -200.5v-251h-150v53h-3q-18 -30 -57 -47.5t-84 -17.5q-44 0 -82.5 13.5t-68.5 50.5t-30 92q0 168 320 168v8q0 35 -25 53.5t-65 18.5 q-68 0 -123 -51zM473 708q-7 -58 -34.5 -95t-78.5 -37q-36 0 -81 21q-39 20 -63 20q-31 0 -42 -40h-72q17 130 113 130q37 0 80 -20t65 -20q32 0 42 41h71z"/>
<glyph horiz-adv-x="566" unicode="ä" glyph-name="adieresis" d="M358 200v17h-21q-153 0 -153 -68q0 -26 21 -38.5t50 -12.5q49 0 76 27.5t27 74.5zM140 341l-83 89q89 84 222 84q123 0 176 -62.5t53 -200.5v-251h-150v53h-3q-18 -30 -57 -47.5t-84 -17.5q-44 0 -82.5 13.5t-68.5 50.5t-30 92q0 168 320 168v8q0 35 -25 53.5t-65 18.5 q-68 0 -123 -51zM477 658q0 -34 -24.5 -58t-58.5 -24q-35 0 -59 24t-24 58q0 33 24 57t59 24q34 0 58.5 -23.5t24.5 -57.5zM260 658q0 -34 -24.5 -58t-59.5 -24q-34 0 -58.5 24t-24.5 58q0 33 24.5 57t58.5 24q35 0 59.5 -23.5t24.5 -57.5z"/>
<glyph horiz-adv-x="566" unicode="å" glyph-name="aring" d="M358 200v17h-21q-153 0 -153 -68q0 -26 21 -38.5t50 -12.5q49 0 76 27.5t27 74.5zM140 341l-83 89q89 84 222 84q123 0 176 -62.5t53 -200.5v-251h-150v53h-3q-18 -30 -57 -47.5t-84 -17.5q-44 0 -82.5 13.5t-68.5 50.5t-30 92q0 168 320 168v8q0 35 -25 53.5t-65 18.5 q-68 0 -123 -51zM396 664q0 -46 -31.5 -76.5t-77.5 -30.5q-45 0 -77 30.5t-32 75.5q0 46 31.5 77t77.5 31q45 0 77 -31t32 -76zM346 664q0 25 -17 41.5t-42 16.5t-42 -17t-17 -42q0 -24 17 -40.5t42 -16.5t42 16.5t17 41.5z"/>
<glyph horiz-adv-x="899" unicode="æ" glyph-name="ae" d="M358 191v16h-21q-77 0 -115 -12t-38 -46q0 -26 21 -38.5t50 -12.5q49 0 76 25t27 68zM498 306h211q0 41 -25.5 68t-72.5 27q-46 0 -78 -28t-35 -67zM727 162l113 -72q-72 -106 -226 -106q-59 0 -108.5 23.5t-78.5 66.5q-53 -86 -202 -86q-75 0 -133.5 39t-58.5 117 q0 50 26 83.5t74.5 49.5t99.5 22t120 6v7q0 80 -89 80q-69 0 -124 -51l-82 89q87 84 221 84q111 0 161 -73q63 73 171 73q111 0 180.5 -73t69.5 -198q0 -15 -2 -39h-360q4 -41 38.5 -67.5t79.5 -26.5q74 0 110 52z"/>
<glyph horiz-adv-x="503" unicode="ç" glyph-name="ccedilla" d="M430 -142q0 -52 -44.5 -75t-102.5 -23q-67 0 -119 25l27 60q40 -19 84 -19q50 0 50 33q0 29 -47 29q-22 0 -40 -6l-31 29l58 77q-101 15 -163.5 84.5t-62.5 176.5q0 119 79.5 192t198.5 73q53 0 104.5 -18.5t80.5 -48.5l-95 -110q-13 18 -37.5 29t-49.5 11 q-51 0 -83 -37.5t-32 -90.5t32 -90t85 -37q58 0 89 37l91 -111q-57 -55 -158 -63l-35 -45q7 1 18 1q103 0 103 -83z"/>
<glyph horiz-adv-x="596" unicode="è" glyph-name="egrave" d="M196 306h211q0 41 -25.5 68t-72.5 27q-46 0 -78 -28t-35 -67zM558 243q0 -27 -1 -39h-361q4 -40 39 -67t80 -27q72 0 110 52l114 -72q-73 -106 -226 -106q-117 0 -195.5 70.5t-78.5 192.5q0 120 76.5 193.5t192.5 73.5q112 0 181 -72.5t69 -198.5zM402 572h-124l-146 144 h166z"/>
<glyph horiz-adv-x="596" unicode="é" glyph-name="eacute" d="M196 306h211q0 41 -25.5 68t-72.5 27q-46 0 -78 -28t-35 -67zM558 243q0 -27 -1 -39h-361q4 -40 39 -67t80 -27q72 0 110 52l114 -72q-73 -106 -226 -106q-117 0 -195.5 70.5t-78.5 192.5q0 120 76.5 193.5t192.5 73.5q112 0 181 -72.5t69 -198.5zM477 716l-146 -144 h-124l104 144h166z"/>
<glyph horiz-adv-x="596" unicode="ê" glyph-name="ecircumflex" d="M196 306h211q0 41 -25.5 68t-72.5 27q-46 0 -78 -28t-35 -67zM558 243q0 -27 -1 -39h-361q4 -40 39 -67t80 -27q72 0 110 52l114 -72q-73 -106 -226 -106q-117 0 -195.5 70.5t-78.5 192.5q0 120 76.5 193.5t192.5 73.5q112 0 181 -72.5t69 -198.5zM511 572h-130l-68 81 l-68 -81h-128l124 144h148z"/>
<glyph horiz-adv-x="596" unicode="ë" glyph-name="edieresis" d="M196 306h211q0 41 -25.5 68t-72.5 27q-46 0 -78 -28t-35 -67zM558 243q0 -27 -1 -39h-361q4 -40 39 -67t80 -27q72 0 110 52l114 -72q-73 -106 -226 -106q-117 0 -195.5 70.5t-78.5 192.5q0 120 76.5 193.5t192.5 73.5q112 0 181 -72.5t69 -198.5zM505 658 q0 -34 -24.5 -58t-58.5 -24q-35 0 -59 24t-24 58q0 33 24 57t59 24q34 0 58.5 -23.5t24.5 -57.5zM288 658q0 -34 -24.5 -58t-59.5 -24q-34 0 -58.5 24t-24.5 58q0 33 24.5 57t58.5 24q35 0 59.5 -23.5t24.5 -57.5z"/>
<glyph horiz-adv-x="296" unicode="ì" glyph-name="igrave" d="M230 0h-164v498h164v-498zM228 572h-124l-146 144h166z"/>
<glyph horiz-adv-x="296" unicode="í" glyph-name="iacute" d="M230 0h-164v498h164v-498zM337 716l-146 -144h-124l104 144h166z"/>
<glyph horiz-adv-x="296" unicode="î" glyph-name="icircumflex" d="M230 0h-164v498h164v-498zM348 572h-130l-68 81l-68 -81h-128l124 144h148z"/>
<glyph horiz-adv-x="296" unicode="ï" glyph-name="idieresis" d="M230 0h-164v498h164v-498zM342 658q0 -34 -24.5 -58t-58.5 -24q-35 0 -59 24t-24 58q0 33 24 57t59 24q34 0 58.5 -23.5t24.5 -57.5zM125 658q0 -34 -24.5 -58t-59.5 -24q-34 0 -58.5 24t-24.5 58q0 33 24.5 57t58.5 24q35 0 59.5 -23.5t24.5 -57.5z"/>
<glyph horiz-adv-x="632" unicode="ð" glyph-name="eth" d="M593 282q0 -137 -76 -217.5t-202 -80.5q-117 0 -196.5 73.5t-79.5 192.5q0 117 76 188.5t188 71.5q49 0 82 -25l2 1q-51 75 -98 114l-108 -48l-80 70l109 47q-25 25 -75 59l127 71q34 -25 86 -72l113 50l87 -71l-121 -52q166 -180 166 -372zM435 250q0 51 -32.5 89 t-87.5 38t-86.5 -38t-31.5 -89q0 -52 32 -90t87 -38t87 38t32 90z"/>
<glyph horiz-adv-x="616" unicode="ñ" glyph-name="ntilde" d="M556 0h-165v272q0 105 -74 105q-42 0 -65 -31t-23 -76v-270h-165v498h159v-69h2q18 35 58.5 59t90.5 24q93 0 137.5 -59.5t44.5 -144.5v-308zM497 708q-7 -58 -34.5 -95t-78.5 -37q-36 0 -81 21q-39 20 -63 20q-31 0 -42 -40h-72q17 130 113 130q37 0 80 -20t65 -20 q32 0 42 41h71z"/>
<glyph horiz-adv-x="632" unicode="ò" glyph-name="ograve" d="M592 251q0 -119 -80 -193t-197 -74q-116 0 -196 74t-80 193t80 191t196 72q117 0 197 -72t80 -191zM434 251q0 51 -32 89t-87 38t-86 -37.5t-31 -89.5t31.5 -90.5t86.5 -38.5t86.5 38.5t31.5 90.5zM397 572h-124l-146 144h166z"/>
<glyph horiz-adv-x="632" unicode="ó" glyph-name="oacute" d="M592 251q0 -119 -80 -193t-197 -74q-116 0 -196 74t-80 193t80 191t196 72q117 0 197 -72t80 -191zM434 251q0 51 -32 89t-87 38t-86 -37.5t-31 -89.5t31.5 -90.5t86.5 -38.5t86.5 38.5t31.5 90.5zM500 716l-146 -144h-124l104 144h166z"/>
<glyph horiz-adv-x="632" unicode="ô" glyph-name="ocircumflex" d="M592 251q0 -119 -80 -193t-197 -74q-116 0 -196 74t-80 193t80 191t196 72q117 0 197 -72t80 -191zM434 251q0 51 -32 89t-87 38t-86 -37.5t-31 -89.5t31.5 -90.5t86.5 -38.5t86.5 38.5t31.5 90.5zM507 576h-126l-66 79l-66 -79h-125l121 140h144z"/>
<glyph horiz-adv-x="632" unicode="õ" glyph-name="otilde" d="M592 251q0 -119 -80 -193t-197 -74q-116 0 -196 74t-80 193t80 191t196 72q117 0 197 -72t80 -191zM434 251q0 51 -32 89t-87 38t-86 -37.5t-31 -89.5t31.5 -90.5t86.5 -38.5t86.5 38.5t31.5 90.5zM501 708q-7 -58 -34.5 -95t-78.5 -37q-36 0 -81 21q-39 20 -63 20 q-31 0 -42 -40h-72q17 130 113 130q37 0 80 -20t65 -20q32 0 42 41h71z"/>
<glyph horiz-adv-x="632" unicode="ö" glyph-name="odieresis" d="M592 251q0 -119 -80 -193t-197 -74q-116 0 -196 74t-80 193t80 191t196 72q117 0 197 -72t80 -191zM434 251q0 51 -32 89t-87 38t-86 -37.5t-31 -89.5t31.5 -90.5t86.5 -38.5t86.5 38.5t31.5 90.5zM507 658q0 -34 -24.5 -58t-58.5 -24q-35 0 -59 24t-24 58q0 33 24 57 t59 24q34 0 58.5 -23.5t24.5 -57.5zM290 658q0 -34 -24.5 -58t-59.5 -24q-34 0 -58.5 24t-24.5 58q0 33 24.5 57t58.5 24q35 0 59.5 -23.5t24.5 -57.5z"/>
<glyph horiz-adv-x="666" unicode="÷" glyph-name="divide" d="M246 489q0 34 26 59t61 25t60.5 -25t25.5 -59q0 -35 -25.5 -60t-60.5 -25t-61 25t-26 60zM246 117q0 34 26 59t61 25t60.5 -25t25.5 -59q0 -35 -25.5 -60t-60.5 -25t-61 25.5t-26 59.5zM586 240h-507v127h507v-127z"/>
<glyph horiz-adv-x="632" unicode="ø" glyph-name="oslash" d="M607 480l-70 -69q55 -64 55 -161q0 -118 -80 -192t-197 -74q-93 0 -157 47l-75 -74l-59 58l72 71q-57 65 -57 164q0 118 79.5 191.5t196.5 73.5q94 0 160 -49l72 72zM372 365q-24 19 -59 19q-56 0 -88.5 -38.5t-32.5 -91.5q0 -37 14 -57zM436 248q0 36 -13 58l-167 -168 q22 -20 61 -20q56 0 87.5 38.5t31.5 91.5z"/>
<glyph horiz-adv-x="614" unicode="ù" glyph-name="ugrave" d="M550 0h-158v69h-2q-18 -35 -59 -59t-91 -24q-93 0 -137 59.5t-44 144.5v308h165v-270q0 -106 74 -106q41 0 64.5 31t23.5 76v269h164v-498zM408 572h-124l-146 144h166z"/>
<glyph horiz-adv-x="614" unicode="ú" glyph-name="uacute" d="M550 0h-158v69h-2q-18 -35 -59 -59t-91 -24q-93 0 -137 59.5t-44 144.5v308h165v-270q0 -106 74 -106q41 0 64.5 31t23.5 76v269h164v-498zM489 716l-146 -144h-124l104 144h166z"/>
<glyph horiz-adv-x="614" unicode="û" glyph-name="ucircumflex" d="M550 0h-158v69h-2q-18 -35 -59 -59t-91 -24q-93 0 -137 59.5t-44 144.5v308h165v-270q0 -106 74 -106q41 0 64.5 31t23.5 76v269h164v-498zM505 572h-130l-68 81l-68 -81h-128l124 144h148z"/>
<glyph horiz-adv-x="614" unicode="ü" glyph-name="udieresis" d="M550 0h-158v69h-2q-18 -35 -59 -59t-91 -24q-93 0 -137 59.5t-44 144.5v308h165v-270q0 -106 74 -106q41 0 64.5 31t23.5 76v269h164v-498zM499 658q0 -34 -24.5 -58t-58.5 -24q-35 0 -59 24t-24 58q0 33 24 57t59 24q34 0 58.5 -23.5t24.5 -57.5zM282 658 q0 -34 -24.5 -58t-59.5 -24q-34 0 -58.5 24t-24.5 58q0 33 24.5 57t58.5 24q35 0 59.5 -23.5t24.5 -57.5z"/>
<glyph horiz-adv-x="567" unicode="ý" glyph-name="yacute" d="M568 498l-223 -573q-32 -84 -81 -124.5t-138 -40.5q-46 0 -90 11l18 138q29 -9 53 -9q36 0 53.5 15.5t30.5 51.5l16 41l-208 490h182l111 -320h3l99 320h174zM488 716l-146 -144h-124l104 144h166z"/>
<glyph horiz-adv-x="659" unicode="þ" glyph-name="thorn" d="M619 251q0 -110 -64 -187.5t-173 -77.5q-46 0 -87.5 19t-63.5 51h-2v-296h-163v996h163v-311h3q57 67 152 67q105 0 170 -76.5t65 -184.5zM461 251q0 52 -31.5 89.5t-86.5 37.5q-53 0 -86.5 -39t-33.5 -89q0 -51 33.5 -89.5t86.5 -38.5q55 0 86.5 38t31.5 91z"/>
<hkern g1="F" k="54" g2="A,Agrave,Aacute,Acircumflex,Atilde,Adieresis,Aring,AE"/>
<hkern g1="F" k="144" g2="J"/>
<hkern g1="F" k="48" g2="a,agrave,aacute,acircumflex,atilde,adieresis,aring,ae"/>
<hkern g1="F" k="48" g2="e,egrave,eacute,ecircumflex,edieresis"/>
<hkern g1="F" k="12" g2="hyphen,uni00AD"/>
<hkern g1="F" k="18" g2="i,igrave,iacute,icircumflex,idieresis"/>
<hkern g1="F" k="48" g2="o,ograve,oacute,ocircumflex,otilde,odieresis,oslash"/>
<hkern g1="F" k="96" g2="period"/>
<hkern g1="F" k="42" g2="r"/>
<hkern g1="F" k="42" g2="u,ugrave,uacute,ucircumflex,udieresis"/>
<hkern g1="F" k="18" g2="y,yacute"/>
<hkern g1="P" k="60" g2="A,Agrave,Aacute,Acircumflex,Atilde,Adieresis,Aring,AE"/>
<hkern g1="P" k="47" g2="a,agrave,aacute,acircumflex,atilde,adieresis,aring,ae"/>
<hkern g1="P" k="50" g2="e,egrave,eacute,ecircumflex,edieresis"/>
<hkern g1="P" k="36" g2="hyphen,uni00AD"/>
<hkern g1="P" k="24" g2="i,igrave,iacute,icircumflex,idieresis"/>
<hkern g1="P" k="50" g2="o,ograve,oacute,ocircumflex,otilde,odieresis,oslash"/>
<hkern g1="P" k="144" g2="period"/>
<hkern g1="P" k="43" g2="r"/>
<hkern g1="P" k="43" g2="u,ugrave,uacute,ucircumflex,udieresis"/>
<hkern g1="P" k="42" g2="y,yacute"/>
<hkern g1="P" k="6" g2="T"/>
<hkern g1="P" k="18" g2="Y,Yacute"/>
<hkern g1="P" k="43" g2="n,ntilde"/>
<hkern g1="P" k="48" g2="s"/>
<hkern g1="V" k="30" g2="A,Agrave,Aacute,Acircumflex,Atilde,Adieresis,Aring,AE"/>
<hkern g1="V" k="42" g2="a,agrave,aacute,acircumflex,atilde,adieresis,aring,ae"/>
<hkern g1="V" k="42" g2="e,egrave,eacute,ecircumflex,edieresis"/>
<hkern g1="V" k="24" g2="hyphen,uni00AD"/>
<hkern g1="V" k="18" g2="i,igrave,iacute,icircumflex,idieresis"/>
<hkern g1="V" k="42" g2="o,ograve,oacute,ocircumflex,otilde,odieresis,oslash"/>
<hkern g1="V" k="84" g2="period"/>
<hkern g1="V" k="42" g2="u,ugrave,uacute,ucircumflex,udieresis"/>
<hkern g1="V" k="24" g2="y,yacute"/>
<hkern g1="V" k="12" g2="C,Ccedilla"/>
<hkern g1="V" k="12" g2="G"/>
<hkern g1="V" k="12" g2="O,Ograve,Oacute,Ocircumflex,Otilde,Odieresis,Oslash"/>
<hkern g1="V" k="18" g2="space,uni00A0"/>
<hkern g1="X" k="12" g2="a,agrave,aacute,acircumflex,atilde,adieresis,aring,ae"/>
<hkern g1="X" k="28" g2="e,egrave,eacute,ecircumflex,edieresis"/>
<hkern g1="X" k="24" g2="hyphen,uni00AD"/>
<hkern g1="X" k="28" g2="o,ograve,oacute,ocircumflex,otilde,odieresis,oslash"/>
<hkern g1="X" k="24" g2="u,ugrave,uacute,ucircumflex,udieresis"/>
<hkern g1="X" k="28" g2="y,yacute"/>
<hkern g1="X" k="30" g2="C,Ccedilla"/>
<hkern g1="X" k="30" g2="G"/>
<hkern g1="X" k="30" g2="O,Ograve,Oacute,Ocircumflex,Otilde,Odieresis,Oslash"/>
<hkern g1="X" k="12" g2="space,uni00A0"/>
<hkern g1="b" k="12" g2="period"/>
<hkern g1="braceleft" k="30" g2="J"/>
<hkern g1="braceleft" k="-60" g2="j"/>
<hkern g1="bracketleft" k="30" g2="J"/>
<hkern g1="bracketleft" k="-60" g2="j"/>
<hkern g1="comma" k="36" g2="hyphen,uni00AD"/>
<hkern g1="comma" k="30" g2="space,uni00A0"/>
<hkern g1="exclamdown" k="-48" g2="j"/>
<hkern g1="f" k="-24" g2="space,uni00A0"/>
<hkern g1="f" k="30" g2="f"/>
<hkern g1="f" k="24" g2="t"/>
<hkern g1="guillemotleft" k="48" g2="T"/>
<hkern g1="guillemotleft" k="24" g2="Y,Yacute"/>
<hkern g1="guillemotleft" k="30" g2="space,uni00A0"/>
<hkern g1="guillemotleft" k="18" g2="W"/>
<hkern g1="guillemotright" k="60" g2="T"/>
<hkern g1="guillemotright" k="60" g2="Y,Yacute"/>
<hkern g1="guillemotright" k="30" g2="space,uni00A0"/>
<hkern g1="guillemotright" k="24" g2="W"/>
<hkern g1="p" k="12" g2="period"/>
<hkern g1="parenleft" k="30" g2="J"/>
<hkern g1="parenleft" k="-60" g2="j"/>
<hkern g1="questiondown" k="-48" g2="j"/>
<hkern g1="v" k="48" g2="period"/>
<hkern g1="x" k="22" g2="e,egrave,eacute,ecircumflex,edieresis"/>
<hkern g1="x" k="12" g2="hyphen,uni00AD"/>
<hkern g1="x" k="22" g2="o,ograve,oacute,ocircumflex,otilde,odieresis,oslash"/>
<hkern g1="x" k="22" g2="c,ccedilla"/>
<hkern g1="A,Agrave,Aacute,Acircumflex,Atilde,Adieresis,Aring" k="6" g2="y,yacute"/>
<hkern g1="A,Agrave,Aacute,Acircumflex,Atilde,Adieresis,Aring" k="60" g2="T"/>
<hkern g1="A,Agrave,Aacute,Acircumflex,Atilde,Adieresis,Aring" k="60" g2="Y,Yacute"/>
<hkern g1="A,Agrave,Aacute,Acircumflex,Atilde,Adieresis,Aring" k="18" g2="C,Ccedilla"/>
<hkern g1="A,Agrave,Aacute,Acircumflex,Atilde,Adieresis,Aring" k="18" g2="G"/>
<hkern g1="A,Agrave,Aacute,Acircumflex,Atilde,Adieresis,Aring" k="18" g2="O,Ograve,Oacute,Ocircumflex,Otilde,Odieresis,Oslash"/>
<hkern g1="A,Agrave,Aacute,Acircumflex,Atilde,Adieresis,Aring" k="18" g2="space,uni00A0"/>
<hkern g1="A,Agrave,Aacute,Acircumflex,Atilde,Adieresis,Aring" k="12" g2="W"/>
<hkern g1="A,Agrave,Aacute,Acircumflex,Atilde,Adieresis,Aring" k="18" g2="U,Ugrave,Uacute,Ucircumflex,Udieresis"/>
<hkern g1="A,Agrave,Aacute,Acircumflex,Atilde,Adieresis,Aring" k="6" g2="w"/>
<hkern g1="A,Agrave,Aacute,Acircumflex,Atilde,Adieresis,Aring" k="18" g2="Q"/>
<hkern g1="A,Agrave,Aacute,Acircumflex,Atilde,Adieresis,Aring" k="30" g2="V"/>
<hkern g1="A,Agrave,Aacute,Acircumflex,Atilde,Adieresis,Aring" k="78" g2="registered"/>
<hkern g1="A,Agrave,Aacute,Acircumflex,Atilde,Adieresis,Aring" k="6" g2="v"/>
<hkern g1="C,Ccedilla" k="12" g2="A,Agrave,Aacute,Acircumflex,Atilde,Adieresis,Aring,AE"/>
<hkern g1="C,Ccedilla" k="18" g2="a,agrave,aacute,acircumflex,atilde,adieresis,aring,ae"/>
<hkern g1="C,Ccedilla" k="12" g2="e,egrave,eacute,ecircumflex,edieresis"/>
<hkern g1="C,Ccedilla" k="12" g2="o,ograve,oacute,ocircumflex,otilde,odieresis,oslash"/>
<hkern g1="C,Ccedilla" k="18" g2="y,yacute"/>
<hkern g1="C,Ccedilla" k="6" g2="T"/>
<hkern g1="C,Ccedilla" k="12" g2="Y,Yacute"/>
<hkern g1="C,Ccedilla" k="12" g2="C,Ccedilla"/>
<hkern g1="C,Ccedilla" k="12" g2="O,Ograve,Oacute,Ocircumflex,Otilde,Odieresis,Oslash"/>
<hkern g1="C,Ccedilla" k="18" g2="w"/>
<hkern g1="C,Ccedilla" k="12" g2="Q"/>
<hkern g1="C,Ccedilla" k="18" g2="v"/>
<hkern g1="D,Eth" k="24" g2="A,Agrave,Aacute,Acircumflex,Atilde,Adieresis,Aring,AE"/>
<hkern g1="D,Eth" k="60" g2="J"/>
<hkern g1="D,Eth" k="48" g2="period"/>
<hkern g1="D,Eth" k="25" g2="T"/>
<hkern g1="D,Eth" k="36" g2="Y,Yacute"/>
<hkern g1="D,Eth" k="12" g2="V"/>
<hkern g1="D,Eth" k="30" g2="X"/>
<hkern g1="D,Eth" k="48" g2="comma"/>
<hkern g1="D,Eth" k="12" g2="Z"/>
<hkern g1="E,AE,Egrave,Eacute,Ecircumflex,Edieresis" k="12" g2="y,yacute"/>
<hkern g1="E,AE,Egrave,Eacute,Ecircumflex,Edieresis" k="12" g2="w"/>
<hkern g1="E,AE,Egrave,Eacute,Ecircumflex,Edieresis" k="12" g2="v"/>
<hkern g1="G" k="24" g2="y,yacute"/>
<hkern g1="G" k="48" g2="T"/>
<hkern g1="G" k="48" g2="Y,Yacute"/>
<hkern g1="G" k="12" g2="W"/>
<hkern g1="G" k="24" g2="w"/>
<hkern g1="G" k="6" g2="V"/>
<hkern g1="K" k="12" g2="A,Agrave,Aacute,Acircumflex,Atilde,Adieresis,Aring,AE"/>
<hkern g1="K" k="12" g2="a,agrave,aacute,acircumflex,atilde,adieresis,aring,ae"/>
<hkern g1="K" k="30" g2="e,egrave,eacute,ecircumflex,edieresis"/>
<hkern g1="K" k="24" g2="hyphen,uni00AD"/>
<hkern g1="K" k="30" g2="o,ograve,oacute,ocircumflex,otilde,odieresis,oslash"/>
<hkern g1="K" k="30" g2="u,ugrave,uacute,ucircumflex,udieresis"/>
<hkern g1="K" k="24" g2="y,yacute"/>
<hkern g1="K" k="12" g2="T"/>
<hkern g1="K" k="6" g2="Y,Yacute"/>
<hkern g1="K" k="40" g2="C,Ccedilla"/>
<hkern g1="K" k="40" g2="G"/>
<hkern g1="K" k="40" g2="O,Ograve,Oacute,Ocircumflex,Otilde,Odieresis,Oslash"/>
<hkern g1="K" k="12" g2="space,uni00A0"/>
<hkern g1="K" k="30" g2="w"/>
<hkern g1="K" k="40" g2="Q"/>
<hkern g1="K" k="30" g2="v"/>
<hkern g1="L" k="18" g2="e,egrave,eacute,ecircumflex,edieresis"/>
<hkern g1="L" k="36" g2="hyphen,uni00AD"/>
<hkern g1="L" k="18" g2="o,ograve,oacute,ocircumflex,otilde,odieresis,oslash"/>
<hkern g1="L" k="12" g2="u,ugrave,uacute,ucircumflex,udieresis"/>
<hkern g1="L" k="36" g2="y,yacute"/>
<hkern g1="L" k="79" g2="T"/>
<hkern g1="L" k="77" g2="Y,Yacute"/>
<hkern g1="L" k="30" g2="C,Ccedilla"/>
<hkern g1="L" k="30" g2="G"/>
<hkern g1="L" k="30" g2="O,Ograve,Oacute,Ocircumflex,Otilde,Odieresis,Oslash"/>
<hkern g1="L" k="24" g2="space,uni00A0"/>
<hkern g1="L" k="48" g2="W"/>
<hkern g1="L" k="24" g2="U,Ugrave,Uacute,Ucircumflex,Udieresis"/>
<hkern g1="L" k="30" g2="Q"/>
<hkern g1="L" k="54" g2="V"/>
<hkern g1="L" k="120" g2="registered"/>
<hkern g1="L" k="12" g2="v"/>
<hkern g1="O,Ograve,Oacute,Ocircumflex,Otilde,Odieresis,Oslash" k="18" g2="A,Agrave,Aacute,Acircumflex,Atilde,Adieresis,Aring,AE"/>
<hkern g1="O,Ograve,Oacute,Ocircumflex,Otilde,Odieresis,Oslash" k="36" g2="J"/>
<hkern g1="O,Ograve,Oacute,Ocircumflex,Otilde,Odieresis,Oslash" k="48" g2="period"/>
<hkern g1="O,Ograve,Oacute,Ocircumflex,Otilde,Odieresis,Oslash" k="30" g2="T"/>
<hkern g1="O,Ograve,Oacute,Ocircumflex,Otilde,Odieresis,Oslash" k="32" g2="Y,Yacute"/>
<hkern g1="O,Ograve,Oacute,Ocircumflex,Otilde,Odieresis,Oslash" k="12" g2="V"/>
<hkern g1="O,Ograve,Oacute,Ocircumflex,Otilde,Odieresis,Oslash" k="30" g2="X"/>
<hkern g1="O,Ograve,Oacute,Ocircumflex,Otilde,Odieresis,Oslash" k="48" g2="comma"/>
<hkern g1="O,Ograve,Oacute,Ocircumflex,Otilde,Odieresis,Oslash" k="24" g2="Z"/>
<hkern g1="R" k="12" g2="a,agrave,aacute,acircumflex,atilde,adieresis,aring,ae"/>
<hkern g1="R" k="12" g2="e,egrave,eacute,ecircumflex,edieresis"/>
<hkern g1="R" k="12" g2="o,ograve,oacute,ocircumflex,otilde,odieresis,oslash"/>
<hkern g1="R" k="12" g2="u,ugrave,uacute,ucircumflex,udieresis"/>
<hkern g1="R" k="6" g2="y,yacute"/>
<hkern g1="R" k="12" g2="T"/>
<hkern g1="R" k="10" g2="Y,Yacute"/>
<hkern g1="R" k="6" g2="w"/>
<hkern g1="R" k="12" g2="V"/>
<hkern g1="S" k="12" g2="y,yacute"/>
<hkern g1="S" k="13" g2="T"/>
<hkern g1="S" k="15" g2="Y,Yacute"/>
<hkern g1="S" k="6" g2="t"/>
<hkern g1="S" k="7" g2="V"/>
<hkern g1="T" k="60" g2="A,Agrave,Aacute,Acircumflex,Atilde,Adieresis,Aring,AE"/>
<hkern g1="T" k="108" g2="J"/>
<hkern g1="T" k="96" g2="a,agrave,aacute,acircumflex,atilde,adieresis,aring,ae"/>
<hkern g1="T" k="96" g2="e,egrave,eacute,ecircumflex,edieresis"/>
<hkern g1="T" k="90" g2="hyphen,uni00AD"/>
<hkern g1="T" k="12" g2="i,igrave,iacute,icircumflex,idieresis"/>
<hkern g1="T" k="96" g2="o,ograve,oacute,ocircumflex,otilde,odieresis,oslash"/>
<hkern g1="T" k="78" g2="period"/>
<hkern g1="T" k="90" g2="r"/>
<hkern g1="T" k="90" g2="u,ugrave,uacute,ucircumflex,udieresis"/>
<hkern g1="T" k="96" g2="y,yacute"/>
<hkern g1="T" k="12" g2="Y,Yacute"/>
<hkern g1="T" k="96" g2="s"/>
<hkern g1="T" k="30" g2="C,Ccedilla"/>
<hkern g1="T" k="30" g2="G"/>
<hkern g1="T" k="30" g2="O,Ograve,Oacute,Ocircumflex,Otilde,Odieresis,Oslash"/>
<hkern g1="T" k="24" g2="space,uni00A0"/>
<hkern g1="T" k="96" g2="w"/>
<hkern g1="T" k="96" g2="c,ccedilla"/>
<hkern g1="T" k="30" g2="Q"/>
<hkern g1="T" k="96" g2="v"/>
<hkern g1="T" k="78" g2="comma"/>
<hkern g1="T" k="72" g2="colon"/>
<hkern g1="T" k="60" g2="guillemotleft"/>
<hkern g1="T" k="48" g2="guillemotright"/>
<hkern g1="T" k="72" g2="semicolon"/>
<hkern g1="T" k="12" g2="Z"/>
<hkern g1="T" k="18" g2="h"/>
<hkern g1="T" k="78" g2="z"/>
<hkern g1="U,Ugrave,Uacute,Ucircumflex,Udieresis" k="18" g2="A,Agrave,Aacute,Acircumflex,Atilde,Adieresis,Aring,AE"/>
<hkern g1="U,Ugrave,Uacute,Ucircumflex,Udieresis" k="24" g2="period"/>
<hkern g1="U,Ugrave,Uacute,Ucircumflex,Udieresis" k="24" g2="comma"/>
<hkern g1="W" k="12" g2="A,Agrave,Aacute,Acircumflex,Atilde,Adieresis,Aring,AE"/>
<hkern g1="W" k="36" g2="a,agrave,aacute,acircumflex,atilde,adieresis,aring,ae"/>
<hkern g1="W" k="36" g2="e,egrave,eacute,ecircumflex,edieresis"/>
<hkern g1="W" k="12" g2="hyphen,uni00AD"/>
<hkern g1="W" k="36" g2="o,ograve,oacute,ocircumflex,otilde,odieresis,oslash"/>
<hkern g1="W" k="66" g2="period"/>
<hkern g1="W" k="24" g2="r"/>
<hkern g1="W" k="24" g2="u,ugrave,uacute,ucircumflex,udieresis"/>
<hkern g1="W" k="24" g2="y,yacute"/>
<hkern g1="W" k="12" g2="O,Ograve,Oacute,Ocircumflex,Otilde,Odieresis,Oslash"/>
<hkern g1="W" k="12" g2="space,uni00A0"/>
<hkern g1="W" k="66" g2="comma"/>
<hkern g1="W" k="24" g2="colon"/>
<hkern g1="W" k="24" g2="guillemotleft"/>
<hkern g1="W" k="18" g2="guillemotright"/>
<hkern g1="W" k="24" g2="semicolon"/>
<hkern g1="Y,Yacute" k="60" g2="A,Agrave,Aacute,Acircumflex,Atilde,Adieresis,Aring,AE"/>
<hkern g1="Y,Yacute" k="120" g2="J"/>
<hkern g1="Y,Yacute" k="102" g2="a,agrave,aacute,acircumflex,atilde,adieresis,aring,ae"/>
<hkern g1="Y,Yacute" k="102" g2="e,egrave,eacute,ecircumflex,edieresis"/>
<hkern g1="Y,Yacute" k="90" g2="hyphen,uni00AD"/>
<hkern g1="Y,Yacute" k="24" g2="i,igrave,iacute,icircumflex,idieresis"/>
<hkern g1="Y,Yacute" k="102" g2="o,ograve,oacute,ocircumflex,otilde,odieresis,oslash"/>
<hkern g1="Y,Yacute" k="78" g2="period"/>
<hkern g1="Y,Yacute" k="78" g2="r"/>
<hkern g1="Y,Yacute" k="86" g2="u,ugrave,uacute,ucircumflex,udieresis"/>
<hkern g1="Y,Yacute" k="90" g2="s"/>
<hkern g1="Y,Yacute" k="32" g2="C,Ccedilla"/>
<hkern g1="Y,Yacute" k="32" g2="G"/>
<hkern g1="Y,Yacute" k="32" g2="O,Ograve,Oacute,Ocircumflex,Otilde,Odieresis,Oslash"/>
<hkern g1="Y,Yacute" k="24" g2="space,uni00A0"/>
<hkern g1="Y,Yacute" k="102" g2="c,ccedilla"/>
<hkern g1="Y,Yacute" k="102" g2="d"/>
<hkern g1="Y,Yacute" k="32" g2="Q"/>
<hkern g1="Y,Yacute" k="72" g2="v"/>
<hkern g1="Y,Yacute" k="78" g2="comma"/>
<hkern g1="Y,Yacute" k="60" g2="colon"/>
<hkern g1="Y,Yacute" k="60" g2="guillemotleft"/>
<hkern g1="Y,Yacute" k="24" g2="guillemotright"/>
<hkern g1="Y,Yacute" k="60" g2="semicolon"/>
<hkern g1="Y,Yacute" k="102" g2="q"/>
<hkern g1="Z" k="12" g2="a,agrave,aacute,acircumflex,atilde,adieresis,aring,ae"/>
<hkern g1="Z" k="12" g2="e,egrave,eacute,ecircumflex,edieresis"/>
<hkern g1="Z" k="36" g2="hyphen,uni00AD"/>
<hkern g1="Z" k="12" g2="o,ograve,oacute,ocircumflex,otilde,odieresis,oslash"/>
<hkern g1="Z" k="6" g2="u,ugrave,uacute,ucircumflex,udieresis"/>
<hkern g1="Z" k="18" g2="y,yacute"/>
<hkern g1="Z" k="24" g2="O,Ograve,Oacute,Ocircumflex,Otilde,Odieresis,Oslash"/>
<hkern g1="Z" k="18" g2="w"/>
<hkern g1="Z" k="48" g2="guillemotleft"/>
<hkern g1="a,agrave,aacute,acircumflex,atilde,adieresis,aring" k="10" g2="t"/>
<hkern g1="e,ae,egrave,eacute,ecircumflex,edieresis" k="6" g2="a,agrave,aacute,acircumflex,atilde,adieresis,aring,ae"/>
<hkern g1="e,ae,egrave,eacute,ecircumflex,edieresis" k="22" g2="x"/>
<hkern g1="hyphen,uni00AD" k="12" g2="J"/>
<hkern g1="hyphen,uni00AD" k="90" g2="T"/>
<hkern g1="hyphen,uni00AD" k="90" g2="Y,Yacute"/>
<hkern g1="hyphen,uni00AD" k="12" g2="W"/>
<hkern g1="hyphen,uni00AD" k="24" g2="V"/>
<hkern g1="hyphen,uni00AD" k="24" g2="X"/>
<hkern g1="hyphen,uni00AD" k="12" g2="x"/>
<hkern g1="hyphen,uni00AD" k="12" g2="S"/>
<hkern g1="o,ograve,oacute,ocircumflex,otilde,odieresis,oslash" k="12" g2="period"/>
<hkern g1="o,ograve,oacute,ocircumflex,otilde,odieresis,oslash" k="12" g2="comma"/>
<hkern g1="o,ograve,oacute,ocircumflex,otilde,odieresis,oslash" k="22" g2="x"/>
<hkern g1="period" k="36" g2="hyphen,uni00AD"/>
<hkern g1="period" k="96" g2="T"/>
<hkern g1="period" k="72" g2="Y,Yacute"/>
<hkern g1="period" k="30" g2="space,uni00A0"/>
<hkern g1="period" k="54" g2="W"/>
<hkern g1="period" k="66" g2="V"/>
<hkern g1="period" k="43" g2="guillemotleft"/>
<hkern g1="r" k="16" g2="a,agrave,aacute,acircumflex,atilde,adieresis,aring,ae"/>
<hkern g1="r" k="18" g2="e,egrave,eacute,ecircumflex,edieresis"/>
<hkern g1="r" k="11" g2="hyphen,uni00AD"/>
<hkern g1="r" k="18" g2="o,ograve,oacute,ocircumflex,otilde,odieresis,oslash"/>
<hkern g1="r" k="48" g2="period"/>
<hkern g1="r" k="12" g2="t"/>
<hkern g1="r" k="18" g2="c,ccedilla"/>
<hkern g1="r" k="18" g2="d"/>
<hkern g1="r" k="18" g2="g"/>
<hkern g1="r" k="48" g2="comma"/>
<hkern g1="r" k="18" g2="q"/>
<hkern g1="space,uni00A0" k="18" g2="A,Agrave,Aacute,Acircumflex,Atilde,Adieresis,Aring,AE"/>
<hkern g1="space,uni00A0" k="12" g2="J"/>
<hkern g1="space,uni00A0" k="24" g2="T"/>
<hkern g1="space,uni00A0" k="24" g2="Y,Yacute"/>
<hkern g1="space,uni00A0" k="12" g2="W"/>
<hkern g1="space,uni00A0" k="18" g2="V"/>
<hkern g1="space,uni00A0" k="12" g2="X"/>
<hkern g1="space,uni00A0" k="30" g2="guillemotleft"/>
<hkern g1="space,uni00A0" k="30" g2="guillemotright"/>
<hkern g1="t" k="24" g2="t"/>
<hkern g1="w" k="36" g2="period"/>
<hkern g1="w" k="36" g2="comma"/>
<hkern g1="y,yacute" k="36" g2="period"/>
<hkern g1="y,yacute" k="36" g2="comma"/>
<hkern g1="J" k="12" g2="A,Agrave,Aacute,Acircumflex,Atilde,Adieresis,Aring,AE"/>
<hkern g1="J" k="6" g2="a,agrave,aacute,acircumflex,atilde,adieresis,aring,ae"/>
<hkern g1="g" k="-12" g2="j"/>
<hkern g1="k" k="6" g2="a,agrave,aacute,acircumflex,atilde,adieresis,aring,ae"/>
<hkern g1="k" k="18" g2="e,egrave,eacute,ecircumflex,edieresis"/>
<hkern g1="k" k="24" g2="hyphen,uni00AD"/>
<hkern g1="k" k="26" g2="o,ograve,oacute,ocircumflex,otilde,odieresis,oslash"/>
<hkern g1="k" k="12" g2="u,ugrave,uacute,ucircumflex,udieresis"/>
<hkern g1="k" k="12" g2="y,yacute"/>
<hkern g1="k" k="6" g2="s"/>
</font>
</defs>
</svg>
